Afghanistan_pashtunistan_decisions = {

	claim_pashtunistan = {

		visible = {
			PAK = { has_civil_war = yes }
			any_country_with_original_tag = {
				original_tag_to_check = PAK
				OR = {
					owns_state = 417
					owns_state = 418
					owns_state = 419
					owns_state = 594
				}
			}
			NOT = {
				417 = { is_claimed_by = ROOT }
				418 = { is_claimed_by = ROOT }
				419 = { is_claimed_by = ROOT }
				594 = { is_claimed_by = ROOT }
			}
		}

		available = {
			PAK = { has_civil_war = yes }
			custom_trigger_tooltip = {
				tooltip = TT_AFG_NOT_FACTION_WITH_PAK
				NOT = {
					any_country_with_original_tag = {
						original_tag_to_check = PAK
						is_in_faction_with = ROOT
					}
				}
			}
		}

		cost = 100

		complete_effect = {
			log = "[GetDateText]: [Root.GetName]: Decision claim_pashtunistan"
			add_state_claim = 417
			add_state_claim = 418
			add_state_claim = 419
			add_state_claim = 594
			hidden_effect = { news_event = { id = AfghanistanNews.2 hours = 6 } }
			set_country_flag = AFG_claimed_pashtunistan
		}

		ai_will_do = {
			factor = 10
			modifier = {
				factor = 0		#Don't be dick to people on your side
				OR = {
					AND = {
						has_government = democratic
						any_country_with_original_tag = {
							original_tag_to_check = PAK
							has_government = democratic
						}
					}
					AND = {
						has_government = communism
						any_country_with_original_tag = {
							original_tag_to_check = PAK
							has_government = communism
						}
					}
					AND = {
						has_government = fascism
						any_country_with_original_tag = {
							original_tag_to_check = PAK
							has_government = fascism
						}
					}
				}
			}
			modifier = {
				factor = 0		#Don't start any new conflicts
				has_war = yes
			}
		}
	}

	claim_baluchistan = {

		visible = {
			OR = {
				417 = { is_claimed_by = ROOT }
				418 = { is_claimed_by = ROOT }
				419 = { is_claimed_by = ROOT }
				594 = { is_claimed_by = ROOT }
			}
			NOT = {
				416 = { is_claimed_by = ROOT }
			}
		}

		available = {
			any_country_with_original_tag = {
				original_tag_to_check = PAK
				owns_state = 416
			}
		}

		cost = 150

		complete_effect = {
			log = "[GetDateText]: [Root.GetName]: Decision claim_baluchistan"
			add_named_threat = {
				threat = 5
				name = AFG_Baluchistan
			}
			add_state_claim = 416
			hidden_effect = { news_event = { id = AfghanistanNews.3 hours = 6 } }
		}

		ai_will_do = {
			factor = 0		#Nationalist and Salafist more aggressive
			modifier = {
				add = 10
				OR = {
					has_government = fascism
					has_government = nationalist
				}
			}
			modifier = {
				add = 20	#If we are already at war, might as well
				any_country_with_original_tag = {
					original_tag_to_check = PAK
					has_war_with = ROOT
				}
			}
			modifier = {
				add = 10	#If world already burns, what do we care?
				threat > 0.75
			}
		}
	}

	afg_claims_advance_to_baluchistan = {

		icon = border_war

		visible = {
			417 = { is_claimed_by = ROOT }
			owns_state = 415
			NOT = { owns_state = 417 }
		}

		available = {
			PAK = { has_civil_war = yes }
			NOT = { has_border_war = yes }
			417 = {
				OWNER = {
					NOT = { has_war_with = ROOT }
				}
			}
		}
		highlight_states = {
			highlight_states_trigger = {
				state = 417
			}
		}

		cost = 25

		days_remove = 15

		war_with_target_on_remove = yes

		complete_effect = {
			log = "[GetDateText]: [Root.GetName]: Decision afg_claims_advance_to_baluchistan"
			set_country_flag = AFG_attacking_417
			ROOT = { save_global_event_target_as = AFG_ATTACKER }
			FROM = { save_global_event_target_as = AFG_DEFENDER }
		}

		remove_effect = {
			log = "[GetDateText]: [Root.GetName]: Decision remove afg_claims_advance_to_baluchistan"
			start_border_war = {
				change_state_after_war = no
				attacker = {
					state = 415
					num_provinces = 2
					on_win = AfghanistanBorderWars.1
					on_lose = AfghanistanBorderWars.2
				}
				defender = {
					state = 417
					num_provinces = 1
					on_win = AfghanistanBorderWars.2
					on_lose = AfghanistanBorderWars.1
				}
			}
			custom_effect_tooltip = TT_AFG_BORDER_WAR_WARN_OF_WAR
		}

	}

	afg_claims_advance_to_the_sea = {

		icon = border_war

		visible = {
			416 = { is_claimed_by = ROOT }
			owns_state = 417
			NOT = { owns_state = 416 }
		}

		available = {
			PAK = { has_civil_war = yes }
			NOT = { has_border_war = yes }
			416 = {
				OWNER = {
					NOT = { has_war_with = ROOT }
				}
			}
		}

		highlight_states = {
			highlight_states_trigger = {
				state = 416
			}
		}

		cost = 25

		days_remove = 15

		war_with_target_on_remove = yes

		complete_effect = {
			log = "[GetDateText]: [Root.GetName]: Decision afg_claims_advance_to_the_sea"
			set_country_flag = AFG_attacking_416
			ROOT = { save_global_event_target_as = AFG_ATTACKER }
			FROM = { save_global_event_target_as = AFG_DEFENDER }
		}

		remove_effect = {
			log = "[GetDateText]: [Root.GetName]: Decision remove afg_claims_advance_to_the_sea"
			start_border_war = {
				change_state_after_war = no
				attacker = {
					state = 417
					num_provinces = 3
					on_win = AfghanistanBorderWars.1
					on_lose = AfghanistanBorderWars.2
				}
				defender = {
					state = 416
					num_provinces = 3
					on_win = AfghanistanBorderWars.2
					on_lose = AfghanistanBorderWars.1
				}
			}
			custom_effect_tooltip = TT_AFG_BORDER_WAR_WARN_OF_WAR
		}

	}

	afg_claims_advance_into_tribal_areas = {

		icon = border_war

		visible = {
			594 = { is_claimed_by = ROOT }
			owns_state = 414
			NOT = { owns_state = 594 }
		}

		available = {
			PAK = { has_civil_war = yes }
			NOT = { has_border_war = yes }
			594 = {
				OWNER = {
					NOT = { has_war_with = ROOT }
				}
			}
		}

		highlight_states = {
			highlight_states_trigger = {
				state = 594
			}
		}

		cost = 25

		days_remove = 15

		war_with_target_on_remove = yes

		complete_effect = {
			log = "[GetDateText]: [Root.GetName]: Decision afg_claims_advance_into_tribal_areas"
			set_country_flag = AFG_attacking_594
			ROOT = { save_global_event_target_as = AFG_ATTACKER }
			FROM = { save_global_event_target_as = AFG_DEFENDER }
		}

		remove_effect = {
			log = "[GetDateText]: [Root.GetName]: Decision remove afg_claims_advance_into_tribal_areas"
			start_border_war = {
				change_state_after_war = no
				attacker = {
					state = 414
					num_provinces = 3
					on_win = AfghanistanBorderWars.1
					on_lose = AfghanistanBorderWars.2
				}
				defender = {
					state = 594
					num_provinces = 4
					on_win = AfghanistanBorderWars.2
					on_lose = AfghanistanBorderWars.1
				}
			}
			custom_effect_tooltip = TT_AFG_BORDER_WAR_WARN_OF_WAR
		}

	}

	afg_claims_clear_tribal_areas = {

		icon = border_war

		visible = {
			419 = { is_claimed_by = ROOT }
			owns_state = 594
			NOT = { owns_state = 419 }
		}

		available = {
			PAK = { has_civil_war = yes }
			NOT = { has_border_war = yes }
			419 = {
				OWNER = {
					NOT = { has_war_with = ROOT }
				}
			}
		}

		highlight_states = {
			highlight_states_trigger = {
				state = 419
			}
		}

		cost = 25

		days_remove = 15

		war_with_target_on_remove = yes

		complete_effect = {
			log = "[GetDateText]: [Root.GetName]: Decision afg_claims_clear_tribal_areas"
			set_country_flag = AFG_attacking_419
			ROOT = { save_global_event_target_as = AFG_ATTACKER }
			FROM = { save_global_event_target_as = AFG_DEFENDER }
		}

		remove_effect = {
			log = "[GetDateText]: [Root.GetName]: Decision remove afg_claims_clear_tribal_areas"
			start_border_war = {
				change_state_after_war = no
				attacker = {
					state = 594
					num_provinces = 3
					on_win = AfghanistanBorderWars.1
					on_lose = AfghanistanBorderWars.2
				}
				defender = {
					state = 419
					num_provinces = 2
					on_win = AfghanistanBorderWars.2
					on_lose = AfghanistanBorderWars.1
				}
			}
			custom_effect_tooltip = TT_AFG_BORDER_WAR_WARN_OF_WAR
		}

	}

	afg_claims_invade_peshawar = {

		icon = border_war

		visible = {
			418 = { is_claimed_by = ROOT }
			owns_state = 419
			NOT = { owns_state = 418 }
		}

		available = {
			PAK = { has_civil_war = yes }
			NOT = { has_border_war = yes }
			418 = {
				OWNER = {
					NOT = { has_war_with = ROOT }
				}
			}
		}

		highlight_states = {
			highlight_states_trigger = {
				state = 418
			}
		}

		cost = 25

		days_remove = 15

		war_with_target_on_remove = yes

		complete_effect = {
			log = "[GetDateText]: [Root.GetName]: Decision afg_claims_invade_peshawar"
			set_country_flag = AFG_attacking_418
			ROOT = { save_global_event_target_as = AFG_ATTACKER }
			FROM = { save_global_event_target_as = AFG_DEFENDER }
		}

		remove_effect = {
			log = "[GetDateText]: [Root.GetName]: Decision remove afg_claims_invade_peshawar"
			start_border_war = {
				change_state_after_war = no
				attacker = {
					state = 419
					num_provinces = 3
					on_win = AfghanistanBorderWars.1
					on_lose = AfghanistanBorderWars.2
				}
				defender = {
					state = 418
					num_provinces = 3
					on_win = AfghanistanBorderWars.2
					on_lose = AfghanistanBorderWars.1
				}
			}
			custom_effect_tooltip = TT_AFG_BORDER_WAR_WARN_OF_WAR
		}

	}

	afg_invade_pakistan = {

		visible = {
			OR = {
				417 = { is_claimed_by = ROOT }
				418 = { is_claimed_by = ROOT }
				419 = { is_claimed_by = ROOT }
				594 = { is_claimed_by = ROOT }
			}
			NOT = {
				owns_state = 417
				owns_state = 418
				owns_state = 419
				owns_state = 594
			}
		}

		available = {
			PAK = { has_civil_war = yes }
			NOT = { has_border_war = yes }
		}

		cost = 75

		war_with_target_on_remove = yes

		days_remove = 45

		complete_effect = {
			log = "[GetDateText]: [Root.GetName]: Decision afg_invade_pakistan"
			if = {
				limit = { has_variable = AFG_fail_meter }
				clear_variable = AFG_fail_meter
			}
		}

		remove_effect = {
			log = "[GetDateText]: [Root.GetName]: Decision remove afg_invade_pakistan"
			add_named_threat = {
				threat = 5
				name = AFG_invasion
			}
			every_country = {
				limit = { original_tag = PAK }
				ROOT = {
					declare_war_on = {
						target = PREV
						type = annex_everything
					}
				}
			}
			hidden_effect = { news_event = { id = AfghanistanNews.4 hours = 6 } }
		}

		ai_will_do = {
			factor = 0
			modifier = {
				add = 20
				OR = {
					has_government = nationalist
					has_government = fascism
				}
			}
			modifier = {
				add = 10
				strength_ratio = {
					tag = PAK
					ratio > 2
				}
			}
			modifier = {
				add = 10
				check_variable = {
					var = AFG_fail_meter
					value = 1
					compare = greater_than
				}
			}
		}
	}

	afg_integrate_pashtunistan = {

		visible = {
			OR = {
				AND = {
					owns_state = 417
					NOT = { 417 = { is_core_of = ROOT } }
				}
				AND = {
					owns_state = 418
					NOT = { 418 = { is_core_of = ROOT } }
				}
				AND = {
					owns_state = 419
					NOT = { 419 = { is_core_of = ROOT } }
				}
				AND = {
					owns_state = 594
					NOT = { 594 = { is_core_of = ROOT } }
				}
			}
		}

		days_remove = 480

		modifier = {
			political_power_gain = -0.50
			consumer_goods_factor = 0.05
		}

		remove_effect = {
			log = "[GetDateText]: [Root.GetName]: Decision remove afg_integrate_pashtunistan"
			add_state_core = 417
			add_state_core = 418
			add_state_core = 419
			add_state_core = 594
		}

	}

	unite_with_pakistan_taliban = {

		visible = {
			original_tag = TAL
			has_government = fascism
			any_country_with_original_tag = {
				original_tag_to_check = PAK
				has_government = fascism
				NOT = { has_war_with = ROOT }
			}
			TTP = { is_ai = yes }
		}

		available = {
			PAK = { has_civil_war = yes }
		}

		complete_effect = {
			log = "[GetDateText]: [Root.GetName]: Decision unite_with_pakistan_taliban"
			random_country = {
				limit = {
					original_tag = PAK
					has_government = fascism
				}
				ROOT = {
					add_to_war = {
						targeted_alliance = PREV
						enemy = PAK
					}
					annex_country = {
						target = PREV
						transfer_troops = yes
					}
				}
			}
			hidden_effect = { news_event = { id = AfghanistanNews.5 hours = 6 } }
		}

	}

}

Taliban_insurgency_category = {

	raid_taliban_hideouts = {
		icon = GFX_decision_generic_prepare_civil_war_new

		custom_cost_trigger = {
			command_power > 40
		}

		custom_cost_text = command_power_more_than_40

		visible = {
			tag = AFG
			check_variable = {
				var = taliban_strength
				value = 0
				compare = greater_than
			}
		}

		available = {
			no_jihadist_government = yes
			num_divisions > 5
		}

		complete_effect = {
			add_command_power = -40
			log = "[GetDateText]: [This.GetName]: decision raid_taliban_hideouts executed"
		}

		days_remove = 5
		days_re_enable = 10

		fixed_random_seed = no

		remove_effect = {
			random_list = {
				85 = {
					news_event = {
						id = TalibanInsurgency.1
						hours = 1
					}
					modifier = {
						factor = 1.2
						has_stability > 0.5
					}
					modifier = {
						factor = 1.5
						has_stability > 0.6
					}
				}
				15 = {
					news_event = {
						id = TalibanInsurgency.2
						hours = 1
					}
					modifier = {
						factor = 1.25
						has_idea = widespread_corruption
					}
					modifier = {
						factor = 1.5
						has_idea = systematic_corruption
					}
					modifier = {
						factor = 1.75
						has_idea = unrestrained_corruption
					}
					modifier = {
						factor = 2.25
						has_idea = rampant_corruption
					}
					modifier = {
						factor = 2.5
						has_idea = crippling_corruption
					}
					modifier = {
						factor = 3.0
						has_idea = paralyzing_corruption
					}
				}
			}
			custom_effect_tooltip = raid_taliban_success_tt
		}

		ai_will_do = {
			factor = 10
		}
	}

	bomb_taliban_targets = {
		icon = GFX_decision_jet_aircraft

		custom_cost_trigger = {
			command_power > 40
		}

		custom_cost_text = command_power_more_than_40

		visible = {
			tag = AFG
			check_variable = {
				var = taliban_strength
				value = 0
				compare = greater_than
			}
		}

		available = {
			no_jihadist_government = yes
			has_deployed_air_force_size = {
				size > 4
				type = cas
			}
			custom_trigger_tooltip = {
				tooltip = AFG_more_than_40_percent_taliban_strength
				check_variable = {
					var = taliban_strength
					value = 40
					compare = greater_than
				}
			}
		}

		complete_effect = {
			add_command_power = -40
			log = "[GetDateText]: [This.GetName]: decision bomb_taliban_targets executed"
		}

		days_remove = 5
		days_re_enable = 10

		fixed_random_seed = no

		remove_effect = {
			random_list = {
				65 = {
					news_event = {
						id = TalibanInsurgency.3
						hours = 1
					}
					modifier = {
						factor = 1.1
						has_idea = police_02
					}
					modifier = {
						factor = 1.2
						has_idea = police_03
					}
					modifier = {
						factor = 1.5
						has_idea = police_04
					}
					modifier = {
						factor = 2.0
						has_idea = police_05
					}
				}
				30 = {
					news_event = {
						id = TalibanInsurgency.4
						hours = 1
					}
				}
				5 = {
					news_event = {
						id = TalibanInsurgency.5
						hours = 1
					}
				}
			}
			custom_effect_tooltip = airstrike_taliban_success_tt
		}

		ai_will_do = {
			factor = 10
		}
	}

	secure_afghan_pakistani_border = {
		icon = GFX_decision_chain_fence

		custom_cost_trigger = {
			check_variable = { treasury > 1.9 }
		}

		custom_cost_text = cost_2_0

		highlight_states = {
			highlight_provinces = {
				2101
				4949
				5020
				5064
				8090
				5082
				6114
				12831
				10826
				6209
				7519
			}
		}


		visible = {
			tag = AFG
			has_country_flag = afg_active_taliban_insurgency
		}

		available = {
			no_jihadist_government = yes
			custom_trigger_tooltip = {
				tooltip = AFG_control_border_with_pakistan_tt
				controls_province = 2101
				controls_province = 4949
				controls_province = 5020
				controls_province = 5064
				controls_province = 8090
				controls_province = 5082
				controls_province = 6114
				controls_province = 12831
				controls_province = 10826
				controls_province = 6209
				controls_province = 7519
			}
			custom_trigger_tooltip = {
				tooltip = AFG_pakistan_border_less_than_three_fort_tt
				OR = {
					411 = {
						any_province_building_level = {
							province = {
								id = 7519
								id = 6209
								id = 10826
							}
							building = bunker
							level < 3
						}
					}
					414 = {
						any_province_building_level = {
							province = {
								id = 12831
								id = 6114
								id = 5082
								id = 8090
							}
							building = bunker
							level < 3
						}
					}
					415 = {
						any_province_building_level = {
							province = {
								id = 5064
								id = 5020
								id = 4949
								id = 2101
							}
							building = bunker
							level < 3
						}
					}
				}
			}
			industrial_complex > 1
		}

		complete_effect = {
			set_temp_variable = { treasury_change = -2 }
			modify_treasury_effect = yes
			log = "[GetDateText]: [This.GetName]: decision secure_afghan_pakistani_border executed"
		}

		days_remove = 35
		days_re_enable = 30

		modifier = {
			civilian_factory_use = 1
		}

		remove_effect = {
			if = {
				limit = {
					414 = {
						any_province_building_level = {
							province = {
								id = 12831
								id = 6114
								id = 5082
								id = 8090
							}
							building = bunker
							level < 3
						}
					}
				}
				hidden_effect = {
					414 = {
						add_building_construction = {
							type = bunker
							level = 1
							instant_build = yes
							province = {
								id = 12831
								id = 6114
								id = 5082
								id = 8090
							}
						}
					}
				}
				custom_effect_tooltip = AFG_fence_along_central_afghanistan_border_tt
			}
			else_if = {
				limit = {
					415 = {
						any_province_building_level = {
							province = {
								id = 5064
								id = 5020
								id = 4949
								id = 2101
							}
							building = bunker
							level < 3
						}
					}
				}
				hidden_effect = {
					415 = {
						add_building_construction = {
							type = bunker
							level = 1
							instant_build = yes
							province = {
								id = 5064
								id = 5020
								id = 4949
								id = 2101
							}
						}
					}
				}
				custom_effect_tooltip = AFG_fence_along_southern_afghanistan_border_tt
			}
			else_if = {
				limit = {
					411 = {
						any_province_building_level = {
							province = {
								id = 7519
								id = 6209
								id = 10826
							}
							building = bunker
							level < 3
						}
					}
				}
				hidden_effect = {
					411 = {
						add_building_construction = {
							type = bunker
							level = 1
							instant_build = yes
							province = {
								id = 7519
								id = 6209
								id = 10826
							}
						}
					}
				}
				custom_effect_tooltip = AFG_fence_along_northern_afghanistan_border_tt
			}
			custom_effect_tooltip = AFG_secure_border_with_pakistan_tt
		}

		ai_will_do = {
			factor = 10
		}
	}

	afghan_unity_propaganda = {
		icon = GFX_decision_eng_propaganda_campaigns

		cost = 30

		visible = {
			tag = AFG
			check_variable = {
				var = taliban_strength
				value = 0
				compare = greater_than
			}
		}

		available = {
			no_jihadist_government = yes
		}

		complete_effect = {
			log = "[GetDateText]: [This.GetName]: decision afghan_unity_propaganda executed"
		}

		days_remove = 30
		days_re_enable = 15

		fixed_random_seed = no

		modifier = {
			political_power_cost = 0.1
		}

		remove_effect = {
			random_list = {
				60 = {
					news_event = {
						id = TalibanInsurgency.6
						hours = 1
					}
					modifier = {
						factor = 1.2
						has_stability > 0.5
					}
					modifier = {
						factor = 1.5
						has_stability > 0.6
					}
					modifier = {
						factor = 1.5
						has_idea = stable_growth
					}
					modifier = {
						factor = 2.0
						has_idea = fast_growth
					}
					modifier = {
						factor = 2.5
						has_idea = economic_boom
					}
				}
				40 = {
					news_event = {
						id = TalibanInsurgency.7
						hours = 1
					}
					modifier = {
						factor = 1.25
						has_idea = widespread_corruption
					}
					modifier = {
						factor = 1.5
						has_idea = systematic_corruption
					}
					modifier = {
						factor = 1.75
						has_idea = unrestrained_corruption
					}
					modifier = {
						factor = 2.25
						has_idea = rampant_corruption
					}
					modifier = {
						factor = 2.5
						has_idea = crippling_corruption
					}
					modifier = {
						factor = 3.0
						has_idea = paralyzing_corruption
					}
					modifier = {
						factor = 10
						is_subject = yes
					}
					modifier = {
						factor = 2.0
						OR = {
							any_country = {
								has_idea = large_power
								no_jihadist_government = yes
								has_military_access_to = AFG
							}
							any_country = {
								has_idea = great_power
								no_jihadist_government = yes
								has_military_access_to = AFG
							}
							any_country = {
								has_idea = superpower
								no_jihadist_government = yes
								has_military_access_to = AFG
							}
						}
					}
				}
			}
			custom_effect_tooltip = afghan_unity_propaganda_success_tt
		}

		ai_will_do = {
			factor = 10

			modifier = {
				factor = 2
				has_stability > 0.5
			}

			modifier = {
				factor = 2
				has_stability > 0.75
			}
		}
	}

	show_supporting_counter_insurgency_countries = {
		icon = GFX_decision_generic_army_support

		visible = {
			tag = AFG
			AFG = {
				has_country_flag = afg_active_taliban_insurgency
			}
		}

		complete_effect = {
			statehood_show_afghan_counter_insurgency_support = yes
		}
	}

	isaf_raid_taliban_hideouts = {
		icon = GFX_decision_humvee

		custom_cost_trigger = {
			command_power > 40
		}

		custom_cost_text = command_power_more_than_40

		visible = {
			NOT = {
				original_tag = AFG
			}
			has_country_flag = afg_support_counter_insurgency
			AFG = {
				check_variable = {
					var = taliban_strength
					value = 0
					compare = greater_than
				}
			}
		}

		available = {
			has_military_access_to = AFG
		}

		complete_effect = {
			add_command_power = -40
			log = "[GetDateText]: [This.GetName]: decision isaf_raid_taliban_hideouts executed"
		}

		days_remove = 15
		days_re_enable = 30

		fixed_random_seed = no

		remove_effect = {
			random_list = {
				90 = {
					news_event = {
						id = TalibanInsurgency.17
						hours = 1
					}
					modifier = {
						factor = 1.2
						AFG = {
							has_stability > 0.5
						}
					}
					modifier = {
						factor = 1.5
						AFG = {
							has_stability > 0.6
						}
					}
				}
				10 = {
					news_event = {
						id = TalibanInsurgency.18
						hours = 1
					}
					modifier = {
						factor = 1.25
						AFG = {
							has_idea = widespread_corruption
						}
					}
					modifier = {
						factor = 1.5
						AFG = {
							has_idea = systematic_corruption
						}
					}
					modifier = {
						factor = 1.75
						AFG = {
							has_idea = unrestrained_corruption
						}
					}
					modifier = {
						factor = 2.25
						AFG = {
							has_idea = rampant_corruption
						}
					}
					modifier = {
						factor = 2.5
						AFG = {
							has_idea = crippling_corruption
						}
					}
					modifier = {
						factor = 3.0
						AFG = {
							has_idea = paralyzing_corruption
						}
					}
				}
			}
			custom_effect_tooltip = isaf_raid_taliban_success_tt
		}

		ai_will_do = {
			factor = 1

			modifier = {
				factor = 10
				AFG = {
					check_variable = {
						var = taliban_strength
						value = 45
						compare = greater_than
					}
				}
			}
		}
	}

	isaf_launch_drone_strike = {
		icon = GFX_decision_uav

		custom_cost_trigger = { command_power > 40 }
		custom_cost_text = command_power_more_than_40

		highlight_states = {
			highlight_provinces = {
				10737
				12831
				12769
				5064
				4893
				6186
			}
		}


		visible = {
			NOT = {
				original_tag = AFG
			}
			has_country_flag = afg_support_counter_insurgency
			AFG = {
				check_variable = {
					var = taliban_strength
					value = 0
					compare = greater_than
				}
			}
		}

		available = {
			has_military_access_to = AFG
			has_equipment = {
				Air_UAV_equipment > 9
			}
			custom_trigger_tooltip = {
				tooltip = AFG_more_than_40_percent_taliban_strength
				AFG = {
					check_variable = {
						var = taliban_strength
						value = 40
						compare = greater_than
					}
				}
			}
		}

		complete_effect = {
			add_command_power = -40
			log = "[GetDateText]: [This.GetName]: decision isaf_launch_drone_strike executed"
		}

		days_remove = 10
		days_re_enable = 60

		fixed_random_seed = no

		remove_effect = {
			random_list = {
				65 = {
					news_event = {
						id = TalibanInsurgency.21
						hours = 1
					}
					modifier = {
						factor = 1.2
						has_equipment = {
							Air_UAV2 > 0
						}
					}
					modifier = {
						factor = 1.5
						has_equipment = {
							Air_UAV3 > 0
						}
					}
					modifier = {
						factor = 2.5
						has_equipment = {
							Air_UAV4 > 0
						}
					}
				}
				35 = {
					news_event = {
						id = TalibanInsurgency.22
						hours = 1
					}
				}
			}
			custom_effect_tooltip = isaf_drone_strike_taliban_success_tt
		}

		ai_will_do = {
			factor = 1

			modifier = {
				factor = 10
				AFG = {
					check_variable = {
						var = taliban_strength
						value = 75
						compare = greater_than
					}
				}
			}
		}
	}

	isaf_bomb_taliban_hotspots = {
		icon = GFX_decision_jet_bomber

		custom_cost_trigger = {
			command_power > 40
		}

		custom_cost_text = command_power_more_than_40

		visible = {
			NOT = {
				original_tag = AFG
			}
			has_country_flag = afg_support_counter_insurgency
			AFG = {
				check_variable = {
					var = taliban_strength
					value = 0
					compare = greater_than
				}
			}
		}

		available = {
			has_military_access_to = AFG
			has_deployed_air_force_size = {
				size > 4
				type = strategic_bomber
			}
			custom_trigger_tooltip = {
				tooltip = AFG_more_than_60_percent_taliban_strength
				AFG = {
					check_variable = {
						var = taliban_strength
						value = 60
						compare = greater_than
					}
				}
			}
		}

		complete_effect = {
			add_command_power = -40
			log = "[GetDateText]: [This.GetName]: decision isaf_bomb_taliban_hotspots executed"
		}

		days_remove = 5
		days_re_enable = 90

		fixed_random_seed = no

		remove_effect = {
			random_list = {
				65 = {
					news_event = {
						id = TalibanInsurgency.23
						hours = 1
					}
					modifier = {
						factor = 1.1
						has_equipment = {
							strategic_bomber2 > 0
						}
					}
					modifier = {
						factor = 1.2
						has_equipment = {
							strategic_bomber3 > 0
						}
					}
					modifier = {
						factor = 1.5
						has_equipment = {
							strategic_bomber4 > 0
						}
					}
					modifier = {
						factor = 2.5
						has_equipment = {
							strategic_bomber5 > 0
						}
					}
					modifier = {
						factor = 4.0
						has_equipment = {
							strategic_bomber6 > 0
						}
					}
				}
				35 = {
					news_event = {
						id = TalibanInsurgency.24
						hours = 1
					}
				}
			}
			custom_effect_tooltip = isaf_bomb_taliban_success_tt
		}

		ai_will_do = {
			factor = 1

			modifier = {
				factor = 10
				AFG = {
					check_variable = {
						var = taliban_strength
						value = 75
						compare = greater_than
					}
				}
			}
		}
	}

	isaf_provide_technical_equipment = {
		icon = GFX_decision_generic_research_new

		custom_cost_trigger = {
			check_variable = { treasury > 0.5 }
		}

		custom_cost_text = cost_0_5

		visible = {
			NOT = {
				original_tag = AFG
			}
			has_country_flag = afg_support_counter_insurgency
			AFG = {
				check_variable = {
					var = taliban_strength
					value = 0
					compare = greater_than
				}
			}
			amount_research_slots > 4
		}

		complete_effect = {
			log = "[GetDateText]: [This.GetName]: decision isaf_provide_technical_equipment executed"
			set_temp_variable = { treasury_change = -0.5 }
			modify_treasury_effect = yes
			AFG = {
				news_event = {
					id = TalibanInsurgency.25
					hours = 1
				}
			}
		}

		days_remove = 30
		days_re_enable = 90

		remove_effect = {
			AFG = {
				set_temp_variable = { percent_change = 2 }
				set_temp_variable = { tag_index = FROM.id }
				set_temp_variable = { influence_target = AFG.id }
				change_influence_percentage = yes
				add_stability = 0.01
				set_temp_variable = { taliban_strength_decrease = 5 }
				decrease_taliban_strength = yes
			}
		}

		ai_will_do = {
			factor = 1

			modifier = {
				factor = 10
				AFG = {
					check_variable = {
						var = taliban_strength
						value = 45
						compare = greater_than
					}
				}
			}
		}
	}

	isaf_withdraw_from_afghanistan = {
		icon = GFX_decision_jet_transport
		cost = 50

		visible = {
			has_military_access_to = AFG
			NOT = {
				original_tag = AFG
				original_tag = USA
			}
			has_country_flag = afg_support_counter_insurgency
			AFG = {
				has_country_flag = afg_active_taliban_insurgency
			}
		}

		available = {
			has_military_access_to = AFG
		}

		complete_effect = {
			log = "[GetDateText]: [This.GetName]: decision isaf_withdraw_from_afghanistan executed"
			set_temp_variable = { arg_popularity = 0.02 }
			add_ruling_outlook_popularity = yes
			AFG = {
				news_event = {
					id = TalibanInsurgency.16
					hours = 1
				}
			}
		}

		days_remove = 30
		fire_only_once = yes

		remove_effect = {
			if = {
				limit = {
					has_military_access_to = AFG
				}
				diplomatic_relation = {
					country = AFG
					relation = military_access
					active = no
				}
			}
			clr_country_flag = afg_support_counter_insurgency
		}

		ai_will_do = {
			factor = 0

			modifier = {
				add = 1
				date > 2015.1.1
			}

			modifier = {
				add = 20
				has_government = nationalist
			}

			modifier = {
				add = 10
				has_government = neutrality
			}

			modifier = {
				add = 100
				has_stability < 0.4
			}
		}
	}


	eliminate_taliban_insurgency = {
		icon = GFX_decision_oppression

		custom_cost_trigger = {
			command_power > 40
		}

		custom_cost_text = command_power_more_than_40

		visible = {
			tag = AFG
			NOT = {
				country_exists = TAL
			}
			has_country_flag = afg_active_taliban_insurgency
		}

		available = {
			no_jihadist_government = yes
			custom_trigger_tooltip = {
				tooltip = AFG_taliban_strength_lower_than_five_percent_tt
				check_variable = {
					var = taliban_strength
					value = 5
					compare = less_than
				}
			}
			custom_trigger_tooltip = {
				tooltip = AFG_pakistan_border_more_than_two_fort_tt
				AND = {
					411 = {
						any_province_building_level = {
							province = {
								id = 7519
								id = 6209
								id = 10826
							}
							building = bunker
							level > 2
						}
					}
					414 = {
						any_province_building_level = {
							province = {
								id = 12831
								id = 6114
								id = 5082
								id = 8090
							}
							building = bunker
							level > 2
						}
					}
					415 = {
						any_province_building_level = {
							province = {
								id = 5064
								id = 5020
								id = 4949
								id = 2101
							}
							building = bunker
							level > 2
						}
					}
				}
			}
			has_stability > 0.5
			NOT = {
				OR = {
					has_idea = rampant_corruption
					has_idea = crippling_corruption
					has_idea = paralyzing_corruption
				}
			}
			divisions_in_state = {
				size > 4
				state = 414
			}
			divisions_in_state = {
				size > 4
				state = 415
			}
			divisions_in_state = {
				size > 4
				state = 411
			}
		}

		complete_effect = {
			add_command_power = -40
			log = "[GetDateText]: [This.GetName]: decision eliminate_taliban_insurgency executed"
		}

		days_remove = 15

		remove_effect = {
			clear_variable = taliban_strength
			clr_country_flag = afg_active_taliban_insurgency
			set_country_flag = afg_taliban_insurgency_eliminated
			hidden_effect = {
				every_other_country = {
					limit = {
						has_country_flag = afg_support_counter_insurgency
					}
					clr_country_flag = afg_support_counter_insurgency
				}
			}
			news_event = {
				id = TalibanInsurgency.8
				hours = 3
			}
			add_stability = 0.1
			add_political_power = 100
			set_temp_variable = { arg_popularity = 0.05 }
			add_ruling_outlook_popularity = yes
			if = {
				limit = {
					country_exists = TTP
				}
				TTP = {
					add_manpower = 2500
					add_popularity = {
						ideology = fascism
						popularity = 0.05
					}
				}
			}
			else = {
				594 = { add_manpower = 2500 }
				PAK = {
					add_stability = -0.01
					add_popularity = {
						ideology = fascism
						popularity = 0.01
					}
				}
			}
		}

		ai_will_do = {
			factor = 100
		}
	}
}