ARM_war_mafia_category = {
	ARM_amendments_to_criminal_code = {
		icon = decision_generic_police_action
		allowed = { original_tag = ARM }
		cost = 300
		fire_only_once = yes
		days_remove = 120
		modifier = {
			stability_weekly = 0.005
		}
		visible = {
			has_completed_focus = ARM_confrontation_mafia
		}
		remove_effect = {
			add_popularity = {
				ideology = democratic
				popularity = 0.01
			}
			add_stability = 0.03
			remove_ideas = ARM_armenian_mafia_6
			add_ideas = ARM_armenian_mafia_5
		}
	}
	ARM_hunt_for_thieves_in_law = {
		icon = hol_war_on_pacifism
		allowed = { original_tag = ARM }
		cost = 250
		fire_only_once = yes
		days_remove = 120
		modifier = {
			stability_weekly = 0.005
		}
		visible = {
			has_completed_focus = ARM_confrontation_mafia
			has_idea = ARM_armenian_mafia_5
		}
		remove_effect = {
			add_popularity = {
				ideology = democratic
				popularity = 0.03
			}
			add_stability = 0.03
			remove_ideas = ARM_armenian_mafia_5
			add_ideas = ARM_armenian_mafia_4
			set_temp_variable = { temp_opinion = 5 }
			change_international_bankers_opinion = yes
		}
		complete_effect = {
			country_event = {
				id = arm_mafia.4
				days = 1
			}
		}
	}

	ARM_police_raids = {
		icon = hol_war_on_pacifism
		allowed = { original_tag = ARM }
		cost = 100
		fire_only_once = yes
		days_remove = 120
		modifier = {
			stability_weekly = 0.005
		}
		visible = {
			has_completed_focus = ARM_confrontation_mafia
			has_idea = ARM_armenian_mafia_4
		}
		remove_effect = {
			add_popularity = {
				ideology = democratic
				popularity = 0.01
			}
			add_stability = 0.03
			remove_ideas = ARM_armenian_mafia_4
			add_ideas = ARM_armenian_mafia_3
		}
		complete_effect = {
			country_event = {
				id = arm_mafia.7
				days = 1
			}
		}
	}
	ARM_clean_up_prisons = {
		icon = hol_war_on_pacifism
		allowed = { original_tag = ARM }
		cost = 100
		fire_only_once = yes
		days_remove = 120
		modifier = {
			stability_weekly = 0.005
		}
		visible = {
			#tag = ARM
			has_completed_focus = ARM_confrontation_mafia
			has_idea = ARM_armenian_mafia_3
		}
		remove_effect = {
			add_popularity = {
				ideology = democratic
				popularity = 0.03
			}
			add_stability = 0.05
			remove_ideas = ARM_armenian_mafia_3
			add_ideas = ARM_armenian_mafia_2
		}
		complete_effect = {
			country_event = {
				id = arm_mafia.10
				days = 1
			}
		}
	}
}
ARM_hard_anti_capital_category = {
	ARM_hard_anti_capital_propagande = {
		icon = hol_war_on_pacifism
		allowed = { original_tag = ARM }
		cost = 300
		fire_only_once = yes
		days_remove = 120
		modifier = {
			stability_weekly = 0.005
		}
		visible = {
			tag = ARM
			has_completed_focus = ARM_hard_anticapital
		}
		complete_effect = {
			add_popularity = {
				ideology = communism
				popularity = 0.05
			}
			set_country_flag = ARM_anti_capital_propagande_1
		}
	}
	ARM_hard_anti_capital_propagande_2 = {
		icon = hol_war_on_pacifism
		allowed = { original_tag = ARM }
		cost = 300
		fire_only_once = yes
		days_remove = 120
		modifier = {
			stability_weekly = 0.005
		}
		visible = {
			tag = ARM
			has_completed_focus = ARM_hard_anticapital
			has_country_flag = ARM_anti_capital_propagande_1
		}
		complete_effect = {
			set_country_flag = ARM_anti_capital_propagande_2
			add_popularity = {
				ideology = communism
				popularity = 0.05
			}
		}
	}
	ARM_hard_anti_capital_revolution = {
		icon = hol_war_on_pacifism
		allowed = { original_tag = ARM }
		cost = 300
		fire_only_once = yes
		days_remove = 120
		modifier = {
			stability_weekly = 0.005
		}
		visible = {
			tag = ARM
			has_completed_focus = ARM_hard_anticapital
			has_country_flag = ARM_anti_capital_propagande_2
		}
		remove_effect = {
			create_dynamic_country = {
				original_tag = ARM
				copy_tag = ARM
				transfer_state = 709
				set_politics = {
					ruling_party = communism
					elections_allowed = no
				}
				set_popularities = {
					democratic = 5
					neutrality = 20
					fascism = 0
					communism = 70
					nationalist = 5
				}
				inherit_technology = ARM
				clear_array = ruling_party
				clear_array = gov_coalition_array
				add_to_array = { ruling_party = 6 }
				add_to_array = { gov_coalition_array = 22 }
				set_temp_variable = { current_cons_popularity = party_pop_array^6 }
				multiply_temp_variable = { current_cons_popularity = 0.5 }
				subtract_from_variable = { party_pop_array^22 = current_cons_popularity }
				add_to_variable = { party_pop_array^6 = current_cons_popularity }
				recalculate_party = yes
				update_government_coalition_strength = yes
				update_party_name = yes
				set_coalition_drift = yes
				set_ruling_leader = yes
				set_leader = yes
				retire_country_leader = yes
				create_country_leader = {
					name = "Robert Kocharian"
					desc = ""
					picture = "Rober_Kocharyan.dds"
					expire = "2050.1.1"
					ideology = Conservative
				}
				retire_country_leader = yes
				ARM = {
					transfer_units_fraction = {
						target = PREV
						size = 0.5
						stockpile_ratio = 0.5
						army_ratio = 0.5
						navy_ratio = 0.5
						air_ratio = 0.5
					}
				}
				declare_war_on = {
					target = ARM
					type = civil_war
				}
				add_civil_war_target = ARM
			}
			set_politics = {
				ruling_party = communism
				elections_allowed = no
			}
			clear_array = ruling_party
			clear_array = gov_coalition_array
			add_to_array = { ruling_party = 19 }
			add_to_array = { gov_coalition_array = 4 }
			set_temp_variable = { current_cons_popularity = party_pop_array^19 }
			multiply_temp_variable = { current_cons_popularity = 0.5 }
			# Remove most of support, retrack it to emerg communist party
			subtract_from_variable = { party_pop_array^4 = current_cons_popularity }
			add_to_variable = { party_pop_array^19 = current_cons_popularity }
			recalculate_party = yes
			update_government_coalition_strength = yes
			update_party_name = yes
			set_coalition_drift = yes
			set_ruling_leader = yes
			set_leader = yes
			create_country_leader = {
				name = "Armenian Council"
				desc = ""
				picture = "SOL_air_chief.dds"
				expire = "2050.1.1"
				ideology = Communist-State
			}
			set_cosmetic_tag = ARM_AUTH_S_communism
		}
		complete_effect = {
			add_popularity = {
				ideology = communism
				popularity = 0.05
			}
		}
	}
}
ARM_right_forces_category = {
	ARM_turk_flag = {
		icon = organize_the_blackshirts_category
		allowed = {
			tag = ARM
		}
		cost = 50
		fire_only_once = yes
		days_remove = 30
		modifier = {
			stability_factor = -0.005
			political_power_factor = 0.03
			war_support_factor = 0.3
			nationalist_acceptance = 50
		}
		visible = {
			tag = ARM
			has_completed_focus = ARM_right_forces
		}
		complete_effect = {
			add_popularity = {
				ideology = nationalist
				popularity = 0.05
			}
			add_manpower = 100
		}
	}
	ARM_anti_progressivism = {
		icon = hol_war_on_pacifism
		allowed = { original_tag = ARM }
		cost = 100
		days_remove = 30
		modifier = {
			stability_factor = 0.0005
			political_power_factor = 0.03
			war_support_factor = 0.003
			nationalist_acceptance = 50
			legitimacy_daily = 1
		}
		visible = {
			tag = ARM
			has_completed_focus = ARM_right_forces
		}
		complete_effect = {
			add_popularity = {
				ideology = nationalist
				popularity = 0.05
			}
			add_manpower = -50
		}
	}
	ARM_military_parade = {
		icon = hol_war_on_pacifism
		allowed = { original_tag = ARM }
		cost = 150
		days_remove = 30
		modifier = {
			stability_factor = 0.0005
			political_power_factor = -0.03
			war_support_factor = 0.010
			nationalist_acceptance = 50
			legitimacy_daily = 1
		}
		visible = {
			tag = ARM
			has_completed_focus = ARM_right_forces
		}
		complete_effect = {
			add_popularity = {
				ideology = nationalist
				popularity = 0.10
			}
		}
	}
	ARM_raid_democrats_nat = {
		icon = decision_eng_blackshirt_march
		allowed = { original_tag = ARM }
		cost = 150
		days_remove = 30
		modifier = {
			stability_factor = -0.010
			political_power_factor = 0.05
			war_support_factor = 0.005
			nationalist_acceptance = 50
			legitimacy_daily = 1
		}
		visible = {
			tag = ARM
			has_completed_focus = ARM_right_forces
		}
		complete_effect = {
			add_popularity = {
				ideology = democratic
				popularity = -0.10
			}

		}
	}
}
ARM_secure_country_category = {
	ARM_crete_mitia_dec = {
		icon = hol_war_on_pacifism
		allowed = {
			tag = ARM
		}
		cost = 150
		fire_only_once = yes
		days_remove = 120
		modifier = {
			stability_weekly = 0.005
		}
		visible = {
			tag = ARM
		}
		remove_effect = {
			add_ideas = ARM_armenian_defence_1
			remove_ideas = ARM_mass_doctrine
		}
	}
	ARM_crete_mobilizations_centers_dec = {
		icon = hol_war_on_pacifism
		allowed = {
			tag = ARM
		}
		available = {
			has_idea = ARM_armenian_defence_1
		}
		cost = 150
		fire_only_once = yes
		days_remove = 120
		visible = {
			tag = ARM
		}
		remove_effect = {
			add_ideas = ARM_armenian_defence_2
			remove_ideas = ARM_armenian_defence_1
		}
	}
	ARM_defence_plans_dec = {
		icon = hol_war_on_pacifism
		allowed = {
			tag = ARM
		}
		available = {
			has_idea = ARM_armenian_defence_2
		}
		cost = 150
		fire_only_once = yes
		days_remove = 120
		visible = {
			tag = ARM
		}
		remove_effect = {
			add_ideas = ARM_armenian_defence_3
			remove_ideas = ARM_armenian_defence_2
		}
	}
}
ARM_rus_zakupki_tanks_category = {
	ARM_tanks_zakupaiten = {
		icon = hol_war_on_pacifism
		allowed = {
			tag = ARM
		}
		cost = 40
		fire_only_once = yes
		days_remove = 120
		visible = {
			tag = ARM
			has_completed_focus = ARM_buy_russian_tanks
		}
		remove_effect = {
			add_equipment_to_stockpile = {
				type = MBT_2
				amount = 20
				producer = SOV
			}
			set_temp_variable = { treasury_change = -2 }
			modify_treasury_effect = yes
			SOV = {
				set_temp_variable = { treasury_change = 2 }
				modify_treasury_effect = yes
			}
		}
	}
}

ARM_plans_economy_category = {
	#дороги
	ARM_develop_infrusture = {
		icon = decision_generic_construction
		allowed = { original_tag = ARM }
		available = {
			NOT = { has_country_flag = arm_strike_build_in_progress }
		}
		cost = 100
		fire_only_once = no
		days_remove = 35
		modifier = {
			production_speed_buildings_factor = -0.15
		}
		visible = {
			OR = {
				tag = ARM
				has_cosmetic_tag = ZSR_zsfsr
			}
		}
		remove_effect = {
			one_random_infrastructure = yes
			ARM_decrease_huge_unemployment = yes
			clr_country_flag = arm_strike_build_in_progress
		}
		complete_effect = {
			set_country_flag = arm_strike_build_in_progress
		}
	}
	#расширение ячеек строительства
	ARM_build_house = {
		icon = GFX_decision_hol_inundate_water_lines
		allowed = { original_tag = ARM }
		available = {
			NOT = { has_country_flag = arm_strike_build_in_progress }
		}
		cost = 100
		fire_only_once = no
		days_remove = 40
		modifier = {
			production_speed_buildings_factor = -0.15
		}
		visible = {
			OR = {
				tag = ARM
				has_cosmetic_tag = ZSR_zsfsr
			}
		}
		remove_effect = {
			set_temp_variable = { treasury_change = -1 }
			modify_treasury_effect = yes
			random_owned_state = {
				add_extra_state_shared_building_slots = 1
			}
			ARM_decrease_high_emigration = yes
			clr_country_flag = arm_strike_build_in_progress
		}
		complete_effect = {
			set_country_flag = arm_strike_build_in_progress
		}
	}
	#заводики
	ARM_build_factory = {
		icon = decision_generic_factory
		allowed = { original_tag = ARM }
		available = {
			NOT = { has_country_flag = arm_strike_build_in_progress }
		}
		cost = 150
		fire_only_once = no
		days_remove = 70
		modifier = {
			production_speed_buildings_factor = -0.15
		}
		visible = {
			OR = {
				tag = ARM
				has_cosmetic_tag = ZSR_zsfsr
			}
		}
		remove_effect = {
			one_random_industrial_complex = yes
			ARM_decrease_huge_unemployment = yes
			clr_country_flag = arm_strike_build_in_progress
		}
		complete_effect = {
			set_country_flag = arm_strike_build_in_progress
		}
	}
}
ARM_economy_decisions = {
	ARM_AUA = {
		icon = GFX_decision_category_ger_mefo_bills
		allowed = { original_tag = ARM }
		available = {
			OR = {
				has_built = {
					   type = offices
					   value > 10
				}
				has_built = {
					   type = industrial_complex
					   value > 10
				}
				has_built = {
					   type = arms_factory
					   value > 10
				}
			}
		}
		cost = 50
		fire_only_once = yes
		days_remove = 30
		visible = {
			has_completed_focus = ARM_AUA
		}
		remove_effect = {
			add_to_variable = { ARM_brain_drain_modifier_production_speed_buildings_factor = 0.1 }
			add_to_variable = { ARM_brain_drain_modifier_education_cost_multiplier_modifier = 1 }
			custom_effect_tooltip = ARM_brain_drain_modifier_reduce_tt
		}
	}
	ARM_ayb = {
		icon = GFX_decision_category_ger_mefo_bills
		allowed = { original_tag = ARM }
		available = {
			OR = {
				has_built = {
					   type = offices
					   value > 10
				}
				has_built = {
					   type = industrial_complex
					   value > 10
				}
				has_built = {
					   type = arms_factory
					   value > 10
				}
			}
		}
		cost = 50
		fire_only_once = yes
		days_remove = 30
		visible = {
			has_completed_focus = ARM_new_ayb
		}
		remove_effect = {
			add_to_variable = { ARM_brain_drain_modifier_production_speed_buildings_factor = 0.1 }
			add_to_variable = { ARM_brain_drain_modifier_education_cost_multiplier_modifier = 1 }
			custom_effect_tooltip = ARM_brain_drain_modifier_reduce_tt
		}
	}
	ARM_MGU = {
		icon = GFX_decision_category_ger_mefo_bills
		allowed = { original_tag = ARM }
		available = {
			OR = {
				has_built = {
					   type = offices
					   value > 10
				}
				has_built = {
					   type = industrial_complex
					   value > 10
				}
				has_built = {
					   type = arms_factory
					   value > 10
				}
			}
		}
		cost = 50
		fire_only_once = yes
		days_remove = 30
		visible = {
			has_completed_focus = ARM_MGUyer
		}
		remove_effect = {
			add_to_variable = { ARM_brain_drain_modifier_production_speed_buildings_factor = 0.1 }
			add_to_variable = { ARM_brain_drain_modifier_education_cost_multiplier_modifier = 1 }
			custom_effect_tooltip = ARM_brain_drain_modifier_reduce_tt

		}
	}

	ARM_EU_educ_deal = {
		icon = GFX_decision_category_ger_mefo_bills
		allowed = { original_tag = ARM }
		available = {
			OR = {
				has_built = {
					   type = offices
					   value > 10
				}
				has_built = {
					   type = industrial_complex
					   value > 10
				}
				has_built = {
					   type = arms_factory
					   value > 10
				}
			}
		}
		cost = 50
		fire_only_once = yes
		days_remove = 30
		visible = {
			has_completed_focus = ARM_EU_educ_deal
		}
		remove_effect = {
			add_to_variable = { ARM_brain_drain_modifier_production_speed_buildings_factor = 0.1 }
			add_to_variable = { ARM_brain_drain_modifier_education_cost_multiplier_modifier = 1 }
			custom_effect_tooltip = ARM_brain_drain_modifier_reduce_tt
		}
	}
}
ARM_caucasian_revol_category = {
	#azerbaijan
	ARM_Establish_connections_aze = {
		icon = GFX_decision_connection_kom
		allowed = {
			original_tag = ARM
		}
		available = {
			AZE = {
				emerging_communist_state_are_in_power = no
			}
		}
		cost = 25
		fire_only_once = yes
		days_remove = 10
		visible = {
			OR = {
				tag = ARM
				has_cosmetic_tag = ZSR_zsfsr
			}
			AZE = {
				emerging_communist_state_are_in_power = no
			}
		}
		remove_effect = {
			set_country_flag = Establish_connections_aze_kom
			AZE = {
				hidden_effect = {
					add_popularity = {
						ideology = communism
						popularity = 0.03
					}
					add_to_variable = { party_pop_array^4 = 0.05 }
					recalculate_party = yes
				}
			}
		}
		complete_effect = {
			clr_country_flag = zsr_aze_revol2
		}
	}
	ARM_Financing_of_protest_movements_aze = {
		icon = GFX_decision_zsr_unrest
		allowed = {
			original_tag = ARM
		}
		available = {
			hidden_trigger = {
				NOT = { has_country_flag = zsr_aze_revol2 }
			}
			AZE = {
				emerging_communist_state_are_in_power = no
			}
		}
		cost = 50
		fire_only_once = no
		days_remove = 25
		visible = {
			OR = {
				tag = ARM
				has_cosmetic_tag = ZSR_zsfsr
			}
			has_country_flag = Establish_connections_aze_kom
			AZE = {
				emerging_communist_state_are_in_power = no
			}
		}
		remove_effect = {
			set_temp_variable = { treasury_change = -0.25 }
			modify_treasury_effect = yes
			AZE = {
					add_to_variable = { party_pop_array^4 = 0.1 }
					custom_effect_tooltip = FRA_communist_rise_10_TT
					recalculate_party = yes
					add_popularity = {
						ideology = communism
						popularity = 0.1

					}
				add_stability = -0.07
			}
			clr_country_flag = zsr_aze_revol2
		}
		complete_effect = {
			set_country_flag = zsr_aze_revol2
		}
	}
	ARM_Strengthen_com_partys_agenda = {
		icon = GFX_decision_zsr_propaganda
		allowed = {
			original_tag = ARM
		}
		available = {
		hidden_trigger = {
			NOT = { has_country_flag = zsr_aze_revol2 }
			}
			AZE = {
				emerging_communist_state_are_in_power = no
			}
		}
		cost = 50
		fire_only_once = no
		days_remove = 25
		visible = {
			OR = {
				tag = ARM
				has_cosmetic_tag = ZSR_zsfsr
			}
			has_country_flag = Establish_connections_aze_kom
			AZE = {
				emerging_communist_state_are_in_power = no
			}
		}
		remove_effect = {
			set_temp_variable = { treasury_change = -0.25 }
			modify_treasury_effect = yes
			AZE = {
				add_to_variable = { party_pop_array^4 = 0.1 }
				custom_effect_tooltip = FRA_communist_rise_10_TT
				recalculate_party = yes
				add_popularity = {
					ideology = communism
					popularity = 0.1

				}
			}
			clr_country_flag = 	zsr_aze_revol2
		}
		complete_effect = {
			set_country_flag = zsr_aze_revol2
		}
	}
	ARM_parlament_aze_places = {
		icon = GFX_decision_zsr_parlament
		allowed = {
			original_tag = ARM
		}
		available = {
		hidden_trigger = {
			NOT = { has_country_flag = zsr_aze_revol2 }
			}
			AZE = {
				emerging_communist_state_are_in_power = no
			}
		}
		cost = 250
		fire_only_once = yes
		days_remove = 150
		visible = {
			OR = {
				tag = ARM
				has_cosmetic_tag = ZSR_zsfsr
			}
			has_country_flag = Establish_connections_aze_kom
			AZE = {
				emerging_communist_state_are_in_power = no
			}
		}
		remove_effect = {
			set_temp_variable = { treasury_change = -1 }
			modify_treasury_effect = yes
			AZE = {
				add_to_variable = { party_pop_array^4 = 0.1 }
				custom_effect_tooltip = FRA_communist_rise_10_TT
				recalculate_party = yes
				add_popularity = {
					ideology = communism
					popularity = 0.1
				}
			}
			clr_country_flag = 	zsr_aze_revol2
		}
		complete_effect = {
			set_country_flag = zsr_aze_revol2
		}
	}
	ARM_aze_revol = {
		icon = GFX_decision_zsr_revol
		allowed = {
			original_tag = ARM
		}
		available = {
			AZE = {
				has_government = communism
				communism > 0.3
				custom_trigger_tooltip = {
					check_variable = { party_pop_array^4 > 0.30 }
					tooltip = aze_more_than_30_support_for_communists_zsr_TT
				}
				emerging_communist_state_are_in_power = no
			}
		}
		cost = 100
		fire_only_once = yes
		days_remove = 70
		visible = {
			OR = {
				tag = ARM
				has_cosmetic_tag = ZSR_zsfsr
			}
			AZE = {
				emerging_communist_state_are_in_power = no
				has_government = communism
				communism > 0.15
				custom_trigger_tooltip = {
				check_variable = { party_pop_array^4 > 0.15 }
				tooltip = aze_more_than_30_support_for_communists_zsr_TT
				}
			}
		}
		remove_effect = {
			AZE = {
				hidden_effect = {
					clear_array = ruling_party
					clear_array = gov_coalition_array
					add_to_array = { ruling_party = 4 }
					update_government_coalition_strength = yes
					update_party_name = yes
					set_coalition_drift = yes
					meta_effect = {
						text = {
							set_country_flag = [META_SET_RULING_PARTY]
						}
						META_SET_RULING_PARTY = "[meta_set_ruling_leader]"
					}
					set_leader = yes
				}
				set_politics = {
					ruling_party = communism
				}
				add_popularity = {
					ideology = communism
					popularity = 0.35
				}
				add_to_variable = { party_pop_array^4 = 0.5 }
				recalculate_party = yes
				start_civil_war = {
					ideology = democratic
					size = 0.3
				}
			}
		}
	}
	#georgia
	ARM_Establish_connections_geo = {
		icon = GFX_decision_connection_kom
		allowed = {
			original_tag = ARM
		}
		available = {
			GEO = {
				emerging_communist_state_are_in_power = no
			}
		}
		cost = 25
		fire_only_once = yes
		days_remove = 10
		visible = {
			OR = {
				tag = ARM
				has_cosmetic_tag = ZSR_zsfsr
			}
			GEO = {
				emerging_communist_state_are_in_power = no
			}
		}
		remove_effect = {
			set_country_flag = Establish_connections_geo_kom
			GEO = {
				set_temp_variable = { party_index = 4 }
				set_temp_variable = { party_popularity_increase = 0.05 }
				set_temp_variable = { temp_outlook_increase = 0.05 }
				add_relative_party_popularity = yes
			}
		}
		complete_effect = {
			clr_country_flag = zsr_geo_revol2
		}
	}
	ARM_Financing_of_protest_movements_geo = {
		icon = GFX_decision_zsr_unrest
		allowed = {
			original_tag = ARM
		}
		available = {
			hidden_trigger = {
				NOT = { has_country_flag = zsr_geo_revol2 }
			}
			GEO = {
				emerging_communist_state_are_in_power = no
			}
		}
		cost = 50
		fire_only_once = no
		days_remove = 25
		visible = {
			OR = {
				tag = ARM
				has_cosmetic_tag = ZSR_zsfsr
			}
			has_country_flag = Establish_connections_geo_kom
			GEO = {
				emerging_communist_state_are_in_power = no
			}
		}
		remove_effect = {
			set_temp_variable = { treasury_change = -0.25 }
			modify_treasury_effect = yes
			GEO = {
				add_to_variable = { party_pop_array^4 = 0.1 }
				custom_effect_tooltip = FRA_communist_rise_10_TT
				recalculate_party = yes
				add_popularity = {
					ideology = communism
					popularity = 0.1
				}
				add_stability = -0.07
			}
			clr_country_flag = zsr_geo_revol2
		}
		complete_effect = {
			set_country_flag = zsr_geo_revol2
		}
	}
	ARM_Strengthen_com_partys_agenda_geo = {
		icon = GFX_decision_zsr_propaganda
		allowed = {
			original_tag = ARM
		}
		available = {
			hidden_trigger = {
				NOT = { has_country_flag = zsr_geo_revol2 }
			}
			GEO = {
				emerging_communist_state_are_in_power = no
			}
		}
		cost = 50
		fire_only_once = no
		days_remove = 25
		visible = {
			OR = {
				tag = ARM
				has_cosmetic_tag = ZSR_zsfsr
			}
			has_country_flag = Establish_connections_geo_kom
			GEO = {
				emerging_communist_state_are_in_power = no
			}
		}
		remove_effect = {
			set_temp_variable = { treasury_change = -0.25 }
			modify_treasury_effect = yes
			GEO = {
				add_to_variable = { party_pop_array^4 = 0.1 }
				custom_effect_tooltip = FRA_communist_rise_10_TT
				recalculate_party = yes
				add_popularity = {
					ideology = communism
					popularity = 0.1
				}
			}
			clr_country_flag = 	zsr_geo_revol2
		}
		complete_effect = {
			set_country_flag = zsr_geo_revol2
		}
	}
	ARM_parlament_geo_places = {
		icon = GFX_decision_zsr_parlament
		allowed = {
			original_tag = ARM
		}
		available = {
		hidden_trigger = {
			NOT = { has_country_flag = zsr_geo_revol2 }
			}
			GEO = {
				emerging_communist_state_are_in_power = no
			}
		}
		cost = 250
		fire_only_once = yes
		days_remove = 150
		visible = {
			OR = {
				tag = ARM
				has_cosmetic_tag = ZSR_zsfsr
			}
			has_country_flag = Establish_connections_geo_kom
			GEO = {
				emerging_communist_state_are_in_power = no
			}
		}
		remove_effect = {
			set_temp_variable = { treasury_change = -1 }
			modify_treasury_effect = yes
			GEO = {
				add_to_variable = { party_pop_array^4 = 0.1 }
				custom_effect_tooltip = FRA_communist_rise_10_TT
				recalculate_party = yes
				add_popularity = {
					ideology = communism
					popularity = 0.1
				}
			}
			clr_country_flag = 	zsr_geo_revol2
		}
		complete_effect = {
			set_country_flag = zsr_geo_revol2
		}
	}
	ARM_geo_revol = {
		icon = GFX_decision_zsr_revol
		allowed = {
			original_tag = ARM
		}
		available = {
			GEO = {
				emerging_communist_state_are_in_power = no
				has_government = communism
				communism > 0.3
				custom_trigger_tooltip = {
					check_variable = { party_pop_array^4 > 0.30 }
					tooltip = aze_more_than_30_support_for_communists_zsr_TT
				}
			}
		}
		cost = 100
		fire_only_once = yes
		days_remove = 70
		visible = {
			OR = {
				tag = ARM
				has_cosmetic_tag = ZSR_zsfsr
			}
			GEO = {
				emerging_communist_state_are_in_power = no
				has_government = communism
				communism > 0.15
				custom_trigger_tooltip = {
					check_variable = { party_pop_array^4 > 0.15 }
					tooltip = geo_more_than_30_support_for_communists_zsr_TT
				}
			}
		}
		remove_effect = {
			GEO = {
				hidden_effect = {
					clear_array = ruling_party
					clear_array = gov_coalition_array
					add_to_array = { ruling_party = 4 }
					update_government_coalition_strength = yes
					update_party_name = yes
					set_coalition_drift = yes
					meta_effect = {
						text = {
							set_country_flag = [META_SET_RULING_PARTY]
						}
						META_SET_RULING_PARTY = "[meta_set_ruling_leader]"
					}
					set_leader = yes
				}
				set_politics = {
					ruling_party = communism
				}
				add_popularity = {
					ideology = communism
					popularity = 0.35
				}
				add_to_variable = { party_pop_array^4 = 0.5 }
				recalculate_party = yes
				start_civil_war = {
					ideology = democratic
					size = 0.3
				}
			}
		}
	}
}

ARM_ZSFSR_category = {
	ARM_aze_invite = {
		icon = GFX_decision_hol_inundate_water_lines
		allowed = { original_tag = ARM }
		available = {
			NOT = { has_country_flag = zsr_country_invite }
		}
		cost = 75
		fire_only_once = yes
		days_remove = 2
		visible = {
		OR = {
				tag = ARM
				has_cosmetic_tag = ZSR_zsfsr
			}
			country_exists = AZE
		}
		remove_effect = {
			AZE = { country_event = ZSR.1  }
			clr_country_flag = zsr_country_invite
		}
		complete_effect = {
			set_country_flag = zsr_country_invite
		}
	}
	ARM_geo_invite = {
		icon = GFX_decision_hol_inundate_water_lines
		allowed = { original_tag = ARM }
		available = {
			NOT = { has_country_flag = zsr_country_invite }
		}
		cost = 75
		fire_only_once = yes
		days_remove = 2
		visible = {
			OR = {
				tag = ARM
				has_cosmetic_tag = ZSR_zsfsr
			}
			country_exists = GEO
		}
		remove_effect = {
			GEO = { country_event = ZSR.2  }
			clr_country_flag = zsr_country_invite
		}
		complete_effect = {
			set_country_flag = zsr_country_invite
		}
	}
	ARM_ABK_invite = {
		icon = GFX_decision_hol_inundate_water_lines
		allowed = { original_tag = ARM }
		available = {
			NOT = { has_country_flag = zsr_country_invite }
		}
		cost = 75
		fire_only_once = yes
		days_remove = 2
		visible = {
			OR = {
				tag = ARM
				has_cosmetic_tag = ZSR_zsfsr
			}
			country_exists = ABK
		}
		remove_effect = {
			ABK = { country_event = ZSR.3  }
			clr_country_flag = zsr_country_invite
		}
		complete_effect = {
			set_country_flag = zsr_country_invite
		}
	}
	ARM_ose_invite = {
		icon = GFX_decision_hol_inundate_water_lines
		allowed = { original_tag = ARM }
		available = {
			NOT = { has_country_flag = zsr_country_invite }
		}
		cost = 75
		fire_only_once = yes
		days_remove = 2
		visible = {
			country_exists = SOO
			SOO = {
				is_subject = no
			}
		}
		remove_effect = {
			SOO = { country_event = ZSR.4  }
			clr_country_flag = zsr_country_invite
		}
		complete_effect = {
			set_country_flag = zsr_country_invite
		}
	}
	ARM_nkr_invite = {
		icon = GFX_decision_hol_inundate_water_lines
		allowed = { original_tag = ARM }
		available = {
			NOT = { has_country_flag = zsr_country_invite }
		}
		cost = 75
		fire_only_once = yes
		days_remove = 2
		visible = {
			country_exists = NKR
			NKR = {
				is_subject = no
			}
		}
		remove_effect = {
			NKR = { country_event = ZSR.5  }
			clr_country_flag = zsr_country_invite
		}
		complete_effect = {
			set_country_flag = zsr_country_invite
		}
	}

	ARM_geo_integrate = {
		icon = GFX_decision_hol_inundate_water_lines
		allowed = { original_tag = ARM }
		available = {
			GEO = {
				is_subject_of = ARM
			}
		}
		cost = 100
		fire_only_once = yes
		days_remove = 35
		visible = { country_exists = GEO }
		remove_effect = {
			annex_country = { target = GEO transfer_troops = yes }
			GEO = {
				every_unit_leader = {
					set_nationality = ARM
				}
			}
		}
	}
	ARM_aze_integrate = {
		icon = GFX_decision_hol_inundate_water_lines
		allowed = { original_tag = ARM }
		available = {
			AZE = {
				is_subject_of = ARM
			}
		}
		cost = 100
		fire_only_once = yes
		days_remove = 35
		visible = { country_exists = AZE }
		remove_effect = {
			annex_country = { target = AZE transfer_troops = yes }
			AZE = {
				every_unit_leader = {
					set_nationality = ARM
				}
			}
		}
	}

	ARM_abk_integrate = {
		icon = GFX_decision_hol_inundate_water_lines
		allowed = { original_tag = ARM }
		available = {
			ABK = {
				is_subject_of = ARM
			}
		}
		cost = 100
		fire_only_once = yes
		days_remove = 35
		visible = { country_exists = ABK }
		remove_effect = {
			annex_country = { target = ABK transfer_troops = yes }
			ABK = {
				every_unit_leader = {
					set_nationality = ARM
				}
			}
		}
	}

	ARM_SOO_integrate = {
		icon = GFX_decision_hol_inundate_water_lines
		allowed = { original_tag = ARM }
		available = {
			SOO = {
				is_subject_of = ARM
			}
		}
		cost = 100
		fire_only_once = yes
		days_remove = 35
		visible = { country_exists = SOO }
		remove_effect = {
			annex_country = { target = SOO transfer_troops = yes }
			SOO = {
				every_unit_leader = {
					set_nationality = ARM
				}
			}
		}
	}

	ARM_NKR_integrate = {
		icon = GFX_decision_hol_inundate_water_lines
		allowed = { original_tag = ARM }
		available = {
			NKR = {
				is_subject_of = ARM
			}
		}
		cost = 100
		fire_only_once = yes
		days_remove = 35
		visible = { country_exists = NKR }
		remove_effect = {
			annex_country = { target = NKR transfer_troops = yes }
			NKR = {
				every_unit_leader = {
					set_nationality = ARM
				}
			}
		}
	}

	ARM_new_constitution = {
		icon = GFX_decision_hol_inundate_water_lines
		allowed = { original_tag = ARM }
		available = {
			#georgia
			custom_trigger_tooltip = {
				tooltip = ZSR_form_country_georgia_required_states_tt
				controls_state = 466
				controls_state = 707
				controls_state = 708
			}
			#azer
			custom_trigger_tooltip = {
				tooltip = ZSR_form_country_azerbaijan_required_states_tt
				controls_state = 711
				controls_state = 712
				controls_state = 713
			}
			#abkhazia
			custom_trigger_tooltip = {
				tooltip = ZSR_form_country_abkhaz_required_states_tt
				controls_state = 706
			}
			#ossetia
			custom_trigger_tooltip = {
				tooltip = ZSR_form_country_ossetia_required_states_tt
				controls_state = 705
			}
			#nkr
			custom_trigger_tooltip = {
				tooltip = ZSR_form_country_nkr_required_states_tt
				controls_state = 710
			}
		}
		cost = 100
		fire_only_once = yes
		days_remove = 70
		remove_effect = {
			# georgia
			custom_effect_tooltip = ZSR_form_national_geo_tt
			hidden_effect = {
				466 = { add_core_of = ROOT }
				707 = { add_core_of = ROOT }
				708 = { add_core_of = ROOT }
			}
			# azer
			custom_effect_tooltip = ZSR_form_national_aze_tt
			hidden_effect = {
				711 = { add_core_of = ROOT }
				712 = { add_core_of = ROOT }
				713 = { add_core_of = ROOT }
			}
			# nkr
			710 = { add_core_of = ROOT }
			705 = { add_core_of = ROOT }
			# abkhazia
			custom_effect_tooltip = ZSR_form_national_abk_tt
			hidden_effect = {
				706 = { add_core_of = ROOT }
			}
		}
	}
}

ARM_peace_puppeting_decisions = {
	ARM_puppet_SOO_peace = {
		icon = GFX_decision_hol_inundate_water_lines
		target_trigger = {
			FROM = {
				is_Caucasus = yes
				OR = {
					has_government = communism
					has_government = neutrality
				}
				is_subject = no
			}
		}
		target_array = global.caucasian_countries_array
		visible = {
			country_exists = FROM
		}
		cost = 100
		fire_only_once = yes
		days_remove = 35
		remove_effect = {
			if = {
				limit = {
					has_global_flag = GAME_RULE_allow_colored_puppets
				}
				set_autonomy = {
					target = FROM
					autonomy_state = autonomy_autonomous_state_colored
					end_wars = yes
					end_civil_wars = yes
				}
			}
			else = {
				set_autonomy = {
					target = FROM
					autonomy_state = autonomy_autonomous_state
					end_wars = yes
					end_civil_wars = yes
				}
			}
		}
	}
}

ARM_internal_putsch_decisions_category = {
	begin_internal_rectification = {
		cost = 150
		fire_only_once = yes
		available = {
			has_completed_focus = ARM_podstrekat_putch
			custom_trigger_tooltip = {
				tooltip = ARM_begin_internal_rectification_TT
			}
		}
		complete_effect = {
			add_manpower = -25
			set_variable = {
				var = ARM_nationalist_support
				value = 0
			}
			set_variable = {
				var = ARM_democratic_support
				value = 0
			}
			ARM = { news_event = { id = arm_misc.12 days = 1 } }
			set_country_flag = internal_rectification
		}
	}

	#Nationalist decisions
	pay_off_democrats = {
		visible = {
			OR = {
				has_country_flag = internal_rectification
				is_debug = yes
			}
		}
		cost = 50
		complete_effect = {
			add_manpower = 10
			set_temp_variable = { treasury_change = -5 }
			modify_treasury_effect = yes
			add_to_variable = { var = ARM_nationalist_support value = 5 }
			subtract_from_variable = { var = ARM_democratic_support value = 5 }
			increase_corruption = yes
		}
	}

	imprison_foreign_media_outlets = {
		visible = {
			OR = {
				has_country_flag = internal_rectification
				is_debug = yes
			}
		}
		fire_only_once = yes
		cost = 100
		available = {
			custom_trigger_tooltip = {
				tooltip = ARM_foreign_media_bad_TT
			}
		}
		complete_effect = {
			add_stability = -0.05
			add_opinion_modifier = {
				target = SOV
				modifier = recent_actions_negative
			}
			add_to_variable = {
				var = ARM_nationalist_support
				value = 5
			}
		}
	}

}
ARM_Monarch_cat = {
	ARM_Monarch_Savoy_nationalist_decision = {
		icon = GFX_decision_category_generic_monarchism
		visible = {
			has_completed_focus = ARM_savoya
		}
		fire_only_once = no
		cost = 0
		complete_effect = {
			set_cosmetic_tag = ARM_Monarch_Savoy_nationalist
		}
	}
	ARM_Monarch_Savoy2_nationalist_decision = {
		icon = GFX_decision_category_generic_monarchism
		visible = {
			has_completed_focus = ARM_savoya
		}
		fire_only_once = no
		cost = 0
		complete_effect = {
			set_cosmetic_tag = ARM_Monarch_Savoy2_nationalist
		}
	}
	ARM_Monarch_Savoy3_nationalist_decision = {
		icon = GFX_decision_category_generic_monarchism
		visible = {
			has_completed_focus = ARM_savoya
		}
		fire_only_once = no
		cost = 0
		complete_effect = {
			set_cosmetic_tag = ARM_Monarch_Savoy3_nationalist
		}
	}

	ARM_Monarch_Bagratuni_nationalist_decision = {
		icon = GFX_decision_category_generic_monarchism
		visible = {
			has_completed_focus = ARM_bagratuni
		}
		fire_only_once = no
		cost = 0
		complete_effect = {
			set_cosmetic_tag = ARM_Monarch_Bagratuni_nationalist
		}
	}

	ARM_Monarch_Bagratuni2_nationalist_decision = {
		icon = GFX_decision_category_generic_monarchism
		visible = {
			has_completed_focus = ARM_bagratuni
		}
		fire_only_once = no
		cost = 0
		complete_effect = {
			set_cosmetic_tag = ARM_Monarch_Bagratuni2_nationalist
		}
	}

	ARM_Monarch_Bagratuni_West_Armenia_nationalist_decision = {
		icon = GFX_decision_category_generic_monarchism
		visible = {
			has_completed_focus = ARM_bagratuni
		}
		fire_only_once = no
		cost = 0
		complete_effect = {
			set_cosmetic_tag = ARM_Monarch_Bagratuni_West_Armenia_nationalist
		}
	}
}
