KUR_war_on_terror_category = {

	KUR_join_invasion_of_iraq = {

		visible = {
			USA = {
				has_country_flag = Operation_iraqi_freedom
				has_war_with = IRQ
			}
		}

		available = {
			NOT = { has_war_with = IRQ }
			IRQ = {	any_owned_state = {	is_controlled_by = USA } }
		}

		cost = 50

		days_remove = 15
		fire_only_once = yes
		cancel_trigger = {
			OR = {
				IRQ = { is_subject_of = USA }
				NOT = { USA = { has_war_with = IRQ } }
				NOT = { country_exists = IRQ }
			}
		}

		war_with_on_remove = IRQ

		remove_effect = {
			log = "[GetDateText]: [Root.GetName]: Decision remove KUR_join_invasion_of_iraq"
			set_country_flag = KUR_joined_the_invasion_of_iraq
			if = {
				limit = { is_subject_of = IRQ }
				IRQ = { release = KUR }
			}
			create_wargoal = {
				target = IRQ
				type = annex_everything
			}
		}

		ai_will_do = {
			factor = 10
		}
	}
}
