add_namespace = TNZ


news_event = {
	id = TNZ.0
	title = TNZ.0.t
	desc = TNZ.0.d
	picture = GFX_TNZ_startup_2000

	immediate = {
		log = "[GetDateText]: [This.GetName]: TNZ.0 executed"
		hidden_effect = {
			UGA = {
				news_event = uga.0
			}
			RWA = {
				news_event = rwa.0
			}
		}
	}

	trigger = {
		tag = TNZ
    		date > 2000.01.01
    		date < 2000.05.01
	}

	is_triggered_only = no

	fire_only_once = yes

	mean_time_to_happen = {
    		days = 3
	}

	option = {
		name = TNZ.0.a
	}
}


country_event = {
	id = TNZ.1
	title = TNZ.1.t
	desc = TNZ.1.d
	picture = GFX_political_deal
	immediate = { log = "[GetDateText]: [Root.GetName]: event TNZ.1" }

	is_triggered_only = yes

	option = {
		name = TNZ.1.a
		log = "[GetDateText]: [This.GetName]: TNZ.1.a executed"

		ai_chance = { factor = 100 }

		ROOT = {
			diplomatic_relation = {
				country = TNZ
				relation = guarantee
				active = yes
			}
		}
		TNZ = {
			diplomatic_relation = {
				country = ROOT
				relation = guarantee
				active = yes
			}
		}
	}

	option = {
		name = TNZ.1.b
		log = "[GetDateText]: [This.GetName]: TNZ.1.b executed"
		ai_chance = { factor = 0 }
		add_political_power = -50
	}
}





country_event = {
	id = TNZ.2
	title = TNZ.2.t
	desc = TNZ.2.d
	picture = naval_base
	immediate = { log = "[GetDateText]: [Root.GetName]: event TNZ.2" }

	is_triggered_only = yes

	option = {
		name = TNZ.2.a
		log = "[GetDateText]: [This.GetName]: TNZ.2.a executed"
		ai_chance = { factor = 100 }

		ROOT = {
			diplomatic_relation = {
				country = TNZ
				relation = docking_rights
				active = yes
			}
		}
	}

	option = {
		name = TNZ.2.b
		log = "[GetDateText]: [This.GetName]: TNZ.2.b executed"
		ai_chance = { factor = 0 }
	
	}
}

country_event = {
	id = TNZ.3
	title = TNZ.3.t
	desc = TNZ.3.d
	picture = GFX_EAF_event_ken_TNZ_uga
	immediate = { log = "[GetDateText]: [Root.GetName]: event TNZ.3" }

	is_triggered_only = yes

	option = {
		name = TNZ.3.a
		log = "[GetDateText]: [This.GetName]: TNZ.3.a executed"
		ai_chance = { factor = 100 }
		add_popularity = {
			ideology = neutrality popularity = -0.20
		} 
	}
}

country_event = {
	id = TNZ.4
	title = TNZ.4.t
	desc = TNZ.4.d
	picture = ccm_meeting
	immediate = { log = "[GetDateText]: [Root.GetName]: event TNZ.4" }

	is_triggered_only = yes

	option = {
		name = TNZ.4.a
		log = "[GetDateText]: [This.GetName]: TNZ.4.a executed"
		ai_chance = { factor = 100 }
		
	}

	option = {
		name = TNZ.4.b
		log = "[GetDateText]: [This.GetName]: TNZ.4.b executed"
		ai_chance = { factor = 100 }
		
	}

	option = {
		name = TNZ.4.c
		log = "[GetDateText]: [This.GetName]: TNZ.4.c executed"
		ai_chance = { factor = 100 }
		
	}
}

country_event = {
	id = TNZ.5
	title = TNZ.5.t
	desc = TNZ.5.d
	picture = ccm_meeting
	immediate = { log = "[GetDateText]: [Root.GetName]: event TNZ.5" }

	is_triggered_only = yes

	option = {
		name = TNZ.5.a
		log = "[GetDateText]: [This.GetName]: TNZ.5.a executed"
		ai_chance = { factor = 100 }
		create_country_leader = {
			name = "Jakaya Kikwete"
			picture = "Jakaya_Kikwete.dds"
			ideology = neutral_Social
			traits = {
				engineer
				neutrality_neutral_Social
				tech_savy
				ccm_elite
			}
		}
	}

	option = {
		name = TNZ.5.b
		log = "[GetDateText]: [This.GetName]: TNZ.5.b executed"
		ai_chance = { factor = 100 }
		create_country_leader = {
			name = "Salim Ahmed Salim"
			picture = "Salim_Ahmed_Salim.dds"
			ideology = neutral_Social
			traits = {
				diplomat
				neutrality_neutral_Social
				geopolitical_thinker
				stubborn
				ccm_elite
			}
		}
	}

	option = {
		name = TNZ.5.c
		log = "[GetDateText]: [This.GetName]: TNZ.5.c executed"
		ai_chance = { factor = 100 }
		create_country_leader = {
			name = "Abdallah Kigoda"
			picture = "Abdallah_Kigoda.dds"
			ideology = neutral_Social
			traits = {
				businessman
				neutrality_neutral_Social
				capable
				ccm_elite
			}
		}
	}
}

country_event = {
	id = TNZ.6
	title = TNZ.6.t
	desc = TNZ.6.d
	picture = GFX_political_activist
	immediate = { log = "[GetDateText]: [Root.GetName]: event TNZ.6" }

	is_triggered_only = yes

	option = {
		name = TNZ.6.a
		log = "[GetDateText]: [This.GetName]: TNZ.6.a executed"
		ai_chance = { factor = 35 }
		add_stability = 0.05
		add_political_power = -150
		if = {
			limit = {
				has_active_mission = TNZ_possible_coup
			}
			add_days_mission_timeout = {
				mission = TNZ_possible_coup
				days = 50
			}
		}
		hidden_effect = {
			country_event = TNZ.7
		}
	}

	option = {
		name = TNZ.6.b
		log = "[GetDateText]: [This.GetName]: TNZ.6.b executed"
		ai_chance = { factor = 50 }
		add_stability = 0.02
		add_political_power = -75
		if = {
			limit = {
				has_active_mission = TNZ_possible_coup
			}
			add_days_mission_timeout = {
				mission = TNZ_possible_coup
				days = 30
			}
		}
	}

	option = {
		name = TNZ.6.c
		log = "[GetDateText]: [This.GetName]: TNZ.6.c executed"
		ai_chance = { factor = 15 }
		add_stability = -0.02
		add_political_power = 50
		if = {
			limit = {
				has_active_mission = TNZ_possible_coup
			}
			add_days_mission_timeout = {
				mission = TNZ_possible_coup
				days = -30
			}
		}
	}
}

country_event = {
	id = TNZ.7
	title = TNZ.7.t
	desc = TNZ.7.d
	picture = GFX_political_activist
	immediate = { log = "[GetDateText]: [Root.GetName]: event TNZ.7" }
	is_triggered_only = yes

	option = {
		name = TNZ.7.a
		log = "[GetDateText]: [This.GetName]: TNZ.7.a executed"
		ai_chance = { factor = 100 }
		add_popularity = { ideology = neutrality popularity = 0.03 }
	}
}

country_event = {
	id = TNZ.8
	title = TNZ.8.t
	desc = TNZ.8.d
	picture = religious_meeting
	immediate = { log = "[GetDateText]: [Root.GetName]: event TNZ.8" }

	is_triggered_only = yes

	option = {
		name = TNZ.8.a
		log = "[GetDateText]: [This.GetName]: TNZ.8.a executed"
		ai_chance = { factor = 80 }
		add_stability = 0.02
		add_political_power = -50
		if = {
			limit = {
				has_active_mission = TNZ_possible_coup
			}
			add_days_mission_timeout = {
				mission = TNZ_possible_coup
				days = 50
			}
		}
	}

	option = {
		name = TNZ.8.b
		log = "[GetDateText]: [This.GetName]: TNZ.8.b executed"
		ai_chance = { factor = 15 }
		add_stability = -0.03
		add_political_power = -100
		visually_display_opinion_rise_The_Clergy = yes
		set_country_flag = current_The_Clergy
		increase_internal_faction_opinion = yes
		trigger = {
			has_idea = The_Clergy
		}
		if = {
			limit = {
				has_active_mission = TNZ_possible_coup
			}
			add_days_mission_timeout = {
				mission = TNZ_possible_coup
				days = 50
			}
		}
	}

	option = {
		name = TNZ.8.c
		log = "[GetDateText]: [This.GetName]: TNZ.8.c executed"
		ai_chance = { factor = 5 }
		add_stability = -0.08
		add_political_power = -100
		set_country_flag = current_The_Ulema
		increase_internal_faction_opinion = yes
		visually_display_opinion_rise_The_Ulema = yes
		trigger = {
			has_idea = The_Ulema
		}
		if = {
			limit = {
				has_active_mission = TNZ_possible_coup
			}
			add_days_mission_timeout = {
				mission = TNZ_possible_coup
				days = 10
			}
		}
	}
}











country_event = {
	id = TNZ.9
	title = TNZ.9.t
	desc = TNZ.9.d
	picture = GFX_EAF_event_ken_TNZ_uga
	immediate = { log = "[GetDateText]: [Root.GetName]: event TNZ.9" }

	is_triggered_only = yes

	option = {
		name = TNZ.9.a
		log = "[GetDateText]: [This.GetName]: TNZ.9.a executed"
		ai_chance = { factor = 100 }
		add_popularity = { ideology = neutrality popularity = -0.50 } 
	}

	option = {
		name = TNZ.9.b
		log = "[GetDateText]: [This.GetName]: TNZ.9.b executed"
		ai_chance = { factor = 100 }
		add_popularity = { ideology = neutrality popularity = -0.50 } 
	}

	option = {
		name = TNZ.9.c
		log = "[GetDateText]: [This.GetName]: TNZ.9.c executed"
		ai_chance = { factor = 100 }
		add_popularity = { ideology = democratic popularity = -0.50 } 
	}
}


country_event = {
	id = TNZ.10
	title = TNZ.10.t
	desc = TNZ.10.d
	picture = muslim_protest
	immediate = { log = "[GetDateText]: [Root.GetName]: event TNZ.10" }

	is_triggered_only = yes

	option = {
		name = TNZ.10.a
		log = "[GetDateText]: [This.GetName]: TNZ.10.a executed"
		ai_chance = { factor = 1 }
		add_stability = -0.02
		add_political_power = -50
		add_timed_idea = { idea = TNZ_muslim_protests days = 90 }
	}
}

country_event = {
	id = TNZ.11
	title = TNZ.11.t
	desc = TNZ.11.d
	picture = muslim_protest


	is_triggered_only = yes

	option = {
		name = TNZ.11.a
		log = "[GetDateText]: [This.GetName]: TNZ.11.a executed"
		ai_chance = { factor = 1 }
		add_stability = -0.02
		add_political_power = -50
		add_timed_idea = { idea = TNZ_muslim_protests days = 90 }
	}
}


country_event = {
	id = TNZ.12
	title = TNZ.12.t
	desc = TNZ.12.d
	picture = naval_base
	immediate = { log = "[GetDateText]: [Root.GetName]: event TNZ.12" }
	is_triggered_only = yes

	option = {
		name = TNZ.12.a
		log = "[GetDateText]: [This.GetName]: TNZ.12.a executed"
		ai_chance = { factor = 100 }
		custom_effect_tooltip = TNZ_docking_rights_tt

		hidden_effect = {
			ROOT = {
				diplomatic_relation = {
					country = TNZ
					relation = docking_rights
					active = yes
				}
			}
			TNZ = {
				diplomatic_relation = {
					country = ROOT
					relation = docking_rights
					active = yes
				}
			}
		}
	}

	option = {
		name = TNZ.12.b
	}
}

country_event = {
	id = TNZ.13
	title = TNZ.13.t
	desc = TNZ.13.d
	picture = GFX_african_guard
	immediate = { log = "[GetDateText]: [Root.GetName]: event TNZ.13" }

	is_triggered_only = yes

	option = {
		name = TNZ.13.a
		log = "[GetDateText]: [This.GetName]: TNZ.13.a executed"
		ai_chance = { factor = 40 }
		MLW = {
			country_event = TNZ.14
		}
	}

	option = {
		name = TNZ.13.b
		log = "[GetDateText]: [This.GetName]: TNZ.13.b executed"
		ai_chance = {
			factor = 2
			modifier = {
				factor = 2000
				OR = {
					strength_ratio = {
						tag = MLW
						ratio = 3
					}
					has_government = facism
					has_government = nationalist
				}
			}
			modifier = {
				factor = 16
				OR = {
					is_in_faction_with = MOZ
					is_in_faction_with = ZAM
				}
			}
		}
		MLW = {
			country_event = TNZ.16
		}
	}
}

country_event = {
	id = TNZ.14
	title = TNZ.14.t
	desc = TNZ.14.d
	picture = GFX_african_guard
	immediate = { log = "[GetDateText]: [Root.GetName]: event TNZ.14" }
	is_triggered_only = yes


	option = {
		name = TNZ.14.a
		log = "[GetDateText]: [This.GetName]: TNZ.14.a executed"
		ai_chance = { factor = 40 }
		TNZ = {
			country_event = TNZ.15
		}
	}

	option = {
		name = TNZ.14.b
		log = "[GetDateText]: [This.GetName]: TNZ.14.b executed"
		ai_chance = {
			factor = 1
			modifier = {
				factor = 100
				has_opinion = {
					target = TNZ
					value > 99
				}
			}
		}
		TNZ = {
			country_event = TNZ.19
		}
	}
}

country_event = {
	id = TNZ.15
	title = TNZ.15.t
	desc = TNZ.15.d
	picture = GFX_african_guard
	immediate = { log = "[GetDateText]: [Root.GetName]: event TNZ.15" }

	is_triggered_only = yes

	option = {
		name = TNZ.15.a
		log = "[GetDateText]: [This.GetName]: TNZ.15.a executed"
		ai_chance = { factor = 100 }
		add_resource = { 
			type = oil
			amount = 4
			state = 259
		}
	}
}

country_event = {
	id = TNZ.16
	title = TNZ.16.t
	desc = TNZ.16.d
	picture = GFX_african_guard
	immediate = { log = "[GetDateText]: [Root.GetName]: event TNZ.16" }
	is_triggered_only = yes


	option = {
		name = TNZ.16.a
		log = "[GetDateText]: [This.GetName]: TNZ.16.a executed"
		ai_chance = { factor = 40 }
		TNZ = {
			country_event = TNZ.17
		}
	}

	option = {
		name = TNZ.16.b
		log = "[GetDateText]: [This.GetName]: TNZ.16.b executed"
		ai_chance = {
			factor = 2
			modifier = {
				factor = 20
				TNZ = {
					strength_ratio = {
						tag = MLW
						ratio > 3
					}
				}
			}
			modifier = {
				factor = 40
				TNZ = {
					strength_ratio = {
						tag = MLW
						ratio > 4
					}
				}
			}
			modifier = {
				factor = 60
				TNZ = {
					strength_ratio = {
						tag = MLW
						ratio > 5
					}
				}
			}
			modifier = {
				factor = 40
				OR = {
					is_in_faction_with = MOZ
					is_in_faction_with = ZAM
				}
			}
		}
		TNZ = {
			country_event = TNZ.18
		}
	}
}

country_event = {
	id = TNZ.17
	title = TNZ.17.t
	desc = TNZ.17.d
	picture = GFX_african_guard
	immediate = { log = "[GetDateText]: [Root.GetName]: event TNZ.17" }

	is_triggered_only = yes

	option = {
		name = TNZ.17.a
		log = "[GetDateText]: [This.GetName]: TNZ.17.a executed"
		ai_chance = { factor = 100 }
		add_resource = { 
			type = oil
			amount = 4
			state = 259
		}
	}
}

country_event = {
	id = TNZ.18
	title = TNZ.18.t
	desc = TNZ.18.d
	picture = GFX_african_guard
	immediate = { log = "[GetDateText]: [Root.GetName]: event TNZ.18" }

	is_triggered_only = yes

	option = {
		name = TNZ.18.a
		log = "[GetDateText]: [This.GetName]: TNZ.18.a executed"
		ai_chance = { factor = 100 }
		add_resource = { 
			type = oil
			amount = 2
			state = 259
		}
		add_resource = { 
			type = oil
			amount = 1
			state = 254
		}
		add_resource = { 
			type = oil
			amount = 1
			state = 258
		}
	}
}

country_event = {
	id = TNZ.19
	title = TNZ.19.t
	desc = TNZ.19.d
	picture = GFX_african_guard
	immediate = { log = "[GetDateText]: [Root.GetName]: event TNZ.19" }

	is_triggered_only = yes

	option = {
		name = TNZ.19.a
		log = "[GetDateText]: [This.GetName]: TNZ.19.a executed"
		ai_chance = { factor = 100 }
		add_resource = { 
			type = oil
			amount = 2
			state = 259
		}
		add_resource = { 
			type = oil
			amount = 1
			state = 254
		}
		add_resource = { 
			type = oil
			amount = 1
			state = 258
		}
	}
}

country_event = {
	id = TNZ.20
	title = TNZ.20.t
	desc = TNZ.20.d
	picture = african_treaty
	immediate = { log = "[GetDateText]: [Root.GetName]: event TNZ.20" }

	is_triggered_only = yes

	option = {
		name = TNZ.20.a
		log = "[GetDateText]: [This.GetName]: TNZ.20.a executed"
		ai_chance = { factor = 100 }
		annex_country = {
			target = COM
			transfer_troops = yes
		}
		269 = {
			add_core_of = TNZ
		}
		swap_ideas = { remove_idea = TNZ_zanzibar add_idea = TNZ_islands }
		decrease_centralization = yes
	}
}

news_event = {
	id = TNZ.21
	title = TNZ.21.t
	desc = TNZ.21.d
	picture = africans_marching
	immediate = { log = "[GetDateText]: [Root.GetName]: event TNZ.21" }

	is_triggered_only = yes

	option = {
		name = TNZ.21.a
		log = "[GetDateText]: [This.GetName]: TNZ.21.a executed"
		ai_chance = { factor = 100 }
		COM = {
			add_stability = 0.02
			add_political_power = 50
			add_manpower = -3
			remove_ideas = COM_anjouan
		}
		custom_effect_tooltip = TNZ_com_5_influence_tt
		hidden_effect = {
			COM = {
				set_temp_variable = { influence_gain = 5 }
				for_loop_effect = {
					end = influence_array^num
					value = v
					if = {
						limit = {
							check_variable = { influence_array^v = TNZ }
						}
						add_to_variable = { influence_array_val^v = influence_gain }
						set_country_flag = found
					}
				}
				if = {
					limit = { NOT = { has_country_flag = found } }
						add_to_array = { influence_array = TNZ.id }
						add_to_array = { influence_array_val = influence_gain }
				}
				clr_country_flag = found
				recalculate_influence = yes
			}
		}
	}
}

country_event = {
	id = TNZ.22
	title = TNZ.22.t
	desc = TNZ.22.d
	picture = GFX_african_guard
	immediate = { log = "[GetDateText]: [Root.GetName]: event TNZ.22" }

	is_triggered_only = yes

	option = {
		name = TNZ.22.a
		log = "[GetDateText]: [This.GetName]: TNZ.22.a executed"
		ai_chance = { factor = 100 }
		custom_effect_tooltip = TNZ_drc_ceasefire_tt
		hidden_effect = {
			DRC = {
				country_event = TNZ.23
			}
		}
	}

	option = {
		name = TNZ.22.c
		log = "[GetDateText]: [This.GetName]: TNZ.22.c executed"
		ai_chance = { factor = 100 }
		SAF = {
			country_event = TNZ.xx
		}
		trigger = {
			SAF = {
				has_country_leader = {
					name = "Thabo Mbeki"
					ruling_only = yes
				}
			}
		}
	}
}
### DRC
country_event = {
	id = TNZ.23
	title = TNZ.23.t
	desc = TNZ.23.d
	picture = GFX_african_guard
	immediate = { log = "[GetDateText]: [Root.GetName]: event TNZ.23" }

	is_triggered_only = yes

	option = {
		name = TNZ.23.a
		log = "[GetDateText]: [This.GetName]: TNZ.23.a executed"
		ai_chance = { factor = 100 }
		RWA = {
			country_event = TNZ.24
		}
	}

	option = {
		name = TNZ.23.b
		log = "[GetDateText]: [This.GetName]: TNZ.23.b executed"
		ai_chance = { factor = 100 }
		TNZ = {
			country_event = TNZ.28
		}
	}
}
### RWA
country_event = {
	id = TNZ.24
	title = TNZ.24.t
	desc = TNZ.24.d
	picture = GFX_african_guard
	immediate = { log = "[GetDateText]: [Root.GetName]: event TNZ.24" }

	is_triggered_only = yes

	option = {
		name = TNZ.24.a
		log = "[GetDateText]: [This.GetName]: TNZ.24.a executed"
		ai_chance = { factor = 100 }
		UGA = {
			country_event = TNZ.25
		}
	}

	option = {
		name = TNZ.24.b
		log = "[GetDateText]: [This.GetName]: TNZ.24.b executed"
		ai_chance = { factor = 100 }
		TNZ = {
			country_event = TNZ.28
		}
	}
}
### UGA
country_event = {
	id = TNZ.25
	title = TNZ.25.t
	desc = TNZ.25.d
	picture = GFX_african_guard
	immediate = { log = "[GetDateText]: [Root.GetName]: event TNZ.25" }

	is_triggered_only = yes

	option = {
		name = TNZ.25.a
		log = "[GetDateText]: [This.GetName]: TNZ.25.a executed"
		ai_chance = { factor = 100 }
		if = {
			limit = {
				BUR = {
					NOT = {
						has_war_with = DRC
					}
				}
			}
			TNZ = {
				country_event = TNZ.27
			}
		}
		if = {
			limit = {
				BUR = {
					has_war_with = DRC
				}
			}
			BUR = {
				country_event = TNZ.26
			}
		}
	}

	option = {
		name = TNZ.25.b
		log = "[GetDateText]: [This.GetName]: TNZ.25.b executed"
		ai_chance = { factor = 100 }
		TNZ = {
			country_event = TNZ.28
		}
	}
}
### BUR
country_event = {
	id = TNZ.26
	title = TNZ.26.t
	desc = TNZ.26.d
	picture = GFX_african_guard
	immediate = { log = "[GetDateText]: [Root.GetName]: event TNZ.26" }

	is_triggered_only = yes

	option = {
		name = TNZ.26.a
		log = "[GetDateText]: [This.GetName]: TNZ.26.a executed"
		ai_chance = { factor = 100 }
		TNZ = {
			country_event = TNZ.27
		}
	}

	option = {
		name = TNZ.26.a
		log = "[GetDateText]: [This.GetName]: TNZ.26.b executed"
		ai_chance = { factor = 100 }
		TNZ = {
			country_event = TNZ.28
		}
	}
}

news_event = {
	id = TNZ.27
	title = TNZ.27.t
	desc = TNZ.27.d
	picture = GFX_african_guard
	immediate = { log = "[GetDateText]: [Root.GetName]: event TNZ.27" }

	is_triggered_only = yes

	option = {
		name = TNZ.27.a
		log = "[GetDateText]: [This.GetName]: TNZ.27.a executed"
		ai_chance = { factor = 100 }
		DRC = {
			white_peace = RCD
			white_peace = RWA
			white_peace = UGA
			white_peace = MLC
			if = {
				limit = {
					has_war_with = BUR
				}
				white_peace = BUR
			}
			annex_country = {
				target = RCD
			}
			annex_country = {
				target = MLC
			}
			20 = {
				remove_core_of = RCD
				remove_core_of = MLC
				remove_claim_by = UGA
			}
			302 = {
				remove_core_of = RCD
				remove_core_of = MLC
			}
			303 = {
				remove_core_of = RCD
				remove_core_of = MLC
			}
			304 = {
				remove_core_of = RCD
				remove_core_of = MLC
			}
			306 = {
				remove_core_of = RCD
				remove_core_of = MLC
			}
			307 = {
				remove_core_of = RCD
				remove_core_of = MLC
			}
			308 = {
				remove_core_of = RCD
				remove_core_of = MLC
				remove_claim_by = RWA
			}
			309 = {
				remove_core_of = RCD
				remove_core_of = MLC
				remove_claim_by = RWA
			}
			310 = {
				remove_core_of = RCD
				remove_core_of = MLC
			}
			311 = {
				remove_core_of = RCD
				remove_core_of = MLC
			}
			312 = {
				remove_core_of = RCD
				remove_core_of = MLC
			}
			313 = {
				remove_core_of = RCD
				remove_core_of = MLC
			}
			314 = {
				remove_core_of = RCD
				remove_core_of = MLC
			}
		}
	}
}

news_event = {
	id = TNZ.28
	title = TNZ.28.t
	desc = TNZ.28.d
	picture = GFX_african_guard
	immediate = { log = "[GetDateText]: [Root.GetName]: event TNZ.28" }

	is_triggered_only = yes

	option = {
		name = TNZ.28.a
		log = "[GetDateText]: [This.GetName]: TNZ.28.a executed"
		ai_chance = { factor = 100 }
		add_political_power = -50
	}
}

country_event = {
	id = TNZ.29
	title = TNZ.29.t
	desc = TNZ.29.d
	picture = african_refugee_camp
	immediate = { log = "[GetDateText]: [Root.GetName]: event TNZ.29" }

	is_triggered_only = yes

	option = {
		name = TNZ.29.a
		log = "[GetDateText]: [This.GetName]: TNZ.29.a executed"
		ai_chance = { factor = 4 }
		252 = { add_manpower = -53591 }
		254 = { add_manpower = -108412 }
		251 = { add_manpower = 162003 }
		add_stability = 0.01
		add_political_power = -20
		BUR = {
			add_opinion_modifier = {
				target = TNZ
				modifier = recent_actions_positive
			}
		}
	}

	option = {
		name = TNZ.29.a
		log = "[GetDateText]: [This.GetName]: TNZ.29.b executed"
		ai_chance = { factor = 1 }
		add_stability = -0.02
		add_political_power = -50
	}
}

country_event = {
	id = TNZ.30
	title = TNZ.30.t
	desc = TNZ.30.d
	picture = GFX_african_guard
	immediate = { log = "[GetDateText]: [Root.GetName]: event TNZ.30" }

	is_triggered_only = yes

	option = {
		name = TNZ.30.a
		log = "[GetDateText]: [This.GetName]: TNZ.30.a executed"
		ai_chance = { factor = 100 }
		RWA = {
			country_event = TNZ.31
		}
		BUR = {
			country_event = TNZ.32
		}
	}
	option = {
		name = TNZ.30.b
		log = "[GetDateText]: [This.GetName]: TNZ.30.b executed"
		ai_chance = { factor = 100 }
		DRC = {
			country_event = TNZ.33
		}
	}
}

country_event = {
	id = TNZ.31
	title = TNZ.31.t
	desc = TNZ.31.d
	picture = GFX_african_guard
	immediate = { log = "[GetDateText]: [Root.GetName]: event TNZ.31" }

	is_triggered_only = yes

	option = {
		name = TNZ.31.a
		log = "[GetDateText]: [This.GetName]: TNZ.31.a executed"
		ai_chance = { factor = 100 }
		white_peace = DRC
		add_political_power = -100
		add_war_support = -0.1
	}
	option = {
		name = TNZ.31.b
		log = "[GetDateText]: [This.GetName]: TNZ.31.b executed"
		ai_chance = { factor = 100 }
		add_war_support = 0.02
	}
}

country_event = {
	id = TNZ.32
	title = TNZ.32.t
	desc = TNZ.32.d
	picture = GFX_african_guard
	immediate = { log = "[GetDateText]: [Root.GetName]: event TNZ.32" }

	is_triggered_only = yes

	option = {
		name = TNZ.32.a
		log = "[GetDateText]: [This.GetName]: TNZ.32.a executed"
		ai_chance = { factor = 1 }
		white_peace = DRC
		add_political_power = -100
		add_war_support = -0.1
	}
	option = {
		name = TNZ.32.b
		log = "[GetDateText]: [This.GetName]: TNZ.32.b executed"
		ai_chance = { factor = 1 }
		add_war_support = 0.02
	}
}

country_event = {
	id = TNZ.33
	title = TNZ.33.t
	desc = TNZ.33.d
	picture = GFX_african_guard
	immediate = { log = "[GetDateText]: [Root.GetName]: event TNZ.33" }

	is_triggered_only = yes

	fire_only_once = yes

	option = {
		name = TNZ.33.a
		log = "[GetDateText]: [This.GetName]: TNZ.33.a executed"
		ai_chance = {
			factor = 1
			modifier = {
				factor = 2
				has_country_leader = { 
					name = "Joseph Kabila"
					ruling_only = yes
				}
			}
		}
		DRC = {
			white_peace = RWA
			white_peace = UGA
			white_peace = BUR
			add_political_power = -100
			add_war_support = -0.15
			add_stability = -0.1
			custom_effect_tooltip = RWA_rcd_100_influence_tt
			custom_effect_tooltip = UGA_rcd_100_influence_tt
			hidden_effect = {
				20 = {
					remove_core_of = RCD
					remove_core_of = MLC
					remove_claim_by = UGA
				}
				302 = {
					remove_core_of = RCD
					remove_core_of = MLC
				}
				303 = {
					remove_core_of = RCD
					remove_core_of = MLC
				}
				304 = {
					remove_core_of = RCD
					remove_core_of = MLC
				}
				306 = {
					remove_core_of = RCD
					remove_core_of = MLC
				}
				307 = {
					remove_core_of = RCD
					remove_core_of = MLC
				}
				308 = {
					remove_core_of = RCD
					remove_core_of = MLC
					remove_claim_by = RWA
				}
				309 = {
					remove_core_of = RCD
					remove_core_of = MLC
					remove_claim_by = RWA
				}
				310 = {
					remove_core_of = RCD
					remove_core_of = MLC
				}
				311 = {
					remove_core_of = RCD
					remove_core_of = MLC
				}
				312 = {
					remove_core_of = RCD
					remove_core_of = MLC
				}
				313 = {
					remove_core_of = RCD
					remove_core_of = MLC
				}
				314 = {
					remove_core_of = RCD
					remove_core_of = MLC
				}
				DRC = {
					set_temp_variable = { influence_gain = 100 }
					for_loop_effect = {
						end = influence_array^num
						value = v
						if = {
							limit = {
								check_variable = { influence_array^v = RWA }
							}
							add_to_variable = { influence_array_val^v = influence_gain }
							set_country_flag = found
						}
					}
					if = {
						limit = { NOT = { has_country_flag = found } }
							add_to_array = { influence_array = RWA.id }
							add_to_array = { influence_array_val = influence_gain }
					}
					clr_country_flag = found
					recalculate_influence = yes
				}
				DRC = {
					set_temp_variable = { influence_gain = 100 }
					for_loop_effect = {
						end = influence_array^num
						value = v
						if = {
							limit = {
								check_variable = { influence_array^v = UGA }
							}
							add_to_variable = { influence_array_val^v = influence_gain }
							set_country_flag = found
						}
					}
					if = {
						limit = { NOT = { has_country_flag = found } }
							add_to_array = { influence_array = UGA.id }
							add_to_array = { influence_array_val = influence_gain }
					}
					clr_country_flag = found
					recalculate_influence = yes
				}
				annex_country = {
					target = RCD
				}
				annex_country = {
					target = MLC
				}
			}
		}
	}
	option = {
		name = TNZ.33.b
		log = "[GetDateText]: [This.GetName]: TNZ.33.b executed"
		ai_chance = { factor = 2 }
		add_war_support = 0.02
	}
}

news_event = {
	id = TNZ.34
	title = TNZ.34.t
	desc = TNZ.34.d
	picture = GFX_african_guard
	immediate = { log = "[GetDateText]: [Root.GetName]: event TNZ.34" }

	is_triggered_only = yes

	option = {
		name = TNZ.34.a
		log = "[GetDateText]: [This.GetName]: TNZ.34.a executed"
		
		ai_chance = { factor = 100 }
	}

	option = {
		name = TNZ.34.b
		log = "[GetDateText]: [This.GetName]: TNZ.34.b executed"
		TNZ = {
			country_event = TNZ.36
		}
		ai_chance = { factor = 100 }
	}
}

country_event = {
	id = TNZ.37
	title = TNZ.37.t
	desc = TNZ.37.d
	picture = GFX_african_guard
	immediate = { log = "[GetDateText]: [Root.GetName]: event TNZ.37" }

	is_triggered_only = yes

	option = {
		name = TNZ.37.a
		log = "[GetDateText]: [This.GetName]: TNZ.37.a executed"
		ai_chance = {
			factor = 1
			modifier = {
				factor = 3
				USA = {
					any_enemy_country = {
						is_african_nation = yes
					}
				}
			}
		}
		USA = {
			diplomatic_relation = {
				country = TNZ
				relation = guarantee
				active = yes
			}
			diplomatic_relation = {
				country = TNZ
				relation = docking_rights
				active = yes
			}
		}
		TNZ = {
			give_military_access = USA
		}
	}
	option = {
		name = TNZ.37.b
		log = "[GetDateText]: [This.GetName]: TNZ.37.b executed"
		ai_chance = {
			factor = 0
			modifier = {
				factor = 3
				USA = {
					AND = {
						has_war = yes
						any_enemy_country = {
							is_african_nation = no
						}
					}
				}
			}
		}
		USA = {
			diplomatic_relation = {
				country = TNZ
				relation = docking_rights
				active = yes
			}
		}
	}
}

country_event = {
	id = TNZ.38
	title = TNZ.38.t
	desc = TNZ.38.d
	picture = GFX_african_guard
	immediate = { log = "[GetDateText]: [Root.GetName]: event TNZ.38" }

	is_triggered_only = yes

	option = {
		name = TNZ.38.a
		log = "[GetDateText]: [This.GetName]: TNZ.38.a executed"
		ai_chance = {
			factor = 1
			modifier = {
				factor = 3
				USA = {
					any_enemy_country = {
						is_african_nation = yes
					}
				}
			}
		}
		TNZ = {
			add_ideas = Major_Non_NATO_Ally
			hidden_effect = {
				country_event = TNZ.40
			}
		}
	}
	option = {
		name = TNZ.38.b
		log = "[GetDateText]: [This.GetName]: TNZ.38.b executed"
		ai_chance = {
			factor = 0
			modifier = {
				factor = 3
				USA = {
					AND = {
						has_war = yes
						any_enemy_country = {
							is_african_nation = no
						}
					}
				}
			}
		}
		hidden_effect = {
			country_event = TNZ.39
		}
	}
}

country_event = {
	id = TNZ.39
	title = TNZ.39.t
	desc = TNZ.39.d
	picture = GFX_african_guard
	immediate = { log = "[GetDateText]: [Root.GetName]: event TNZ.39" }

	is_triggered_only = yes

	option = {
		name = TNZ.39.a
		log = "[GetDateText]: [This.GetName]: TNZ.39.a executed"
		ai_chance = { factor = 100 }
	}
}

country_event = {
	id = TNZ.40
	title = TNZ.40.t
	desc = TNZ.40.d
	picture = GFX_african_guard
	immediate = { log = "[GetDateText]: [Root.GetName]: event TNZ.40" }

	is_triggered_only = yes

	option = {
		name = TNZ.40.a
		log = "[GetDateText]: [This.GetName]: TNZ.40.a executed"
		ai_chance = { factor = 100 }
	}
}

news_event = {
	id = TNZ.41
	title = TNZ.41.t
	desc = TNZ.41.d
	picture = GFX_african_guard
	immediate = { log = "[GetDateText]: [Root.GetName]: event TNZ.41" }

	is_triggered_only = yes

	option = {
		name = TNZ.41.a
		log = "[GetDateText]: [This.GetName]: TNZ.41.a executed"
		ai_chance = { factor = 100 }
	}
}

news_event = {
	id = TNZ.42
	title = TNZ.42.t
	desc = TNZ.42.d
	picture = GFX_african_guard
	immediate = { log = "[GetDateText]: [Root.GetName]: event TNZ.42" }

	is_triggered_only = yes

	option = {
		name = TNZ.42.a
		log = "[GetDateText]: [This.GetName]: TNZ.42.a executed"
		ai_chance = { factor = 1 }
	}
}

country_event = {
	id = TNZ.43
	title = TNZ.43.t
	desc = TNZ.43.d
	picture = GFX_african_guard
	immediate = { log = "[GetDateText]: [Root.GetName]: event TNZ.43" }

	is_triggered_only = yes

	option = {
		name = TNZ.43.a
		log = "[GetDateText]: [This.GetName]: TNZ.43.a executed"
		ai_chance = { factor = 1 }
		custom_effect_tooltip = TNZ_african_union_2_st_tt
		hidden_effect = {
			every_country = {
				if = {
					limit = { is_african_nation = yes }
				}
				add_stability = 0.02
			}
		}
		random_owned_state = {
			add_extra_state_shared_building_slots = 1
			add_building_construction = {
				type = industrial_complex
				level = 1
				instant_build = yes
			}
		}
		random_country = {
			limit = {
				is_african_nation = yes
				has_war = no
			}
			random_owned_state = {
				add_extra_state_shared_building_slots = 1
				add_building_construction = {
					type = industrial_complex
					level = 1
					instant_build = yes
				}
			}
		}
		random_country = {
			limit = {
				is_african_nation = yes
				has_war = no
			}
			random_owned_state = {
				add_extra_state_shared_building_slots = 1
				add_building_construction = {
					type = industrial_complex
					level = 1
					instant_build = yes
				}
			}
		}
		add_political_power = 50
	}
	option = {
		name = TNZ.43.b
		log = "[GetDateText]: [This.GetName]: TNZ.43.b executed"
		ai_chance = { factor = 1 }
		custom_effect_tooltip = TNZ_au_research_tt
		hidden_effect = {
			every_country = {
				if = {
					limit = { is_african_nation = yes }
					add_timed_idea = {
						idea = TNZ_african_research
						days = 365
					}
				}
			}
		}
		add_political_power = 50
	}
	option = {
		name = TNZ.43.c
		log = "[GetDateText]: [This.GetName]: TNZ.43.c executed"
		ai_chance = { factor = 1 }
		custom_effect_tooltip = TNZ_fighting_neocolonialism_5_tt
		hidden_effect = {
			every_country = {
				if = {
					limit = { is_african_nation = yes }
					add_to_variable = { domestic_influence_amount = 5 }
					recalculate_influence = yes
				}
			}
		}
		add_political_power = 100
	}
}

news_event = {
	id = TNZ.44
	title = TNZ.44.t
	desc = TNZ.44.d
	picture = ccm_meeting
	immediate = { log = "[GetDateText]: [Root.GetName]: event TNZ.44" }

	trigger = {
		tag = TNZ
		has_country_leader = { name = "Benjamin Mkapa" ruling_only = yes }
    		date > 2005.09.01
    		date < 2005.10.10
	}

	is_triggered_only = no

	fire_only_once = yes

	option = {
		name = TNZ.44.a
		log = "[GetDateText]: [This.GetName]: TNZ.44.a executed"
		create_country_leader = {
			name = "Jakaya Kikwete"
			picture = "Jakaya_Kikwete.dds"
			ideology = neutral_Social
			traits = {
				businessman
				neutrality_neutral_Social
				tech_savy
				ccm_elite
			}
		}
		ai_chance = { factor = 1 }
	}
}


country_event = {
	id = TNZ.46
	title = TNZ.46.t
	desc = TNZ.46.d
	picture = GFX_generic_factory
	immediate = { log = "[GetDateText]: [Root.GetName]: event TNZ.46" }

	is_triggered_only = yes

	option = {
		name = TNZ.46.a
		log = "[GetDateText]: [This.GetName]: TNZ.46.a executed"
		ai_chance = { factor = 1 }
		trigger = {
			check_variable = { debt > 3 }
			NOT = {
				OR = {
					has_idea = TNZ_regulation_2
					has_idea = TNZ_regulation_3
				}
			}
		}
		hidden_effect = {
			if = {
				limit = {
					check_variable = { debt > 4 }
					check_variable = { debt < 7 }
				}
				subtract_from_variable = { debt = 4 }
			}
			if = {
				limit = {
						check_variable = { debt > 6 }
						check_variable = { debt < 10 }
				}
				subtract_from_variable = { debt = 8 }
			}
			if = {
				limit = {
						check_variable = { debt > 9 }
						check_variable = { debt < 13 }
				}
				subtract_from_variable = { debt = 10 }
			}
			if = {
				limit = {
					check_variable = { debt > 12 }
				}
				subtract_from_variable = { debt = 12 }
			}
		}
	}
	option = {
		name = TNZ.46.b
		log = "[GetDateText]: [This.GetName]: TNZ.46.b executed"
		ai_chance = { factor = 1 }
		trigger = {
			OR = {
				check_variable = { debt < 3 }
				has_idea = TNZ_regulation_2
				has_idea = TNZ_regulation_3
			}
		}
		add_political_power = -5
	}
}

news_event = {
	id = TNZ.47
	title = TNZ.47.t
	desc = TNZ.47.d
	picture = GFX_african_guard
	immediate = { log = "[GetDateText]: [Root.GetName]: event TNZ.47" }

	is_triggered_only = yes

	option = {
		name = TNZ.47.a
		log = "[GetDateText]: [This.GetName]: TNZ.47.a executed"
		ai_chance = { factor = 1 }

		hidden_effect = {

		}
	}
}

news_event = {
	id = TNZ.48
	title = TNZ.48.t
	desc = TNZ.48.d
	picture = GFX_african_guard
	immediate = { log = "[GetDateText]: [Root.GetName]: event TNZ.48" }

	is_triggered_only = yes

	option = {
		name = TNZ.48.a
		log = "[GetDateText]: [This.GetName]: TNZ.48.a executed"
		ai_chance = { factor = 1 }
		add_political_power = 75
		add_stability = 0.01
	}
}

news_event = {
	id = TNZ.49
	title = TNZ.49.t
	desc = TNZ.49.d
	picture = GFX_african_guard
	immediate = { log = "[GetDateText]: [Root.GetName]: event TNZ.49" }

	is_triggered_only = yes

	option = {
		name = TNZ.49.a
		log = "[GetDateText]: [This.GetName]: TNZ.49.a executed"
		ai_chance = { factor = 1 }
		257 = {
			add_extra_state_shared_building_slots = 1
			add_building_construction = {
				type = industrial_complex
				level = 1
				instant_build = yes
			}
			add_manpower = 873293 
		}
		256 = { add_manpower = -392052 }
		254 = { add_manpower = -480341 }
		253 = { add_manpower = 200000 }
		add_stability = -0.02
		add_political_power = -50
	}
}


news_event = {
	id = TNZ.50
	title = TNZ.50.t
	desc = TNZ.50.d
	picture = GFX_african_guard
	immediate = { log = "[GetDateText]: [Root.GetName]: event TNZ.50" }

	is_triggered_only = yes

	option = {
		name = TNZ.50.a
		log = "[GetDateText]: [This.GetName]: TNZ.50.a executed"
		ai_chance = { factor = 1 }

		hidden_effect = {
			if = {
				limit = {
    					is_in_array = { ruling_party = 18 }
					has_country_leader = { name = "Benjamin Mkapa" ruling_only = yes } 
				}
				add_to_variable = { neutral_Social_leader = 1 }
			}
		}
	}
}

news_event = {
	id = TNZ.55
	title = TNZ.55.t
	desc = TNZ.55.d
	picture = GFX_magufuli_dead
	immediate = { log = "[GetDateText]: [Root.GetName]: event TNZ.55" }

	is_triggered_only = yes

	option = {
		name = TNZ.55.a
		log = "[GetDateText]: [This.GetName]: TNZ.55.a executed"
		ai_chance = { factor = 1 }
		custom_effect_tooltip = TNZ_magufuli_dies_tt
		hidden_effect = {
			meta_effect = {
				text = {
					set_country_flag = [META_SET_RULING_PARTY]
				}
				META_SET_RULING_PARTY = "[meta_set_ruling_leader]"
			}
			set_leader = yes
			news_event = TNZ.56
		}
	}
}

news_event = {
	id = TNZ.56
	title = TNZ.56.t
	desc = TNZ.56.d
	picture = GFX_samia_suluhu_walking
	immediate = { log = "[GetDateText]: [Root.GetName]: event TNZ.56" }

	is_triggered_only = yes

	option = {
		name = TNZ.56.a
		log = "[GetDateText]: [This.GetName]: TNZ.56.a executed"
		ai_chance = { factor = 1 }
		custom_effect_tooltip = TNZ_magufuli_dies_tt
		hidden_effect = {
			meta_effect = {
				text = {
					set_country_flag = [META_SET_RULING_PARTY]
				}
				META_SET_RULING_PARTY = "[meta_set_ruling_leader]"
			}
			set_leader = yes
		}
	}
}

news_event = {
	id = TNZ.60
	title = TNZ.60.t
	desc = TNZ.60.d
	picture = GFX_african_guard
	immediate = { log = "[GetDateText]: [Root.GetName]: event TNZ.60" }

	is_triggered_only = yes

	option = {
		name = TNZ.60.a
		log = "[GetDateText]: [This.GetName]: TNZ.60.a executed"
		ai_chance = { factor = 1 }
		add_political_power = 50
		add_stability = -0.01
	}
}

country_event = {
	id = TNZ.61
	title = TNZ.61.t
	desc = TNZ.61.d
	picture = GFX_african_guard
	immediate = { log = "[GetDateText]: [Root.GetName]: event TNZ.61" }

	is_triggered_only = yes

	option = {
		name = TNZ.61.a
		log = "[GetDateText]: [This.GetName]: TNZ.61.a executed"
		create_country_leader = {
			name = "Edward Lowassa"
			picture = "Edward_Lowassa.dds"
			ideology = neutral_Social
			traits = {
				scientist
				neutrality_neutral_Social
				greedy
				ccm_elite
			}
		}
		add_popularity = { ideology = neutrality popularity = -0.02 }
		add_political_power = 50
		ai_chance = { factor = 1 }
	}
	option = {
		name = TNZ.61.b
		log = "[GetDateText]: [This.GetName]: TNZ.61.b executed"
		create_country_leader = {
			name = "John Magufuli"
			picture = "John_Magufuli.dds"
			ideology = neutral_Social
			desc = "POLITICS_JOHN_MAGUFULI_DESC"
			traits = {
				doctor
				neutrality_neutral_Social
				likeable
				rash
				megaproject_maniac
			}
		}
		add_popularity = { ideology = neutrality popularity = 0.01 }
		add_stability = 0.01

		ai_chance = { factor = 1 }
	}
	option = {
		name = TNZ.61.c
		log = "[GetDateText]: [This.GetName]: TNZ.61.c executed"
		create_country_leader = {
			name = "Amina Salum Ali"
			picture = "Amina_Ali.dds"
			ideology = neutral_Social
			traits = {
				businessman
				neutrality_neutral_Social
				rational
			}
		}
		add_popularity = { ideology = neutrality popularity = -0.02 }
		ai_chance = { factor = 1 }
	}
	option = {
		name = TNZ.61.e
		log = "[GetDateText]: [This.GetName]: TNZ.61.e executed"
		create_country_leader = {
			name = "Asha Migiro"
			picture = "Asha_Migiro.dds"
			ideology = neutral_Social
			traits = {
				lawyer
				neutrality_neutral_Social
				capable
			}
		}
		add_popularity = { ideology = neutrality popularity = -0.02 }
		ai_chance = { factor = 1 }
	}
}

country_event = {
	id = TNZ.62
	title = TNZ.62.t
	desc = TNZ.62.d
	picture = GFX_african_guard
	immediate = { log = "[GetDateText]: [Root.GetName]: event TNZ.62" }

	is_triggered_only = yes

	option = {
		name = TNZ.62.a
		log = "[GetDateText]: [This.GetName]: TNZ.62.a executed"
		ai_chance = { factor = 1 }
		visually_display_opinion_rise_farmers = yes
		set_country_flag = current_farmers
		increase_internal_faction_opinion = yes
		random_list = {
			50 = {
				visually_display_opinion_fall_industrial_conglomerates = yes
				set_country_flag = current_industrial_conglomerates
				decrease_internal_faction_opinion = yes
			}
			50 = {
				visually_display_opinion_fall_small_medium_business_owners = yes
				set_country_flag = current_small_medium_business_owners
				decrease_internal_faction_opinion = yes
			}
		}
	}

	option = {
		name = TNZ.62.b
		log = "[GetDateText]: [This.GetName]: TNZ.62.b executed"
		ai_chance = { factor = 1 }
		random_list = {
			50 = {
				visually_display_opinion_rise_industrial_conglomerates = yes
				set_country_flag = current_industrial_conglomerates
				increase_internal_faction_opinion = yes
			}
			50 = {
				visually_display_opinion_rise_small_medium_business_owners = yes
				set_country_flag = current_small_medium_business_owners
				increase_internal_faction_opinion = yes
			}
		}
		visually_display_opinion_fall_farmers = yes
		set_country_flag = current_farmers
		decrease_internal_faction_opinion = yes
	}
}

news_event = {
	id = TNZ.63
	title = TNZ.63.t
	desc = TNZ.63.d
	picture = GFX_african_guard
	immediate = { log = "[GetDateText]: [Root.GetName]: event TNZ.63" }

	is_triggered_only = yes

	option = {
		name = TNZ.63.a
		immediate = { log = "[GetDateText]: [Root.GetName]: event TNZ.63.a" }
		ai_chance = { factor = 1 }
	}
}

country_event = {
	id = TNZ.64
	title = TNZ.64.t
	desc = TNZ.64.d
	picture = GFX_african_guard
	immediate = { log = "[GetDateText]: [Root.GetName]: event TNZ.64" }

	is_triggered_only = yes

	option = {
		name = TNZ.64.a
		log = "[GetDateText]: [This.GetName]: TNZ.64.a executed"
		add_stability = 0.03
		add_popularity = { ideology = communism popularity = -0.03 }
		ai_chance = { factor = 1 }
	}

	option = {
		name = TNZ.64.b
		log = "[GetDateText]: [This.GetName]: TNZ.64.b executed"
		add_political_power = 75
		add_stability = -0.01
		ai_chance = { factor = 1 }
	}
}

news_event = {
	id = TNZ.65
	title = TNZ.65.t
	desc = TNZ.65.d
	picture = GFX_african_guard
	immediate = { log = "[GetDateText]: [Root.GetName]: event TNZ.65" }

	is_triggered_only = yes

	option = {
		name = TNZ.65.a
		log = "[GetDateText]: [This.GetName]: TNZ.65.a executed"
		ai_chance = { factor = 1 }
	}
}

country_event = {
	id = TNZ.66
	title = TNZ.66.t
	desc = TNZ.66.d
	picture = GFX_african_guard
	immediate = { log = "[GetDateText]: [Root.GetName]: event TNZ.66" }

	is_triggered_only = yes

	option = {
		name = TNZ.66.a
		log = "[GetDateText]: [This.GetName]: TNZ.66.a executed"
		hidden_effect = {
			add_to_variable = { domestic_influence_amount = 20 }
			recalculate_influence = yes
		}
		random_country = {
			limit = {
				has_opinion = {
					target = TNZ
					value > 25
				}
			}
			add_opinion_modifier = {
				target = TNZ
				modifier = economic_mission
			}
		}
		custom_effect_tooltip = foreign_independence_20_NIG_TT
		random_owned_state = {
			add_extra_state_shared_building_slots = 1
			add_building_construction = {
				type = industrial_complex
				level = 1
				instant_build = yes
			}
		}
		custom_effect_tooltip = 4_billion_expense_tt
		add_to_variable = { treasury = -4.0 }
		ai_chance = { factor = 1 }
	}

	option = {
		name = TNZ.66.b
		log = "[GetDateText]: [This.GetName]: TNZ.66.b executed"
		hidden_effect = {
			add_to_variable = { domestic_influence_amount = 20 }
			recalculate_influence = yes
		}
		random_country = {
			limit = {
				has_opinion = {
					target = TNZ
					value > 25
				}
			}
			add_opinion_modifier = {
				target = TNZ
				modifier = economic_mission
			}
		}
		custom_effect_tooltip = foreign_independence_20_NIG_TT
		random_owned_state = { add_building_construction = { type = infrastructure level = 1 instant_build = yes } }
		random_owned_state = { add_building_construction = { type = infrastructure level = 1 instant_build = yes } }
		custom_effect_tooltip = 4_billion_expense_tt
		add_to_variable = { treasury = -4.0 }
		ai_chance = { factor = 1 }
	}
}

country_event = {
	id = TNZ.67
	title = TNZ.67.t
	desc = TNZ.67.d
	picture = GFX_african_guard
	immediate = { log = "[GetDateText]: [Root.GetName]: event TNZ.67" }

	is_triggered_only = yes

	option = {
		name = TNZ.67.a
		log = "[GetDateText]: [This.GetName]: TNZ.67.a executed"
		hidden_effect = {
			TNZ = {
				set_temp_variable = { influence_reduce = influence_total } #from global rank idea
				multiply_temp_variable = { influence_reduce = 0.1 } #10%
				for_loop_effect = {
					end = influence_array^num
					value = v
					if = {
						limit = {
							check_variable = { influence_array^v = ROOT }
						}
						subtract_from_variable = { influence_array_val^v = influence_reduce }
						#SAFEGUARD: remove if negative
						if = {
							limit = {
								check_variable = { influence_array_val^v < 0 }
							}
							remove_from_array = {
								array = influence_array
								index = v
							}
							remove_from_array = {
								array = influence_array_val
								index = v
							}
							remove_from_array = {
								array = influence_array_calc
								index = v
							}
						}
					}
				}
				recalculate_influence = yes
			}
		}
		ai_chance = { factor = 1 }
	}

	option = {
		name = TNZ.67.b
		log = "[GetDateText]: [This.GetName]: TNZ.67.b executed"
		add_opinion_modifier = {
			target = TNZ
			modifier = diplomatic_distance
		}
		hidden_effect = {
			TNZ = {
				set_temp_variable = { influence_reduce = influence_total } #from global rank idea
				multiply_temp_variable = { influence_reduce = 0.1 } #10%
				for_loop_effect = {
					end = influence_array^num
					value = v
					if = {
						limit = {
							check_variable = { influence_array^v = ROOT }
						}
						subtract_from_variable = { influence_array_val^v = influence_reduce }
						#SAFEGUARD: remove if negative
						if = {
							limit = {
								check_variable = { influence_array_val^v < 0 }
							}
							remove_from_array = {
								array = influence_array
								index = v
							}
							remove_from_array = {
								array = influence_array_val
								index = v
							}
							remove_from_array = {
								array = influence_array_calc
								index = v
							}
						}
					}
				}
				recalculate_influence = yes
			}
		}
		ai_chance = { factor = 1 }
	}
}

news_event = {
	id = TNZ.68
	title = TNZ.68.t
	desc = TNZ.68.d
	picture = GFX_african_guard
	immediate = { log = "[GetDateText]: [Root.GetName]: event TNZ.68" }
	is_triggered_only = yes

	option = {
		name = TNZ.68.a
		log = "[GetDateText]: [This.GetName]: TNZ.68.a executed"
		hidden_effect = {
			TNZ = {
				set_temp_variable = { influence_reduce = influence_total } #from global rank idea
				multiply_temp_variable = { influence_reduce = 0.2 } #20%
				for_loop_effect = {
					end = influence_array^num
					value = v
					if = {
						limit = {
							check_variable = { influence_array^v = ROOT }
						}
						subtract_from_variable = { influence_array_val^v = influence_reduce }
						#SAFEGUARD: remove if negative
						if = {
							limit = {
								check_variable = { influence_array_val^v < 0 }
							}
							remove_from_array = {
								array = influence_array
								index = v
							}
							remove_from_array = {
								array = influence_array_val
								index = v
							}
							remove_from_array = {
								array = influence_array_calc
								index = v
							}
						}
					}
				}
				recalculate_influence = yes
			}
		}
		ai_chance = { factor = 1 }
	}
}




### Do only with Tanzania ###
news_event = {
	id = TNZ.69
	title = TNZ.69.t
	desc = TNZ.69.d
	picture = GFX_african_guard
	immediate = { log = "[GetDateText]: [Root.GetName]: event TNZ.69" }

	is_triggered_only = yes

	option = {
		name = TNZ.69.a
		log = "[GetDateText]: [This.GetName]: TNZ.69.a executed"
		ai_chance = { factor = 1 }
		annex_country = {
			target = KEN
		}
		annex_country = {
			target = UGA
		}
		annex_country = {
			target = RWA
		}
		annex_country = {
			target = BUR
		}
		annex_country = {
			target = MLC
		}
		annex_country = {
			target = RCD
		}
		annex_country = {
			target = DRC
		}
		annex_country = {
			target = SOM
		}
		annex_country = {
			target = PUN
		}
		annex_country = {
			target = ETH
		}
		annex_country = {
			target = SAF
		}
		annex_country = {
			target = COM
		}
		annex_country = {
			target = SEY
		}
		annex_country = {
			target = MAD
		}
		annex_country = {
			target = NIG
		}
		annex_country = {
			target = SSU
		}
		annex_country = {
			target = SUD
		}
		annex_country = {
			target = NAM
		}
		annex_country = {
			target = BOT
		}
		annex_country = {
			target = ZIM
		}
		annex_country = {
			target = UNI
		}
		annex_country = {
			target = AGL
		}
		annex_country = {
			target = CNG
		}
		annex_country = {
			target = GAB
		}
		annex_country = {
			target = MOZ
		}
		annex_country = {
			target = MLW
		}
		annex_country = {
			target = ZAM
		}
		annex_country = {
			target = EGU
		}
		annex_country = {
			target = SAO
		}
		annex_country = {
			target = CAM
		}
		annex_country = {
			target = BEN
		}
		annex_country = {
			target = TOG
		}
		annex_country = {
			target = GAH
		}
		annex_country = {
			target = CDI
		}
		annex_country = {
			target = LIB
		}
		annex_country = {
			target = LUR
		}
		annex_country = {
			target = AFR
		}
		annex_country = {
			target = SIE
		}
		annex_country = {
			target = GUI
		}
		annex_country = {
			target = GUB
		}
		annex_country = {
			target = SEN
		}
		annex_country = {
			target = GAM
		}
		annex_country = {
			target = BFA
		}
		annex_country = {
			target = MAL
		}
		annex_country = {
			target = NGR
		}
		annex_country = {
			target = ERI
		}
		annex_country = {
			target = DJI
		}
		annex_country = {
			target = SML
		}
		annex_country = {
			target = JUB
		}
		annex_country = {
			target = SWS
		}
		annex_country = {
			target = SNA
		}
		annex_country = {
			target = MAU
		}
		annex_country = {
			target = CHA
		}
		annex_country = {
			target = CAR
		}
		annex_country = {
			target = LES
		}
		annex_country = {
			target = SWA
		}
		annex_country = {
			target = EGY
		}
		annex_country = {
			target = LBA
		}
		annex_country = {
			target = ALG
		}
		annex_country = {
			target = MOR
		}
		annex_country = {
			target = TUN
		}
		annex_country = {
			target = SHA
		}
		annex_country = {
			target = MRT
		}
		annex_country = {
			target = VER
		}
		every_owned_state = {
			add_core_of = ROOT
		}
		set_cosmetic_tag = AFRICA_UNITED
		set_capital = 256
		load_focus_tree = east_african_federation_tree
		remove_ideas = idea_eac_member_state
		remove_ideas = TNZ_zanzibar
		remove_ideas = TNZ_political_landscape_1
		remove_ideas = TNZ_political_landscape
	}
}

news_event = {
	id = TNZ.70
	title = TNZ.70.t
	desc = TNZ.70.d
	picture = GFX_african_guard
	immediate = { log = "[GetDateText]: [Root.GetName]: event TNZ.70" }

	is_triggered_only = yes

	option = {
		name = TNZ.70.a
		log = "[GetDateText]: [This.GetName]: TNZ.70.a executed"
		ai_chance = { factor = 1 }
		every_owned_state = {
			add_core_of = ROOT
		}
		if = {
			limit = {
				tag = FRA
			}
			set_capital = 50
		}
	}
}