first_nato_ascension_protocol = {
	allowed = {
		NOT = { has_global_flag = GAME_RULE_nato_disabled }
		OR = {
			original_tag = LAT
			original_tag = LIT
			original_tag = EST
			original_tag = ROM
			original_tag = SLO
			original_tag = SLV
			original_tag = BUL
		}
	}
	enable = {
		OR = {
			AND = {
				date > 2003.1.1
				is_historical_focus_on = yes
			}
			SOV = { has_added_tension_amount > 5 }
		}
	}
	abort_when_not_enabled = yes

	ai_strategy = { type = befriend id = "BEL" value = 50 }
	ai_strategy = { type = befriend id = "CAN" value = 50 }
	ai_strategy = { type = befriend id = "CZE" value = 50 }
	ai_strategy = { type = befriend id = "DEN" value = 50 }
	ai_strategy = { type = befriend id = "FRA" value = 50 }
	ai_strategy = { type = befriend id = "GER" value = 50 }
	ai_strategy = { type = befriend id = "GRE" value = 50 }
	ai_strategy = { type = befriend id = "HUN" value = 50 }
	ai_strategy = { type = befriend id = "ICE" value = 50 }
	ai_strategy = { type = befriend id = "ITA" value = 50 }
	ai_strategy = { type = befriend id = "LUX" value = 50 }
	ai_strategy = { type = befriend id = "HOL" value = 50 }
	ai_strategy = { type = befriend id = "NOR" value = 50 }
	ai_strategy = { type = befriend id = "POL" value = 50 }
	ai_strategy = { type = befriend id = "POR" value = 50 }
	ai_strategy = { type = befriend id = "SPR" value = 50 }
	ai_strategy = { type = befriend id = "TUR" value = 50 }
	ai_strategy = { type = befriend id = "ENG" value = 50 }
	ai_strategy = { type = befriend id = "USA" value = 50 }
}

first_nato_ascension_protocol_NATO = {
	allowed = {
		NOT = { has_global_flag = GAME_RULE_nato_disabled }
		OR = {
			is_european_nation = yes
			is_Caucasus = yes
			original_tag = CAN
			original_tag = USA
			original_tag = TUR
		}
	}
	enable = {
		OR = {
			AND = {
				date > 2003.1.1
				is_historical_focus_on = yes
			}
			SOV = { has_added_tension_amount > 5 }
		}
		has_idea = NATO_member
	}
	abort_when_not_enabled = yes

	ai_strategy = { type = befriend id = "LAT" value = 50 }
	ai_strategy = { type = befriend id = "LIT" value = 50 }
	ai_strategy = { type = befriend id = "EST" value = 50 }
	ai_strategy = { type = befriend id = "ROM" value = 50 }
	ai_strategy = { type = befriend id = "SLO" value = 50 }
	ai_strategy = { type = befriend id = "SLV" value = 50 }
	ai_strategy = { type = befriend id = "BUL" value = 50 }
	ai_strategy = { type = befriend id = "ALB" value = 50 }
	ai_strategy = { type = befriend id = "CRO" value = 50 }
	ai_strategy = { type = befriend id = "FYR" value = 50 }
}

second_nato_ascension_protocol = {
	allowed = {
		NOT = { has_global_flag = GAME_RULE_nato_disabled }
		OR = {
			original_tag = ALB
			original_tag = CRO
		}
	}
	enable = {
		OR = {
			AND = {
				date > 2008.1.1
				is_historical_focus_on = yes
			}
			SOV = { has_added_tension_amount > 5 }
		}
	}
	abort_when_not_enabled = yes

	ai_strategy = { type = befriend id = "BEL" value = 50 }
	ai_strategy = { type = befriend id = "CAN" value = 50 }
	ai_strategy = { type = befriend id = "CZE" value = 50 }
	ai_strategy = { type = befriend id = "DEN" value = 50 }
	ai_strategy = { type = befriend id = "FRA" value = 50 }
	ai_strategy = { type = befriend id = "GER" value = 50 }
	ai_strategy = { type = befriend id = "GRE" value = 50 }
	ai_strategy = { type = befriend id = "HUN" value = 50 }
	ai_strategy = { type = befriend id = "ICE" value = 50 }
	ai_strategy = { type = befriend id = "ITA" value = 50 }
	ai_strategy = { type = befriend id = "LUX" value = 50 }
	ai_strategy = { type = befriend id = "HOL" value = 50 }
	ai_strategy = { type = befriend id = "NOR" value = 50 }
	ai_strategy = { type = befriend id = "POL" value = 50 }
	ai_strategy = { type = befriend id = "POR" value = 50 }
	ai_strategy = { type = befriend id = "SPR" value = 50 }
	ai_strategy = { type = befriend id = "TUR" value = 50 }
	ai_strategy = { type = befriend id = "ENG" value = 50 }
	ai_strategy = { type = befriend id = "USA" value = 50 }
	ai_strategy = { type = befriend id = "LAT" value = 50 }
	ai_strategy = { type = befriend id = "LIT" value = 50 }
	ai_strategy = { type = befriend id = "EST" value = 50 }
	ai_strategy = { type = befriend id = "ROM" value = 50 }
	ai_strategy = { type = befriend id = "SLO" value = 50 }
	ai_strategy = { type = befriend id = "SLV" value = 50 }
	ai_strategy = { type = befriend id = "BUL" value = 50 }
}

second_nato_ascension_protocol_NATO = {
	allowed = {
		NOT = { has_global_flag = GAME_RULE_nato_disabled }
		OR = {
			is_european_nation = yes
			is_Caucasus = yes
			original_tag = CAN
			original_tag = USA
			original_tag = TUR
		}
	}
	enable = {
		OR = {
			AND = {
				date > 2008.1.1
				is_historical_focus_on = yes
			}
			SOV = { has_added_tension_amount > 5 }
		}
		has_idea = NATO_member
	}
	abort_when_not_enabled = yes

	ai_strategy = { type = befriend id = "ALB" value = 50 }
	ai_strategy = { type = befriend id = "CRO" value = 50 }
}

third_nato_ascension_protocol = {
	allowed = {
		NOT = { has_global_flag = GAME_RULE_nato_disabled }
		original_tag = MNT
	}
	enable = {
		OR = {
			AND = {
				date > 2016.1.1
				is_historical_focus_on = yes
			}
			SOV = { has_added_tension_amount > 5 }
		}
	}
	abort_when_not_enabled = yes

	ai_strategy = { type = befriend id = "BEL" value = 50 }
	ai_strategy = { type = befriend id = "CAN" value = 50 }
	ai_strategy = { type = befriend id = "CZE" value = 50 }
	ai_strategy = { type = befriend id = "DEN" value = 50 }
	ai_strategy = { type = befriend id = "FRA" value = 50 }
	ai_strategy = { type = befriend id = "GER" value = 50 }
	ai_strategy = { type = befriend id = "GRE" value = 50 }
	ai_strategy = { type = befriend id = "HUN" value = 50 }
	ai_strategy = { type = befriend id = "ICE" value = 50 }
	ai_strategy = { type = befriend id = "ITA" value = 50 }
	ai_strategy = { type = befriend id = "LUX" value = 50 }
	ai_strategy = { type = befriend id = "HOL" value = 50 }
	ai_strategy = { type = befriend id = "NOR" value = 50 }
	ai_strategy = { type = befriend id = "POL" value = 50 }
	ai_strategy = { type = befriend id = "POR" value = 50 }
	ai_strategy = { type = befriend id = "SPR" value = 50 }
	ai_strategy = { type = befriend id = "TUR" value = 50 }
	ai_strategy = { type = befriend id = "ENG" value = 50 }
	ai_strategy = { type = befriend id = "USA" value = 50 }
	ai_strategy = { type = befriend id = "LAT" value = 50 }
	ai_strategy = { type = befriend id = "LIT" value = 50 }
	ai_strategy = { type = befriend id = "EST" value = 50 }
	ai_strategy = { type = befriend id = "ROM" value = 50 }
	ai_strategy = { type = befriend id = "SLO" value = 50 }
	ai_strategy = { type = befriend id = "SLV" value = 50 }
	ai_strategy = { type = befriend id = "BUL" value = 50 }
	ai_strategy = { type = befriend id = "ALB" value = 50 }
	ai_strategy = { type = befriend id = "CRO" value = 50 }
}

third_nato_ascension_protocol_NATO = {
	allowed = {
		NOT = { has_global_flag = GAME_RULE_nato_disabled }
		OR = {
			is_european_nation = yes
			is_Caucasus = yes
			original_tag = CAN
			original_tag = USA
			original_tag = TUR
		}
	}
	enable = {
		OR = {
			AND = {
				date > 2016.1.1
				is_historical_focus_on = yes
			}
			SOV = { has_added_tension_amount > 5 }
		}
		has_idea = NATO_member
	}
	abort_when_not_enabled = yes

	ai_strategy = { type = befriend id = "MNT" value = 50 }
}

four_nato_ascension_protocol = {
	allowed = {
		NOT = { has_global_flag = GAME_RULE_nato_disabled }
		original_tag = FYR
	}
	enable = {
		OR = {
			AND = {
				date > 2019.1.1
				is_historical_focus_on = yes
			}
			SOV = { has_added_tension_amount > 5 }
		}
	}
	abort_when_not_enabled = yes

	ai_strategy = { type = befriend id = "BEL" value = 50 }
	ai_strategy = { type = befriend id = "CAN" value = 50 }
	ai_strategy = { type = befriend id = "CZE" value = 50 }
	ai_strategy = { type = befriend id = "DEN" value = 50 }
	ai_strategy = { type = befriend id = "FRA" value = 50 }
	ai_strategy = { type = befriend id = "GER" value = 50 }
	ai_strategy = { type = befriend id = "GRE" value = 50 }
	ai_strategy = { type = befriend id = "HUN" value = 50 }
	ai_strategy = { type = befriend id = "ICE" value = 50 }
	ai_strategy = { type = befriend id = "ITA" value = 50 }
	ai_strategy = { type = befriend id = "LUX" value = 50 }
	ai_strategy = { type = befriend id = "HOL" value = 50 }
	ai_strategy = { type = befriend id = "NOR" value = 50 }
	ai_strategy = { type = befriend id = "POL" value = 50 }
	ai_strategy = { type = befriend id = "POR" value = 50 }
	ai_strategy = { type = befriend id = "SPR" value = 50 }
	ai_strategy = { type = befriend id = "TUR" value = 50 }
	ai_strategy = { type = befriend id = "ENG" value = 50 }
	ai_strategy = { type = befriend id = "USA" value = 50 }
	ai_strategy = { type = befriend id = "LAT" value = 50 }
	ai_strategy = { type = befriend id = "LIT" value = 50 }
	ai_strategy = { type = befriend id = "EST" value = 50 }
	ai_strategy = { type = befriend id = "ROM" value = 50 }
	ai_strategy = { type = befriend id = "SLO" value = 50 }
	ai_strategy = { type = befriend id = "SLV" value = 50 }
	ai_strategy = { type = befriend id = "BUL" value = 50 }
	ai_strategy = { type = befriend id = "ALB" value = 50 }
	ai_strategy = { type = befriend id = "CRO" value = 50 }
	ai_strategy = { type = befriend id = "FYR" value = 50 }
}

fourth_nato_ascension_protocol_NATO = {
	allowed = {
		NOT = { has_global_flag = GAME_RULE_nato_disabled }
		OR = {
			is_european_nation = yes
			is_Caucasus = yes
			original_tag = CAN
			original_tag = USA
			original_tag = TUR
		}
	}
	enable = {
		OR = {
			AND = {
				date > 2019.1.1
				is_historical_focus_on = yes
			}
			SOV = { has_added_tension_amount > 5 }
		}
		has_idea = NATO_member
	}
	abort_when_not_enabled = yes

	ai_strategy = { type = befriend id = "FYR" value = 50 }
}

NATO_members_relations = {
	allowed = { #Can't disable NATO to get this
		NOT = { has_global_flag = GAME_RULE_nato_disabled }
	}
	enable = { has_idea = NATO_member }
	abort_when_not_enabled = yes

	ai_strategy = { type = antagonize id = "SOV" value = 25 }
	ai_strategy = { type = contain id = "SOV" value = 15 }
	ai_strategy = { type = antagonize id = "CHI" value = 25 }
	ai_strategy = { type = contain id = "CHI" value = 15 }
}


#Front against Russia
MD_nato_defend_against_russia = {
	allowed = {
		NOT = { has_global_flag = GAME_RULE_nato_disabled }
	}
	enable = {
		has_idea = NATO_member
		has_war_with = SOV
	}
	abort_when_not_enabled = yes

	ai_strategy = { type = front_unit_request tag = "SOV" value = 50 }
}
MD_nato_defend_help_ukraine_against_russia = {
	allowed = {
		NOT = { has_global_flag = GAME_RULE_nato_disabled }
		OR = {
			is_european_nation = yes
			original_tag = CAN
			original_tag = USA
			original_tag = TUR
		}
	}
	enable = {
		has_idea = NATO_member
		UKR = { has_war_with = SOV }
	}
	abort_when_not_enabled = yes

	ai_strategy = { type = send_volunteers_desire id = "UKR" value = 1000 }
	ai_strategy = { type = support id = "UKR" value = 1000 }
	ai_strategy = {
		type = send_lend_lease_desire
		id = UKR
		value = 100
	}
}
MD_nato_defend_help_belarus_against_russia = {
	allowed = {
		NOT = { has_global_flag = GAME_RULE_nato_disabled }
				OR = {
			is_european_nation = yes
			original_tag = CAN
			original_tag = USA
			original_tag = TUR
		}
	}
	enable = {
		has_idea = NATO_member
		BLR = { has_war_with = SOV }
	}
	abort_when_not_enabled = yes

	ai_strategy = { type = send_volunteers_desire id = "BLR" value = 1000 }
	ai_strategy = { type = support id = "BLR" value = 1000 }
}
MD_nato_defend_help_belarus_against_estonia = {
	allowed = {
		NOT = { has_global_flag = GAME_RULE_nato_disabled }
		OR = {
			is_european_nation = yes
			original_tag = CAN
			original_tag = USA
			original_tag = TUR
		}
	}
	enable = {
		has_idea = NATO_member
		EST = { has_war_with = SOV }
	}
	abort_when_not_enabled = yes

	ai_strategy = { type = send_volunteers_desire id = "EST" value = 1000 }
	ai_strategy = { type = support id = "EST" value = 1000 }
}
MD_nato_defend_help_belarus_against_latvia = {
	allowed = {
		NOT = { has_global_flag = GAME_RULE_nato_disabled }
		OR = {
			is_european_nation = yes
			original_tag = CAN
			original_tag = USA
			original_tag = TUR
		}
	}
	enable = {
		has_idea = NATO_member
		LAT = { has_war_with = SOV }
	}
	abort_when_not_enabled = yes

	ai_strategy = { type = send_volunteers_desire id = "LAT" value = 1000 }
	ai_strategy = { type = support id = "LAT" value = 1000 }
}
MD_nato_defend_help_belarus_against_lith = {
	allowed = {
		NOT = { has_global_flag = GAME_RULE_nato_disabled }
				OR = {
			is_european_nation = yes
			original_tag = CAN
			original_tag = USA
			original_tag = TUR
		}
	}
	enable = {
		has_idea = NATO_member
		LIT = { has_war_with = SOV }
	}
	abort_when_not_enabled = yes

	ai_strategy = { type = send_volunteers_desire id = "LIT" value = 1000 }
	ai_strategy = { type = support id = "LIT" value = 1000 }
}