# Written by LordBogdanoff

#Wagner(Sahel) support Russia
WAG_support_russia = {
	allowed = {
		original_tag = WAG
	}
	reversed = yes
	enable = {
		NOT = { has_war_with = SOV }
	}
	
	abort_when_not_enabled = yes

	ai_strategy = { type = befriend id = "SOV" value = 200 }
	ai_strategy = { type = protect id = "SOV" value = 200 }
	ai_strategy = { type = support id = "SOV" value = 200 }
	ai_strategy = { type = send_volunteers_desire id = "SOV" value = 200 }
	ai_strategy = { type = influence id = "SOV" value = 200 }

}

#Russia support Wagner(Sahel)
WAG_support_from_russia = {
	allowed = {
		original_tag = SOV
	}
	enable = {
		  NOT = { has_war_with = WAG }
	}
	abort_when_not_enabled = yes
	
	ai_strategy = { type = befriend id = "WAG" value = 200 }
	ai_strategy = { type = protect id = "WAG" value = 200 }
	ai_strategy = { type = support id = "WAG" value = 200 }
	ai_strategy = { type = send_volunteers_desire id = "WAG" value = 200 }
	ai_strategy = { type = influence id = "WAG" value = 200 }

}

WAG_rival_USA = {
	allowed = { original_tag = WAG }
	enable = {
		country_exists = USA
	}
	abort = {
		is_in_faction_with = USA
	}

	ai_strategy = { type = antagonize id = "USA" value = 200 }
	ai_strategy = { type = contain id = "USA" value = 200 }
	ai_strategy = { type = consider_weak id = "USA" value = 200 }
	ai_strategy = { type = alliance id = "USA" value = -200 }
	ai_strategy = { type = support id = "USA" value = -200 }
}

WAG_professional_army = {
	allowed = { tag = WAG }
	enable = {
		has_equipment = { Inf_equipment > 25000 }
		has_equipment = { SP_arty_equipment > 1000 }
		has_equipment = { cnc_equipment > 500 }
	}
		abort_when_not_enabled = yes
	
	ai_strategy = { type = role_ratio id = marines value = 250 }
	ai_strategy = { type = build_army id = marines value = 1000 }
	ai_strategy = { type = role_ratio id = Special_Forces value = 200 }
	ai_strategy = { type = build_army id = Special_Forces value = 1000 }
}
WAG_BUNT_voronesh = {
	allowed = { tag = WAG }
	enable = {
		WAG = {
			has_war_with = SOV
		}
	}
		abort_when_not_enabled = yes
	
	ai_strategy = { type = front_unit_request tag = SOV value = 1000 }
}