characters = {
	POL_zbigniew_glowienka = {
		name = "Zbigniew Glowienka"
		portraits = {
			army = {
				small = "gfx/leaders/POL/small/Portrait_Zbigniew_Glowienka_small.dds"
				large = "gfx/leaders/POL/Portrait_Zbigniew_Glowienka.dds"
			}
		}
		advisor = {
			slot = army_chief
			idea_token = zbigniew_glowienka
			ledger = army
			allowed = {
				original_tag = POL
			}
			traits = {
				army_chief_defensive_2
			}
			cost = 100
			ai_will_do = {
				factor = 1.500
			}
		}
	}
	POL_marek_sokolowski = {
		name = "Marek Sokolowski"
		portraits = {
			army = {
				small = "gfx/leaders/POL/small/Portrait_Marek_Sokolowski_small.dds"
				large = "gfx/leaders/POL/Portrait_Marek_Sokolowski.dds"
			}
		}
		advisor = {
			slot = high_command
			idea_token = marek_sokolowski
			ledger = army
			allowed = {
				original_tag = POL
			}
			traits = {
				army_regrouping_2
			}
			cost = 100
			ai_will_do = {
				factor = 1.500
			}
		}
	}
	POL_stanislaw_kaczynski = {
		name = "Stanislaw Kaczynski"
		portraits = {
			army = {
				small = "gfx/leaders/POL/small/Portrait_Stanislaw_Kaczynski_small.dds"
				large = "gfx/leaders/POL/Portrait_Stanislaw_Kaczynski.dds"
			}
		}
		advisor = {
			slot = high_command
			idea_token = stanislaw_kaczynski
			ledger = army
			allowed = {
				original_tag = POL
			}
			traits = {
				army_CombinedArms_1
			}
			cost = 100
			ai_will_do = {
				factor = 1.500
			}
		}
	}
	POL_szymon_lepiarz = {
		name = "Szymon Lepiarz"
		portraits = {
			army = {
				small = "gfx/leaders/POL/small/Portrait_Szymon_Lepiarz_small.dds"
				large = "gfx/leaders/POL/Portrait_Szymon_Lepiarz.dds"
			}
		}
		advisor = {
			slot = high_command
			idea_token = szymon_lepiarz
			ledger = army
			allowed = {
				original_tag = POL
			}
			traits = {
				army_artillery_1
			}
			cost = 100
			ai_will_do = {
				factor = 1.500
			}
		}
	}
	POL_tomasz_mathea = {
		name = "Tomasz Mathea"
		portraits = {
			army = {
				small = "gfx/leaders/POL/small/Portrait_Tomasz_Mathea_small.dds"
				large = "gfx/leaders/POL/Portrait_Tomasz_Mathea.dds"
			}
		}
		advisor = {
			slot = navy_chief
			idea_token = tomasz_mathea
			ledger = navy
			allowed = {
				original_tag = POL
			}
			traits = {
				navy_chief_decisive_battle_2
			}
			cost = 100
			ai_will_do = {
				factor = 1.500
			}
		}
	}
	POL_lech_majewski = {
		name = "Lech Majewski"
		portraits = {
			army = {
				small = "gfx/leaders/POL/small/Portrait_Lech_Majewski_small.dds"
				large = "gfx/leaders/POL/Portrait_Lech_Majewski.dds"
			}
		}
		advisor = {
			slot = air_chief
			idea_token = lech_majewski
			ledger = air
			allowed = {
				original_tag = POL
			}
			traits = {
				air_air_superiority_2
			}
			cost = 100
			ai_will_do = {
				factor = 1.500
			}
		}
	}
	POL_bronsilaw_kwiatkowski = {
		name = "Bronislaw Kwiatkowski"
		portraits = {
			army = {
				small = "gfx/leaders/POL/small/Portrait_bronislaw_kwiatkowski_small.dds"
				large = "gfx/leaders/POL/Portrait_bronislaw_kwiatkowski.dds"
			}
		}
		field_marshal = {
			traits = { paratrooper commando }
			skill = 5
			attack_skill = 5
			defense_skill = 3
			planning_skill = 4
			logistics_skill = 2
		}
	}
	POL_franczisek_gagor = {
		name = "Franciszek Gągor"
		portraits = {
			army = {
				small = "gfx/leaders/POL/small/Portrait_franczisek_gagor_small.dds"
				large = "gfx/leaders/POL/Portrait_franczisek_gagor.dds"
			}
		}
		field_marshal = {
			traits = { combined_arms_expert adaptable }
			skill = 5
			attack_skill = 5
			defense_skill = 4
			planning_skill = 4
			logistics_skill = 5
		}
	}
	POL_leszek_surawski = {
		name = "Leszek Surawski"
		portraits = {
			army = {
				small = "gfx/leaders/POL/small/Portrait_Leszek_Surawski_small.dds"
				large = "gfx/leaders/POL/Portrait_Leszek_Surawski.dds"
			}
		}
		field_marshal = {
			traits = { combined_arms_expert fast_planner }
			skill = 5
			attack_skill = 3
			defense_skill = 2
			planning_skill = 4
			logistics_skill = 4
		}
	}
	POL_roman_polko = {
		name = "Roman Polko"
		portraits = {
			army = {
				small = "gfx/leaders/POL/small/Portrait_roman_polko_small.dds"
				large = "gfx/leaders/POL/Portrait_roman_polko.dds"
			}
		}
		corps_commander = {
			traits = { commando ranger media_personality }
			skill = 3
			attack_skill = 4
			defense_skill = 2
			planning_skill = 2
			logistics_skill = 3
		}
	}
	POL_janusz_adamczak = {
		name = "Janusz Adamczak"
		portraits = {
			army = {
				small = "gfx/leaders/POL/small/Portrait_janusz_adamczak_small.dds"
				large = "gfx/leaders/POL/Portrait_janusz_adamczak.dds"
			}
		}
		corps_commander = {
			traits = { panzer_leader panzer_expert }
			skill = 3
			attack_skill = 2
			defense_skill = 2
			planning_skill = 3
			logistics_skill = 1
		}
	}
}