ideas = {
	country = {
		al_jazeera = {
			on_add = { log = "[GetDateText]: [Root.GetName]: add idea al_jazeera" }
			allowed = { original_tag = QAT }
			modifier = {
				political_power_gain = 0.5
				neutrality_drift = 0.2
				send_volunteer_size = 1
				send_volunteer_divisions_required = -0.6
				subversive_activites_upkeep = -0.5
				ai_join_ally_desire_factor = -100
				custom_modifier_tooltip = al_jazeera_idea_TT
			}
		}
		al_jazeera_banned = {
			on_add = { log = "[GetDateText]: [Root.GetName]: add idea al_jazeera_banned" }
			allowed = { is_arabic_nation = yes }
			modifier = {
				stability_factor = -0.02
				neutrality_drift = 0.02
			}
		}
		al_jazeera_allowed = {
			on_add = { log = "[GetDateText]: [Root.GetName]: add idea al_jazeera_allowed" }
			picture = al_jazeera
			allowed = { is_arabic_nation = yes }
			allowed_civil_war = { no_jihadist_government = yes }
			cancel = { jihadist_government = yes }
			modifier = {
				drift_defence_factor = -0.2
				neutrality_drift = 0.04
			}
		}
		muslim_brotherhood_crackdown = {
			on_add = { log = "[GetDateText]: [Root.GetName]: add idea muslim_brotherhood_crackdown" }
			picture = muslim_brotherhood_banned
			allowed = { is_arabic_nation = yes }
			modifier = {
				stability_factor = -0.05
				neutrality_drift = -0.04
				fascism_acceptance = 5
			}
		}
		muslim_brotherhood_home = {
			on_add = { log = "[GetDateText]: [Root.GetName]: add idea muslim_brotherhood_home" }
			picture = muslim_brotherhood
			allowed = { original_tag = EGY }
			modifier = { neutrality_drift = 0.05 }
		}
		rentier_state = {
			on_add = { log = "[GetDateText]: [Root.GetName]: add idea rentier_state" }
			allowed_civil_war = { always = yes }
			cancel = { check_variable = { population_tax_rate > 19 } }
			modifier = {
				production_speed_buildings_factor = -0.1
				corruption_cost_factor = 0.5
				economic_cycles_cost_factor = 0.25
				political_power_gain = 0.25
				drift_defence_factor = 0.25
				local_resources = 0.25
				resource_export_multiplier_modifier = 0.25
				tax_rate_change_multiplier_modifier = 0.25
			}
		}
		youth_radicalization = {
			on_add = { log = "[GetDateText]: [Root.GetName]: add idea youth_radicalization" }
			allowed_civil_war = { always = yes }
			modifier = {
				fascism_drift = 0.02
				drift_defence_factor = -0.1
				foreign_subversive_activites = 0.1
			}
		}
		saudi_aid = {
			on_add = { log = "[GetDateText]: [Root.GetName]: add idea saudi_aid" }
			allowed = { NOT = { has_war_with = SAU } }
			cancel = {
				OR = {
					SAU = { NOT = { has_government = fascism } }
					has_war_with = SAU
				}
			}
			modifier = {
				fascism_drift = 0.03
				drift_defence_factor = -0.1
				fascism_acceptance = 20
				stability_factor = 0.05
				custom_modifier_tooltip = saudi_aid_idea_TT
			}
		}
		cybercaliphate = {
			on_add = { log = "[GetDateText]: [Root.GetName]: add idea cybercaliphate" }
			modifier = {
				fascism_drift = 0.02
				foreign_subversive_activites = 0.2
			}
		}
		katib_hezbollah = {
			on_add = { log = "[GetDateText]: [Root.GetName]: add idea katib_hezbollah" }
			allowed = { original_tag = HEZ }
			modifier = {
				send_volunteer_size = 3
				send_volunteer_divisions_required = -0.2
				subversive_activites_upkeep = -0.2
				ai_focus_aggressive_factor = 0.5
				ai_join_ally_desire_factor = -100
				ai_call_ally_desire_factor = -100
				conscription_factor = 0.1
			}
		}
		syrian_hezbollah = {
			on_add = { log = "[GetDateText]: [Root.GetName]: add idea syrian_hezbollah" }
			allowed = { original_tag = HEZ }
			modifier = {
				send_volunteer_size = 4
				send_volunteer_divisions_required = -0.2
				subversive_activites_upkeep = -0.2
				ai_focus_aggressive_factor = 0.5
				ai_join_ally_desire_factor = -100
				ai_call_ally_desire_factor = -100
				conscription_factor = 0.1
			}
		}
		qatar_expat = {
			on_add = { log = "[GetDateText]: [Root.GetName]: add idea qatar_expat" }
			allowed = { original_tag = QAT }
			modifier = {
				conscription = -0.022
				MONTHLY_POPULATION = 1.7
				production_speed_buildings_factor = 0.25
				stability_factor = -0.05
			}
		}
		saudi_expat = {
			on_add = { log = "[GetDateText]: [Root.GetName]: add idea saudi_expat" }
			allowed = { original_tag = SAU }
			modifier = {
				conscription = -0.0075
				MONTHLY_POPULATION = 0.4
				production_speed_buildings_factor = 0.25
				stability_factor = -0.05
			}
		}
		omani_expat = {
			on_add = { log = "[GetDateText]: [Root.GetName]: add idea omani_expat" }
			allowed = { original_tag = OMA }
			picture = kuwait_expat
			modifier = {
				conscription = -0.0075
				MONTHLY_POPULATION = 0.4
				production_speed_buildings_factor = 0.25
				stability_factor = -0.05
			}
		}
		uae_expat = {
			on_add = { log = "[GetDateText]: [Root.GetName]: add idea uae_expat" }
			allowed = { original_tag = UAE }
			modifier = {
				conscription = -0.022
				MONTHLY_POPULATION = 1.1
				send_volunteer_size = 1
				send_volunteer_divisions_required = -0.7
				production_speed_buildings_factor = 0.25
				stability_factor = -0.05
			}
		}
		kuwait_expat = {
			on_add = { log = "[GetDateText]: [Root.GetName]: add idea kuwait_expat" }
			allowed = { original_tag = KUW }
			modifier = {
				conscription = -0.0175
				MONTHLY_POPULATION = 0.6
				production_speed_buildings_factor = 0.25
				stability_factor = -0.05
			}
		}
		bahraini_expat = {
			on_add = { log = "[GetDateText]: [Root.GetName]: add idea bahraini_expat" }
			picture = qatar_expat
			allowed = { original_tag = BHR }
			modifier = {
				conscription = -0.0125
				MONTHLY_POPULATION = 0.5
				send_volunteer_size = 1
				production_speed_buildings_factor = 0.25
				stability_factor = -0.05
			}
		}
		qatar_expat_kafala = {
			on_add = { log = "[GetDateText]: [Root.GetName]: add idea qatar_expat_kafala" }
			allowed = { original_tag = QAT }
			name = qatar_expat
			picture = qatar_expat
			modifier = {
				conscription = -0.022
				MONTHLY_POPULATION = 1.7
				production_speed_buildings_factor = 0.15
				stability_factor = -0.02
			}
		}
		saudi_expat_kafala = {
			on_add = { log = "[GetDateText]: [Root.GetName]: add idea saudi_expat_kafala" }
			allowed = { original_tag = SAU }
			name = saudi_expat
			picture = saudi_expat
			modifier = {
				conscription = -0.0075
				MONTHLY_POPULATION = 0.4
				production_speed_buildings_factor = 0.15
				stability_factor = -0.02
			}
		}
		omani_expat_kafala = {
			on_add = { log = "[GetDateText]: [Root.GetName]: add idea omani_expat_kafala" }
			allowed = { original_tag = OMA }
			name = omani_expat
			picture = kuwait_expat
			modifier = {
				conscription = -0.0075
				MONTHLY_POPULATION = 0.4
				production_speed_buildings_factor = 0.15
				stability_factor = -0.02
			}
		}
		uae_expat_kafala = {
			on_add = { log = "[GetDateText]: [Root.GetName]: add idea uae_expat_kafala" }
			allowed = { original_tag = UAE }
			name = uae_expat
			picture = uae_expat
			modifier = {
				conscription = -0.022
				MONTHLY_POPULATION = 1.1
				send_volunteer_size = 1
				send_volunteer_divisions_required = -0.7
				production_speed_buildings_factor = 0.15
				stability_factor = -0.02
			}
		}
		kuwait_expat_kafala = {
			on_add = { log = "[GetDateText]: [Root.GetName]: add idea kuwait_expat_kafala" }
			allowed = { original_tag = KUW }
			name = kuwait_expat
			picture = kuwait_expat
			modifier = {
				conscription = -0.0175
				MONTHLY_POPULATION = 0.6
				production_speed_buildings_factor = 0.15
				stability_factor = -0.02
			}
		}
		bahraini_expat_kafala = {
			on_add = { log = "[GetDateText]: [Root.GetName]: add idea bahraini_expat_kafala" }
			picture = qatar_expat
			allowed = { original_tag = BHR }
			name = bahraini_expat
			modifier = {
				conscription = -0.0125
				MONTHLY_POPULATION = 0.5
				send_volunteer_size = 1
				production_speed_buildings_factor = 0.15
				stability_factor = -0.02
			}
		}
		qatar_expat_wage = {
			on_add = { log = "[GetDateText]: [Root.GetName]: add idea qatar_expat_wage" }
			allowed = { original_tag = QAT }
			name = qatar_expat
			picture = qatar_expat
			modifier = {
				conscription = -0.022
				MONTHLY_POPULATION = 1.7
				production_speed_buildings_factor = 0.05
			}
		}
		saudi_expat_wage = {
			on_add = { log = "[GetDateText]: [Root.GetName]: add idea saudi_expat_wage" }
			allowed = { original_tag = SAU }
			name = saudi_expat
			picture = saudi_expat
			modifier = {
				conscription = -0.0075
				MONTHLY_POPULATION = 0.4
				production_speed_buildings_factor = 0.05
			}
		}
		omani_expat_wage = {
			on_add = { log = "[GetDateText]: [Root.GetName]: add idea omani_expat_wage" }
			allowed = { original_tag = OMA }
			name = omani_expat
			picture = kuwait_expat
			modifier = {
				conscription = -0.0075
				MONTHLY_POPULATION = 0.4
				production_speed_buildings_factor = 0.05
			}
		}
		uae_expat_wage = {
			on_add = { log = "[GetDateText]: [Root.GetName]: add idea uae_expat_wage" }
			allowed = { original_tag = UAE }
			name = uae_expat
			picture = uae_expat
			modifier = {
				conscription = -0.022
				MONTHLY_POPULATION = 1.1
				send_volunteer_size = 1
				send_volunteer_divisions_required = -0.7
				production_speed_buildings_factor = 0.05
			}
		}
		kuwait_expat_wage = {
			on_add = { log = "[GetDateText]: [Root.GetName]: add idea kuwait_expat_wage" }
			allowed = { original_tag = KUW }
			name = kuwait_expat
			picture = kuwait_expat
			modifier = {
				conscription = -0.0175
				MONTHLY_POPULATION = 0.6
				production_speed_buildings_factor = 0.05
			}
		}
		bahraini_expat_wage = {
			on_add = { log = "[GetDateText]: [Root.GetName]: add idea bahraini_expat_wage" }
			picture = qatar_expat
			allowed = { original_tag = BHR }
			name = bahraini_expat
			modifier = {
				conscription = -0.0125
				MONTHLY_POPULATION = 0.5
				send_volunteer_size = 1
				production_speed_buildings_factor = 0.05
			}
		}
		qatar_expat_citizen = {
			on_add = { log = "[GetDateText]: [Root.GetName]: add idea qatar_expat_citizen" }
			allowed = { original_tag = QAT }
			name = qatar_expat
			picture = qatar_expat
			modifier = {
				MONTHLY_POPULATION = 1.7
				production_speed_buildings_factor = 0.05
				political_power_factor = -0.1
				nationalist_drift = 0.05
			}
		}
		saudi_expat_citizen = {
			on_add = { log = "[GetDateText]: [Root.GetName]: add idea saudi_expat_citizen" }
			allowed = { original_tag = SAU }
			name = saudi_expat
			picture = saudi_expat
			modifier = {
				MONTHLY_POPULATION = 0.4
				production_speed_buildings_factor = 0.05
				political_power_factor = -0.1
				nationalist_drift = 0.05
			}
		}
		omani_expat_citizen = {
			on_add = { log = "[GetDateText]: [Root.GetName]: add idea omani_expat_citizen" }
			allowed = { original_tag = OMA }
			name = omani_expat
			picture = kuwait_expat
			modifier = {
				MONTHLY_POPULATION = 0.4
				production_speed_buildings_factor = 0.05
				political_power_factor = -0.1
				nationalist_drift = 0.05
			}
		}
		uae_expat_citizen = {
			on_add = { log = "[GetDateText]: [Root.GetName]: add idea uae_expat_citizen" }
			allowed = { original_tag = UAE }
			name = uae_expat
			picture = uae_expat
			modifier = {
				MONTHLY_POPULATION = 1.1
				send_volunteer_size = 1
				send_volunteer_divisions_required = -0.7
				production_speed_buildings_factor = 0.05
				political_power_factor = -0.1
				nationalist_drift = 0.05
			}
		}
		kuwait_expat_citizen = {
			on_add = { log = "[GetDateText]: [Root.GetName]: add idea kuwait_expat_citizen" }
			allowed = { original_tag = KUW }
			name = kuwait_expat
			picture = kuwait_expat
			modifier = {
				MONTHLY_POPULATION = 0.6
				production_speed_buildings_factor = 0.05
				political_power_factor = -0.1
				nationalist_drift = 0.05
			}
		}
		bahraini_expat_citizen = {
			on_add = { log = "[GetDateText]: [Root.GetName]: add idea bahraini_expat_citizen" }
			picture = qatar_expat
			allowed = { original_tag = BHR }
			name = bahraini_expat
			modifier = {
				MONTHLY_POPULATION = 0.5
				send_volunteer_size = 1
				production_speed_buildings_factor = 0.05
				political_power_factor = -0.1
				communism_drift = 0.05
			}
		}
		qatar_expat_remittance = {
			on_add = { log = "[GetDateText]: [Root.GetName]: add idea qatar_expat_remittance" }
			allowed = { original_tag = QAT }
			name = qatar_expat
			picture = qatar_expat
			modifier = {
				conscription = -0.044
				MONTHLY_POPULATION = 1.7
				production_speed_buildings_factor = 0.25
				stability_factor = -0.07
				political_power_factor = 0.05
			}
		}
		saudi_expat_remittance = {
			on_add = { log = "[GetDateText]: [Root.GetName]: add idea saudi_expat_remittance" }
			allowed = { original_tag = SAU }
			name = saudi_expat
			picture = saudi_expat
			modifier = {
				conscription = -0.015
				MONTHLY_POPULATION = 0.4
				production_speed_buildings_factor = 0.25
				stability_factor = -0.07
				political_power_factor = 0.05
			}
		}
		omani_expat_remittance = {
			on_add = { log = "[GetDateText]: [Root.GetName]: add idea omani_expat_remittance" }
			allowed = { original_tag = OMA }
			name = omani_expat
			picture = kuwait_expat
			modifier = {
				conscription = -0.015
				MONTHLY_POPULATION = 0.4
				production_speed_buildings_factor = 0.25
				stability_factor = -0.07
				political_power_factor = 0.05
			}
		}
		uae_expat_remittance = {
			on_add = { log = "[GetDateText]: [Root.GetName]: add idea uae_expat_remittance" }
			allowed = { original_tag = UAE }
			name = uae_expat
			picture = uae_expat
			modifier = {
				conscription = -0.044
				MONTHLY_POPULATION = 1.1
				production_speed_buildings_factor = 0.25
				stability_factor = -0.07
				political_power_factor = 0.05
			}
		}
		kuwait_expat_remittance = {
			on_add = { log = "[GetDateText]: [Root.GetName]: add idea kuwait_expat_remittance" }
			allowed = { original_tag = KUW }
			name = kuwait_expat
			picture = kuwait_expat
			modifier = {
				conscription = -0.035
				MONTHLY_POPULATION = 0.6
				production_speed_buildings_factor = 0.25
				stability_factor = -0.07
				political_power_factor = 0.05
			}
		}
		bahraini_expat_remittance = {
			on_add = { log = "[GetDateText]: [Root.GetName]: add idea bahraini_expat_remittance" }
			picture = qatar_expat
			allowed = { original_tag = BHR }
			name = bahraini_expat
			modifier = {
				conscription = -0.025
				MONTHLY_POPULATION = 0.5
				production_speed_buildings_factor = 0.25
				stability_factor = -0.07
				political_power_factor = 0.05
			}
		}
		qatar_expat_quota = {
			on_add = { log = "[GetDateText]: [Root.GetName]: add idea qatar_expat_quota" }
			allowed = { original_tag = QAT }
			name = qatar_expat
			picture = qatar_expat
			modifier = {
				conscription = -0.044
				MONTHLY_POPULATION = 0.85
				production_speed_buildings_factor = 0.25
				stability_factor = -0.07
				political_power_factor = 0.1
			}
		}
		saudi_expat_quota = {
			on_add = { log = "[GetDateText]: [Root.GetName]: add idea saudi_expat_quota" }
			allowed = { original_tag = SAU }
			name = saudi_expat
			picture = saudi_expat
			modifier = {
				conscription = -0.015
				MONTHLY_POPULATION = 0.2
				production_speed_buildings_factor = 0.25
				stability_factor = -0.07
				political_power_factor = 0.1
			}
		}
		omani_expat_quota = {
			on_add = { log = "[GetDateText]: [Root.GetName]: add idea omani_expat_quota" }
			allowed = { original_tag = OMA }
			name = omani_expat
			picture = kuwait_expat
			modifier = {
				conscription = -0.015
				MONTHLY_POPULATION = 0.2
				production_speed_buildings_factor = 0.25
				stability_factor = -0.07
				political_power_factor = 0.1
			}
		}
		uae_expat_quota = {
			on_add = { log = "[GetDateText]: [Root.GetName]: add idea uae_expat_quota" }
			allowed = { original_tag = UAE }
			name = uae_expat
			picture = uae_expat
			modifier = {
				conscription = -0.044
				MONTHLY_POPULATION = 0.55
				production_speed_buildings_factor = 0.25
				stability_factor = -0.07
				political_power_factor = 0.1
			}
		}
		kuwait_expat_quota = {
			on_add = { log = "[GetDateText]: [Root.GetName]: add idea kuwait_expat_quota" }
			allowed = { original_tag = KUW }
			name = kuwait_expat
			picture = kuwait_expat
			modifier = {
				conscription = -0.035
				MONTHLY_POPULATION = 0.3
				production_speed_buildings_factor = 0.25
				stability_factor = -0.07
				political_power_factor = 0.1
			}
		}
		bahraini_expat_quota = {
			on_add = { log = "[GetDateText]: [Root.GetName]: add idea bahraini_expat_quota" }
			picture = qatar_expat
			allowed = { original_tag = BHR }
			name = bahraini_expat
			modifier = {
				conscription = -0.025
				MONTHLY_POPULATION = 0.25
				production_speed_buildings_factor = 0.25
				stability_factor = -0.07
				political_power_factor = 0.1
			}
		}
		iranian_aid = {
			on_add = { log = "[GetDateText]: [Root.GetName]: add idea iranian_aid" }
			allowed = { NOT = { original_tag = PER } }
			cancel = {
				OR = {
					check_variable = { gdp_per_capita > 17 }
					has_war_with = PER
					PER = { NOT = {
						OR = {
							emerging_hardline_shiite_are_in_power = yes
							emerging_moderate_shiite_are_in_power = yes
						}
					} }
				}
			}
			modifier = {
				experience_gain_army = 0.05
				industrial_capacity_factory = 0.1
				communism_drift = 0.02
				political_power_gain = -0.25
				custom_modifier_tooltip = iranian_aid_idea_TT
			}
		}
		sadrist_militias = {
			on_add = { log = "[GetDateText]: [Root.GetName]: add idea sadrist_militias" }
			picture = sadrist_movement
			allowed = { original_tag = IRQ }
			modifier = { nationalist_drift = 0.05 }
		}
		LoAS_member = {
			on_add = { log = "[GetDateText]: [Root.GetName]: add idea LoAS_member" }
			allowed_civil_war = { no_jihadist_government = yes }
			cancel = { jihadist_government = yes }
		}
		restoring_hope = {
			on_add = { log = "[GetDateText]: [Root.GetName]: add idea restoring_hope" }
			allowed = { original_tag = SAU }
			cancel = { YEM = { has_war = no } }
			modifier = {
				air_close_air_support_defence_factor = 0.02
				experience_gain_air = 0.02
			}
		}
		joint_oil_extraction = {
			picture = resource_production
			modifier = { production_oil_factor = 0.1 }
		}
		construction_boom = {
			picture = construction
			modifier = {
				production_speed_industrial_complex_factor = 0.25
				production_speed_infrastructure_factor = 0.25
			}
		}
		oil_dependency = {
			picture = oil_profits
			allowed_civil_war = { always = yes }
			modifier = {
				production_oil_factor = 0.05
				stability_factor = -0.2
				min_export = 0.1
			}
		}
		gulf_exploitation = {
			picture = production_bonus
			modifier = {
				production_speed_buildings_factor = 0.15
				stability_factor = -0.1
				MONTHLY_POPULATION = -0.05
				custom_modifier_tooltip = gulf_exploitation_tt
			}
		}
		investors_bonus = {
			picture = foreign_capital
			modifier = {
				interest_rate_multiplier_modifier = -1.5
				receiving_investment_duration_modifier = -0.25
				receiving_investment_cost_modifier = -0.25
				consumer_goods_factor = -0.015
			}
		}
		baath_movement = {
			picture = nationalism
			modifier = { nationalist_drift = 0.1 }
		}
		shia_movement = {
			picture = syrian_shiite
			modifier = { communism_drift = 0.1 }
		}
		sunni_movement = {
			picture = islamic_world
			modifier = { neutrality_drift = 0.1 }
		}
		pro_western_movement = {
			picture = democracy
			modifier = { democratic_drift = 0.1 }
		}
		shia_resistance_01 = {
			picture = chi_war_of_resistance
			cancel = {
				OR = {
					has_idea = shia
					AND = {
						original_tag = SAU
						NOT = { controls_state = 174 }
					}
				}
			}
			allowed_civil_war = { always = yes }
			modifier = { political_power_factor = -0.05 }
		}
		shia_resistance_02 = {
			picture = chi_war_of_resistance
			cancel = {
				OR = {
					has_idea = shia
					AND = {
						original_tag = SAU
						NOT = { controls_state = 174 }
					}
				}
			}
			allowed_civil_war = { always = yes }
			modifier = {
				political_power_factor = -0.05
				stability_factor = -0.01
				communism_drift = 0.01
			}
		}
		shia_resistance_03 = {
			picture = chi_war_of_resistance
			cancel = {
				OR = {
					has_idea = shia
					AND = {
						original_tag = SAU
						NOT = { controls_state = 174 }
					}
				}
			}
			allowed_civil_war = { always = yes }
			modifier = {
				political_power_factor = -0.05
				stability_factor = -0.02
				communism_drift = 0.02
			}
		}
		shia_resistance_04 = {
			picture = chi_war_of_resistance2
			cancel = {
				OR = {
					has_idea = shia
					AND = {
						original_tag = SAU
						NOT = { controls_state = 174 }
					}
				}
			}
			allowed_civil_war = { always = yes }
			modifier = {
				political_power_factor = -0.05
				stability_factor = -0.04
				communism_drift = 0.03
			}
		}
		shia_resistance_05 = {
			picture = chi_war_of_resistance2
			cancel = {
				OR = {
					has_idea = shia
					AND = {
						original_tag = SAU
						NOT = { controls_state = 174 }
					}
				}
			}
			allowed_civil_war = { always = yes }
			modifier = {
				political_power_factor = -0.05
				stability_factor = -0.05
				communism_drift = 0.04
			}
		}
		shia_resistance_06 = {
			picture = chi_war_of_resistance2
			cancel = {
				OR = {
					has_idea = shia
					AND = {
						original_tag = SAU
						NOT = { controls_state = 174 }
					}
				}
			}
			allowed_civil_war = { always = yes }
			modifier = {
				war_support_weekly = 0.001
				political_power_factor = -0.05
				stability_factor = -0.08
				communism_drift = 0.05
			}
		}
		shia_resistance_07 = {
			picture = chi_war_of_resistance3
			cancel = {
				OR = {
					has_idea = shia
					AND = {
						original_tag = SAU
						NOT = { controls_state = 174 }
					}
				}
			}
			allowed_civil_war = { always = yes }
			modifier = {
				war_support_weekly = 0.002
				political_power_factor = -0.05
				stability_factor = -0.1
				communism_drift = 0.06
			}
		}
		shia_resistance_08 = {
			picture = chi_war_of_resistance3
			cancel = {
				OR = {
					has_idea = shia
					AND = {
						original_tag = SAU
						NOT = { controls_state = 174 }
					}
				}
			}
			allowed_civil_war = { always = yes }
			modifier = {
				war_support_weekly = 0.003
				political_power_factor = -0.05
				stability_factor = -0.12
				communism_drift = 0.07
			}
		}
		shia_resistance_09 = {
			picture = chi_war_of_resistance3
			cancel = {
				OR = {
					has_idea = shia
					AND = {
						original_tag = SAU
						NOT = { controls_state = 174 }
					}
				}
			}
			allowed_civil_war = { always = yes }
			modifier = {
				war_support_weekly = 0.004
				political_power_factor = -0.05
				stability_factor = -0.15
				communism_drift = 0.08
			}
		}
		shia_resistance_10 = {
			picture = chi_war_of_resistance3
			cancel = {
				OR = {
					has_idea = shia
					AND = {
						original_tag = SAU
						NOT = { controls_state = 174 }
					}
				}
			}
			allowed_civil_war = { always = yes }
			modifier = {
				war_support_weekly = 0.005
				political_power_factor = -0.05
				stability_factor = -0.2
				communism_drift = 0.1
			}
		}
		aggressive_nationalism = {
			picture = scw_intervention_nat
			modifier = {
				stability_factor = -0.05
				invasion_preparation = -0.25
				army_attack_factor = 0.25
				army_morale_factor = 0.25
				Foreign_Intervention_Law_cost_factor = -0.5
				ai_focus_aggressive_factor = 2
			}
		}
		defensive_nationalism = {
			picture = national_defenders
			modifier = {
				stability_factor = 0.05
				army_attack_factor = -0.25
				army_core_attack_factor = 0.25
				army_core_defence_factor = 0.25
				max_dig_in = 5
				ai_focus_defense_factor = 2
			}
		}
		transnational_shiism = {
			picture = national_mobilization
			modifier = {
				political_power_factor = -0.25
				send_volunteers_tension = -0.1
				send_volunteer_size = 2
				ai_focus_aggressive_factor = 2
			}
		}
		national_shiism = {
			picture = national_unity
			modifier = {
				political_power_factor = 0.25
				send_volunteers_tension = 0.1
				ai_focus_defense_factor = 2
			}
		}
		elected_legislature = {
			picture = international_treaty
			modifier = {
				stability_factor = 0.05
				political_power_factor = -0.1
			}
		}
		constitutional_reform = {
			picture = international_treaty
			modifier = {
				stability_factor = 0.05
				political_power_factor = -0.1
			}
		}
		hybrid_regime_western = {
			name = hybrid_regime
			picture = political_censorship
			modifier = {
				democratic_drift = 0.1
				political_power_factor = 0.1
				corruption_cost_factor = 0.5
			}
		}
		hybrid_regime_emerging = {
			name = hybrid_regime
			picture = political_censorship
			modifier = {
				communism_drift = 0.1
				political_power_factor = 0.1
				corruption_cost_factor = 0.5
			}
		}
		birthplace_of_wahhabism = {
			picture = salafist_outlook
			allowed_civil_war = { no_jihadist_government = yes }
			cancel = { jihadist_government = yes }
			modifier = {
				political_power_factor = 0.1
				fascism_drift = 0.3
				communism_drift = -0.05
				democratic_drift = -0.1
				democratic_acceptance = 75
			}
		}
		little_sparta = {
			picture = little_sparta
			allowed_civil_war = {
				has_government = democratic
			}
			modifier = {
				air_cas_present_factor = 0.1
				special_forces_cap = 0.5
				send_volunteer_size = 1
				send_volunteers_tension = -0.1
				democratic_drift = 0.3
				fascism_drift = -0.05
				democratic_acceptance = 20
				ai_focus_aggressive_factor = 1
			}
		}
		legacy_of_the_gulf_war = {
			picture = morale_bonus
			modifier = {
				army_core_attack_factor = 0.25
				army_core_defence_factor = 0.25
				democratic_drift = 0.2
				democratic_acceptance = 20
				ai_focus_defense_factor = 1
			}
		}
		omani_neutrality = {
			picture = neutrality
			modifier = {
				neutrality_drift = 0.15
				stability_factor = 0.05
				democratic_acceptance = 20
				communism_acceptance = 20
			}
		}
		home_of_the_baharna = {
			picture = intel_bonus
			modifier = {
				communism_drift = 0.08
				neutrality_drift = -0.05
				fascism_drift = -0.08
				political_power_factor = -0.05
				democratic_acceptance = 20
			}
		}
		unrepresentative_government_sunni = {
			name = unrepresentative_government
			picture = segregation
			cancel = { NOT = { has_idea = large_shia_population } }
			modifier = {
				political_power_gain = -0.2
				communism_drift = 0.1
			}
		}
		unrepresentative_government_shia = {
			name = unrepresentative_government
			picture = segregation
			cancel = { has_idea = large_shia_population }
			modifier = {
				political_power_gain = -0.2
				fascism_drift = 0.06
				neutrality_drift = 0.04
			}
		}
		extremely_conservative_society = {
			allowed_civil_war = { always = yes }
			picture = raj_marginalized_muslim_community_happy
			modifier = {
				fascism_drift = 0.05
				political_power_factor = 0.15
				trade_opinion_factor = -0.15
				stability_factor = -0.05
			}
		}
		conservative_society = {
			allowed_civil_war = { always = yes }
			picture = raj_marginalized_muslim_community_happy
			modifier = {
				fascism_drift = 0.02
				neutrality_drift = 0.03
				political_power_factor = 0.1
				trade_opinion_factor = -0.1
			}
		}
		moderately_conservative_society = {
			allowed_civil_war = { always = yes }
			picture = raj_marginalized_muslim_community_happy
			modifier = {
				fascism_drift = 0.01
				neutrality_drift = 0.04
				political_power_factor = 0.05
				stability_factor = 0.05
				trade_opinion_factor = -0.05
			}
		}
		moderately_liberal_society = {
			allowed_civil_war = { always = yes }
			picture = raj_marginalized_muslim_community
			modifier = {
				democratic_drift = 0.01
				neutrality_drift = 0.04
				political_power_factor = -0.05
				trade_opinion_factor = 0.05
				stability_factor = 0.05
			}
		}
		liberal_society = {
			allowed_civil_war = { always = yes }
			picture = raj_marginalized_muslim_community
			modifier = {
				democratic_drift = 0.02
				neutrality_drift = 0.03
				political_power_factor = -0.1
				trade_opinion_factor = 0.1
			}
		}
		extremely_liberal_society = {
			allowed_civil_war = { always = yes }
			picture = raj_marginalized_muslim_community
			modifier = {
				democratic_drift = 0.05
				political_power_factor = -0.15
				trade_opinion_factor = 0.15
				stability_factor = -0.05
			}
		}
		shia_extremely_conservative_society = {
			name = extremely_conservative_society
			allowed_civil_war = { always = yes }
			picture = raj_marginalized_muslim_community_happy
			modifier = {
				fascism_drift = 0.03
				communism_drift = 0.02
				political_power_factor = 0.15
				trade_opinion_factor = -0.15
				stability_factor = -0.05
			}
		}
		shia_conservative_society = {
			name = conservative_society
			allowed_civil_war = { always = yes }
			picture = raj_marginalized_muslim_community_happy
			modifier = {
				fascism_drift = 0.01
				neutrality_drift = 0.02
				communism_drift = 0.02
				political_power_factor = 0.1
				trade_opinion_factor = -0.1
			}
		}
		shia_moderately_conservative_society = {
			name = moderately_conservative_society
			allowed_civil_war = { always = yes }
			picture = raj_marginalized_muslim_community_happy
			modifier = {
				neutrality_drift = 0.02
				communism_drift = 0.03
				political_power_factor = 0.05
				stability_factor = 0.05
				trade_opinion_factor = -0.05
			}
		}
		shia_moderately_liberal_society = {
			name = moderately_liberal_society
			allowed_civil_war = { always = yes }
			picture = raj_marginalized_muslim_community
			modifier = {
				neutrality_drift = 0.03
				communism_drift = 0.02
				political_power_factor = -0.05
				trade_opinion_factor = 0.05
				stability_factor = 0.05
			}
		}
		shia_liberal_society = {
			name = liberal_society
			allowed_civil_war = { always = yes }
			picture = raj_marginalized_muslim_community
			modifier = {
				democratic_drift = 0.01
				neutrality_drift = 0.02
				communism_drift = 0.02
				political_power_factor = -0.1
				trade_opinion_factor = 0.1
			}
		}
		shia_extremely_liberal_society = {
			name = extremely_liberal_society
			allowed_civil_war = { always = yes }
			picture = raj_marginalized_muslim_community
			modifier = {
				democratic_drift = 0.03
				communism_drift = 0.02
				political_power_factor = -0.15
				trade_opinion_factor = 0.15
				stability_factor = -0.05
			}
		}
		isis_allegiance = {
			modifier = {
				generate_wargoal_tension = -0.15
				army_attack_factor = 0.1
				justify_war_goal_time = -0.2
			}
		}
		israeli_settlements = {
			picture = central_management
			cancel = { NOT = { country_exists = ISR } }
			modifier = {
				political_power_factor = -0.1
				stability_factor = -0.1
			}
			targeted_modifier = {
				tag = ISR
				attack_bonus_against = -0.1
				defense_bonus_against = -0.1
			}
		}
		israeli_blockade = {
			picture = coastal_defense_ships
			cancel = { NOT = { is_in_array = { ruling_party = 12 } } }
			modifier = {
				political_power_factor = -0.1
				stability_factor = -0.1
				trade_opinion_factor = -1
			}
			targeted_modifier = {
				tag = ISR
				attack_bonus_against = -0.1
				defense_bonus_against = -0.1
			}
		}
		palestinian_resistance = {
			picture = palestine_liberation_groups
			modifier = {
				political_power_factor = -0.05
				stability_factor = -0.05
				democratic_drift = 0.05
			}
		}
		large_refugee_population = {
			picture = migrant_crisis_europe
			modifier = {
				political_power_factor = -0.05
				stability_factor = -0.05
			}
		}
		favorable_boundaries = {
			picture = planning_bonus
			modifier = {
				army_core_attack_factor = 0.25
				army_core_defence_factor = 0.25
			}
		}
		unfavorable_boundaries = {
			picture = planning_bonus
			modifier = {
				army_core_attack_factor = -0.25
				army_core_defence_factor = -0.25
			}
		}
		russian_military_advisors = {
			picture = blr_pro_russian_military_org
			modifier = {
				max_command_power = 10
				max_planning = 0.1
				special_forces_cap = 0.1
			}
		}
		foreign_procurement = {
			picture = volunteer_defenders3
			modifier = { consumer_goods_factor = -0.05 }
		}
		local_arms_industry = {
			picture = production_bonus
			modifier = { production_speed_arms_factory_factor = 0.25 }
		}
		anti_saudi_sentiment = {
			picture = ban_monarchy
			targeted_modifier = {
				tag = SAU
				attack_bonus_against = 1
				defense_bonus_against = 1
			}
		}
		khaleeji = {
			modifier = {
				economic_cycles_cost_factor = 0.5
				trade_opinion_factor = 0.15
				consumer_goods_factor = -0.005
				investment_duration_modifier = -0.10
				investment_cost_modifier = -0.10
			}
		}
		joint_gcc_ventures = {
			picture = volunteer_defenders
			modifier = {
				production_factory_max_efficiency_factor = 0.1
				production_factory_efficiency_gain_factor = 0.1
				industrial_capacity_factory = 0.1
			}
		}
		SAU_ailing_king = {
			picture = ban_monarchy
			modifier = { political_power_factor = -0.15 }
		}
		UAE_sheikh_khalifa = {
			modifier = { political_power_factor = -0.1 }
		}
		SAU_crown_prince_mbn = {
			modifier = {
				stability_factor = 0.05
				drift_defence_factor = 0.25
				crime_fighting_cost_factor = -0.5
				decryption_factor = 0.05
				neutrality_acceptance = 15
			}
		}
		SAU_crown_prince_mbn_lar = {
			name = SAU_crown_prince_mbs
			picture = SAU_crown_prince_mbs
			modifier = {
				stability_factor = 0.05
				drift_defence_factor = 0.25
				crime_fighting_cost_factor = -0.5
				operative_slot = 1
				intel_network_gain_factor = 0.25
				neutrality_acceptance = 15
			}
		}
		SAU_crown_prince_mbs = {
			name = SAU_crown_prince_mbs
			picture = SAU_crown_prince_mbs
			modifier = {
				war_support_factor = 0.05
				stability_factor = -0.05
				political_power_factor = 0.1
				corruption_cost_factor = -0.25
				justify_war_goal_time = -0.1
				generate_wargoal_tension = -0.1
				send_volunteers_tension = -0.1
				neutrality_acceptance = -15
			}
		}
		SAU_innovative_techniques = {
			picture = research_bonus
			modifier = {
				research_speed_factor = 0.05
				local_resources_factor = 0.05
			}
		}
		SAU_a_new_kind_of_warfare = {
			picture = frozen_conflict_medium
			modifier = {
				research_speed_factor = 0.03
				industrial_capacity_factory = 0.05
			}
		}
		operation_dignity = {
			picture = national_mobilization
			modifier = {
				nationalist_drift = 0.2
				democratic_drift = -0.1
				war_support_factor = 0.1
				neutrality_drift = -0.1
				planning_speed = 0.25
				army_org_factor = 0.25
				army_morale_factor = 0.25
				conscription_factor = 0.1
				democratic_acceptance = 15
				fascism_acceptance = 15
			}
		}
		GCC_joint_drill = {
			picture = volunteer_defenders2
			modifier = { experience_gain_army = 0.5 }
		}
		norway_of_arabia = {
			picture = SLO_mountain_country
			modifier = {
				attrition = -0.05
				terrain_penalty_reduction = 0.05
				army_core_attack_factor = 0.05
				army_core_defence_factor = 0.05
			}
		}
		ARAB_nepotism = {
			picture = Ethnic_Insurgencies
			modifier = {
				stability_factor = -0.05
				political_power_factor = -0.25
				communism_drift = 0.1
			}
		}
		ARAB_syrian_baathism = {
			picture = WIP_idea
			modifier = {
				communism_acceptance = 50
				nationalist_acceptance = -50
				neutrality_acceptance = -25
				fascism_acceptance = -100
			}
		}
		ARAB_iraqi_baathism = {
			picture = WIP_idea
			modifier = {
				nationalist_acceptance = 50
				communism_acceptance = -50
				neutrality_acceptance = -25
				fascism_acceptance = -100
			}
		}
		ARAB_nasserism = {
			picture = WIP_idea
			modifier = {
				neutrality_acceptance = 50
				communism_acceptance = -30
				nationalist_acceptance = -30
				fascism_acceptance = -100
			}
		}
		ARAB_caliphate = {
			picture = WIP_idea
			modifier = {
				fascism_acceptance = 50
				communism_acceptance = -50
				nationalist_acceptance = -50
				neutrality_acceptance = -50
			}
		}
		ARAB_militarist = {
			picture = WIP_idea
			modifier = {
				army_attack_factor = -0.1
				army_defence_factor = -0.1
				personnel_cost_multiplier_modifier = 0.05
				nationalist_drift = 0.15
			}
		}
	}
	hidden_ideas = {
		tiny_shia_population = {
			allowed_civil_war = { always = yes }
		}
		small_shia_population = {
			allowed_civil_war = { always = yes }
			modifier = { communism_drift = 0.01 }
		}
		substantial_shia_population = {
			allowed_civil_war = { always = yes }
			modifier = { communism_drift = 0.03 }
		}
		large_shia_population = {
			allowed_civil_war = { always = yes }
			modifier = { communism_drift = 0.05 }
		}
		GCC_veto = {
		}
	}
}