ideas = {
	country = {
		child_soldiers = {
			on_add = { log = "[GetDateText]: [Root.GetName]: add idea child_soldiers" }

			allowed_civil_war = {
				always = yes
			}

			modifier = {
				conscription = 0.02
				stability_factor = -0.05
				war_support_factor = 0.05
				army_morale_factor = -0.15
				army_org_factor = -0.15
				personnel_cost_multiplier_modifier = 0.25
				education_cost_multiplier_modifier = 0.15
				social_cost_multiplier_modifier = 0.15
			}
		}

	}
}