ideas = {

	country = {

		ETH_looming_famine = {
			on_add = { log = "[GetDateText]: [Root.GetName]: add idea ETH_looming_famine" }

			picture = looming_famine

			allowed = {
				original_tag = ETH
			}

			allowed_civil_war = {
				always = yes
			}

			modifier = {
				stability_weekly = -0.001
				army_morale_factor = -0.10
				political_power_factor = -0.15
				MONTHLY_POPULATION = -0.01
				drift_defence_factor = -0.125
			}
		}

		ETH_idea_famine_strikes = {
			on_add = { log = "[GetDateText]: [Root.GetName]: add idea ETH_idea_famine_strikes" }

			picture = famine

			allowed = {
				original_tag = ETH
			}

			allowed_civil_war = {
				always = yes
			}

			modifier = {
				stability_weekly = -0.001
				army_morale_factor = -0.20
				political_power_factor = -0.30
				MONTHLY_POPULATION = -0.15
				drift_defence_factor = -0.25
			}
		}

		ETH_idea_stabilized_food_supply = {
			on_add = { log = "[GetDateText]: [Root.GetName]: add idea ETH_idea_stabilized_food_supply" }

			picture = Stabilized_Food_Supply

			allowed = {
				original_tag = ETH
			}

			allowed_civil_war = {
				always = yes
			}

			modifier = {
				stability_weekly = 0.001
				army_morale_Factor = 0.10
				political_power_factor = 0.10
			}
		}

		ETH_idea_monarchist = {
			on_add = { log = "[GetDateText]: [Root.GetName]: add idea ETH_idea_monarchist" }

			picture = ETH_crown

			allowed = {
				original_tag = ETH
			}

			allowed_civil_war = {
				always = yes
			}

			modifier = {
				nationalist_drift = 0.1
			}
		}

		ETH_idea_messebo = {
			on_add = { log = "[GetDateText]: [Root.GetName]: add idea ETH_idea_messebo" }

			picture = consumer_goods

			allowed = {
				original_tag = ETH
			}

			allowed_civil_war = {
				always = yes
			}

			modifier = {
				production_speed_infrastructure_factor = 0.25
			}
		}

		ETH_idea_cscec = {
			on_add = { log = "[GetDateText]: [Root.GetName]: add idea ETH_idea_CSCEC" }
			picture = CSCEC
			allowed = { original_tag = ETH }
			allowed_civil_war = { always = yes }

			modifier = {

				production_factory_efficiency_gain_factor = 0.1
				production_speed_buildings_factor = 0.1
			}
		}

		ETH_diplomacy_corps = {
			on_add = { log = "[GetDateText]: [Root.GetName]: add idea ETH_diplomacy_corps" }

			picture = deal_with_the_devil2

			allowed = {
				original_tag = ETH
			}

			allowed_civil_war = {
				always = yes
			}

			modifier = {
				political_power_gain = 0.25
			}
		}

		ETH_aircraft_investments = {
			on_add = { log = "[GetDateText]: [Root.GetName]: add idea ETH_aircraft_investments" }
			picture = air_bonus

			allowed = {
				original_tag = ETH
			}

			modifier = {
				experience_gain_air = 0.10
				production_speed_air_base_factor = 0.15
			}
		}

		ETH_motorization_investments = {
			on_add = { log = "[GetDateText]: [Root.GetName]: add idea ETH_motorization_investments" }
			picture = motorized_focus

			allowed = {
				original_tag = ETH
			}

			equipment_bonus = {
				util_vehicle_equipment = {
					build_cost_ic = -0.15
				}
			}
		}

		ETH_agricultural_investments = {
			on_add = { log = "[GetDateText]: [Root.GetName]: add idea ETH_agricultural_investments" }
			picture = agriculture

			allowed = { always = no }

			modifier = {
				monthly_population = 0.15
				consumer_goods_factor = -0.05
			}
		}

		ETH_eritrean_friction = {
			on_add = { log = "[GetDateText]: [Root.GetName]: add idea ETH_eritrean_integrations" }
			picture = ETH_ERI_flags

			modifier = {
				stability_factor = -0.10
				monthly_population = -0.10
			}
		}

		ETH_dissolved_the_assembly = {
			on_add = { log = "[GetDateText]: [Root.GetName]: add idea ETH_dissolved_the_assembly" }
			picture = parliament_burn

			modifier = {
				stability_factor = -0.10
				no_compliance_gain = 1
			}
		}

		ETH_1984_mode = {
			on_add = { log = "[GetDateText]: [Root.GetName]: add idea ETH_1984_mode" }
			picture = cctv_cluster

			modifier = {
				monthly_population = -0.10
				required_garrison_factor = -0.05
				resistance_activity = -0.05
				stability_weekly = 0.001
			}

		}

		ETH_eritrean_federalisation_underway = {
			on_add = { log = "[GetDateText]: [Root.GetName]: add idea ETH_eritrean_federalisation_underway" }
			picture = ETH_ERI_handshake

			modifier = {
				stability_factor = -0.05
				monthly_population = -0.10
			}
		}

		ETH_eritrean_constitution = {
			on_add = { log = "[GetDateText]: [Root.GetName]: add idea ETH_eritrean_constitution" }
			picture = ERI_constitution

			modifier = {
				stability_factor = -0.05
				bureaucracy_cost_multiplier_modifier = 0.10
				police_cost_multiplier_modifier = 0.10
				education_cost_multiplier_modifier = 0.10
				health_cost_multiplier_modifier = 0.10
				social_cost_multiplier_modifier = 0.10
				tax_gain_multiplier_modifier = 0.10
			}
		}
		ETH_educating_the_people = {
			on_add = { log = "[GetDateText]: [Root.GetName]: add idea ETH_educating_the_people" }
			picture = research_bonus

			modifier = {
				stability_factor = 0.05
				research_speed_factor = 0.08
				education_cost_multiplier_modifier = -0.15
			}
		}

		ETH_idea_refactored_debt = {
			on_add = { log = "[GetDateText]: [Root.GetName]: add idea ETH_refactored_debt" }
			picture = international_treaty2

			modifier = {
				interest_rate_multiplier_modifier = -3.5
				bureaucracy_cost_multiplier_modifier = -0.10
				police_cost_multiplier_modifier = -0.10
				education_cost_multiplier_modifier = -0.10
				health_cost_multiplier_modifier = -0.10
				social_cost_multiplier_modifier = -0.10
			}
		}

		ETH_ethiopian_intervention_forces = {
			on_add = { log = "[GetDateText]: [Root.GetName]: add idea ETH_somali_intervention_forces" }
			picture = international_treaty2
			modifier = {
				army_attack_factor = 0.05
				send_volunteers_tension = -0.05
				send_volunteer_size = 2
			}
		}
	}
}
