ideas = {
	country = {
		german_legacy = {
			on_add = { log = "[GetDateText]: [Root.GetNme]: add idea german_legacy" }
			picture = german_legacy_2
			allowed = {
				original_tag = GER
			}
			allowed_civil_war = {
				always = yes
			}
			cancel = {
				 has_government = nationalist
				 has_government = fascism
			}
			modifier = {
				Military_Spending_cost_factor = 5.0
				expected_mil_modifier = -1
				conscription = -0.0075
				expected_police_modifier = -2
				expected_adm_modifier = -2

			hidden_modifier = {
				neutrality_acceptance = -25
				neutrality_drift = -0.03
				democratic_acceptance = 50
				democratic_drift = 0.03
				communism_drift = 0.03
				nationalist_drift = 0.01
				party_popularity_stability_factor = 0.10
			}
		}
	}

		GER_idea_war_reparations = {
			on_add = { log = "[GetDateText]: [Root.GetName]: add idea GER_idea_war_reparations" }
			picture = GER_war_debt_eagle
			allowed = {
				original_tag = GER
			}
			allowed_civil_war = {
				always = yes
			}
			cancel = {
				 has_government = nationalist
				 has_government = fascism
			}
			modifier = {
				political_power_factor = -0.05
				custom_modifier_tooltip = GER_war_debt_contributions_TT
			}
		}
		GER_idea_german_education_reforms = {
			on_add = { log = "[GetDateText]: [Root.GetName]: add idea GER_german_education_reforms" }
			picture = research_bonus
			allowed = {
				original_tag = GER
			}
			allowed_civil_war = {
				always = yes
			}
			modifier = {
				research_speed_factor = 0.05
			}
		}
		GER_idea_germany_divided = {
			on_add = { log = "[GetDateText]: [Root.GetName]: add idea GER_german_education_reforms" }
			picture = german_divided
			allowed = {
				original_tag = GER
			}
			allowed_civil_war = {
				always = yes
			}
			modifier = {
				stability_factor = -0.05
				research_speed_factor = -0.10
				political_power_factor = -0.35
			}
		}
		GER_idea_paper_army = {
			on_add = { log = "[GetDateText]: [Root.GetName]: add idea GER_idea_paper_army" }
			picture = disorganized_army
			allowed = {
				original_tag = GER
			}
			allowed_civil_war = {
				always = yes
			}
			modifier = {
				conscription = -0.01
				training_time_factor = 0.30
				army_leader_cost_factor = 0.15
				experience_gain_army_unit_factor = -0.10
				supply_consumption_factor = 0.25
				attrition = 0.05
			}
		}
		#
		GER_idea_paper_army2 = {
			on_add = { log = "[GetDateText]: [Root.GetName]: add idea GER_idea_paper_army2" }
			picture = disorganized_army
			allowed = {
				original_tag = GER
			}
			allowed_civil_war = {
				always = yes
			}
			modifier = {
				training_time_factor = 0.25
				army_leader_cost_factor = 0.10
				experience_gain_army_unit_factor = -0.10
				supply_consumption_factor = 0.15
				attrition = 0.05
			}
		}
		GER_idea_paper_army3 = {
			on_add = { log = "[GetDateText]: [Root.GetName]: add idea GER_idea_paper_army3" }
			picture = disorganized_army
			allowed = {
				original_tag = GER
			}
			allowed_civil_war = {
				always = yes
			}
			modifier = {
				training_time_factor = 0.25
				army_leader_cost_factor = 0.02
				experience_gain_army_unit_factor = -0.05
				supply_consumption_factor = 0.15
				attrition = 0.05
			}
		}
		GER_idea_paper_army4 = {
			on_add = { log = "[GetDateText]: [Root.GetName]: add idea GER_idea_paper_army4" }
			picture = disorganized_army
			allowed = {
				original_tag = GER
			}
			allowed_civil_war = {
				always = yes
			}
			modifier = {
				training_time_factor = 0.20
				supply_consumption_factor = 0.15
				attrition = 0.05
			}
		}
		GER_idea_formidable_army = {
			on_add = { log = "[GetDateText]: [Root.GetName]: add idea GER_idea_formidable_army" }
			picture = army_corruption3
			allowed = {
				original_tag = GER
			}
			allowed_civil_war = {
				always = yes
			}
			modifier = {
				training_time_factor = -0.10
				supply_consumption_factor = -0.20
				attrition = -0.02
				army_leader_cost_factor = -0.15
				experience_gain_army_unit_factor = 0.05
			}
		}
		#
		GER_nordstream_1 = {
			on_add = { log = "[GetDateText]: [Root.GetName]: add idea GER_nordstream_1" }
			picture = foreign_capital
			allowed = {
				original_tag = GER
			}
			allowed_civil_war = {
				always = yes
			}
			modifier = {
				base_fuel_gain = 15
				projects_cost_modifier = -0.10
			}
		}
		GER_nordstream_2 = {
			on_add = { log = "[GetDateText]: [Root.GetName]: add idea GER_nordstream_2" }
			picture = poor_economy
			allowed = {
				original_tag = GER
			}
			allowed_civil_war = {
				always = yes
			}
			modifier = {
				oil_export_multiplier_modifier = 0.15
				army_fuel_consumption_factor = -0.15
				air_fuel_consumption_factor = -0.15
				navy_fuel_consumption_factor = -0.15
			}
		}
		#
		GER_idea_unemployment_crisis = {
			on_add = { log = "[GetDateText]: [Root.GetName]: add idea GER_idea_unemployment_crisis1" }
			picture = poor_economy
			allowed = {
				original_tag = GER
			}
			allowed_civil_war = {
				always = yes
			}
			modifier = {
				civ_facs_worker_requirement_modifier = -0.1
				mil_facs_worker_requirement_modifier = -0.1
				offices_worker_requirement_modifier = -0.1
				civilian_factories_productivity = -0.1
				military_factories_productivity = -0.1
				dockyard_productivity = -0.1
				offices_productivity = -0.1
				production_speed_buildings_factor = -0.20
				production_speed_arms_factory_factor = -0.10
			}
		}
		GER_idea_unemployment_crisis2 = {
			on_add = { log = "[GetDateText]: [Root.GetName]: add idea GER_idea_unemployment_crisis2" }
			name = GER_idea_unemployment_crisis
			picture = poor_economy
			allowed = {
				original_tag = GER
			}
			allowed_civil_war = {
				always = yes
			}
			modifier = {
				civilian_factories_productivity = -0.03
				military_factories_productivity = -0.03
				dockyard_productivity = -0.03
				offices_productivity = -0.03
				corporate_tax_income_multiplier_modifier = -0.05
				production_speed_buildings_factor = -0.10
				production_speed_arms_factory_factor = -0.05
			}
		}
		GER_idea_german_education_reforms1 = {
			name = GER_idea_german_education_reforms
			on_add = { log = "[GetDateText]: [Root.GetName]: add idea GER_german_education_reforms1" }
			picture = research_bonus
			allowed = {
				original_tag = GER
			}
			allowed_civil_war = {
				always = yes
			}
			modifier = {
				research_speed_factor = 0.10
				political_power_factor = -0.03
			}
		}
		GER_idea_german_education_reforms2 = {
			name = GER_idea_german_education_reforms
			on_add = { log = "[GetDateText]: [Root.GetName]: add idea GER_german_education_reforms2" }
			picture = research_bonus
			allowed = {
				original_tag = GER
			}
			allowed_civil_war = {
				always = yes
			}
			modifier = {
				research_speed_factor = 0.15
				political_power_factor = -0.10
				country_productivity_growth_modifier = 0.05
			}
		}
		GER_idea_officer_exchange = {
			on_add = { log = "[GetDateText]: [Root.GetName]: add idea GER_idea_officer_exchange" }
			picture = shared_research
			allowed = {
				original_tag = GER
			}
			allowed_civil_war = {
				always = yes
			}
			modifier = {
				experience_gain_army = 0.02
				experience_gain_navy = 0.01
				experience_gain_air = 0.02
			}
		}
		GER_idea_scientific_exchange_medium = {
			on_add = { log = "[GetDateText]: [Root.GetName]: add idea GER_idea_scientific_exchange" }
			picture = shared_research
			allowed = {
				original_tag = GER
			}
			allowed_civil_war = {
				always = yes
			}
			modifier = {
				research_speed_factor = 0.06
			}
		}
		GER_idea_expanding_digital_infrastructure = {
			name = GER_idea_expanding_digital_infrastructure
			on_add = { log = "[GetDateText]: [Root.GetName]: add idea GER_idea_expanding_digital_infrastructure" }
			picture = tower_investment
			allowed = {
				original_tag = GER
			}
			allowed_civil_war = {
				always = yes
			}
			modifier = {
				research_speed_factor = 0.03
				production_speed_buildings_factor = 0.05
			}
		}
		GER_idea_expanding_digital_infrastructure1 = {
			name = GER_idea_expanding_digital_infrastructure
			on_add = { log = "[GetDateText]: [Root.GetName]: add idea GER_idea_expanding_digital_infrastructure1" }
			picture = tower_investment
			allowed = {
				original_tag = GER
			}
			allowed_civil_war = {
				always = yes
			}
			modifier = {
				research_speed_factor = 0.05
				production_speed_buildings_factor = 0.1
				political_power_factor = -0.05
			}
		}
		#
		GER_idea_east_german_debuff1 = {
			name = GER_idea_east_german_debuff1
			on_add = { log = "[GetDateText]: [Root.GetName]: add idea GER_idea_east_german_debuff1" }
			picture = fire
			allowed = {
				original_tag = GER
			}
			allowed_civil_war = {
				always = yes
			}
			modifier = {
				research_speed_factor = -0.05
				production_speed_buildings_factor = -0.10
				consumer_goods_factor = 0.02
				communism_drift = 0.02
				productivity_growth_modifier = -0.2
			}
		}
		#
		GER_idea_east_german_debuff2 = {
			name = GER_idea_east_german_debuff1
			on_add = { log = "[GetDateText]: [Root.GetName]: add idea GER_idea_east_german_debuff2" }
			picture = fire
			allowed = {
				original_tag = GER
			}
			allowed_civil_war = {
				always = yes
			}
			modifier = {
				research_speed_factor = -0.15
				production_speed_buildings_factor = -0.15
				consumer_goods_factor = 0.04
				tax_gain_multiplier_modifier = -0.10
				communism_drift = 0.05
				productivity_growth_modifier = -0.4
			}
		}
		GER_idea_east_german_debuff3 = {
			name = GER_idea_east_german_debuff1
			on_add = { log = "[GetDateText]: [Root.GetName]: add idea GER_idea_east_german_debuff3" }
			picture = fire
			allowed = {
				original_tag = GER
			}
			allowed_civil_war = {
				always = yes
			}
			modifier = {
				research_speed_factor = -0.25
				production_speed_buildings_factor = -0.25
				consumer_goods_factor = 0.08
				tax_gain_multiplier_modifier = -0.10
				communism_drift = 0.10
				productivity_growth_modifier = -1
			}
		}
		#
		GER_idea_east_german_debuff4 = {
			name = GER_idea_east_german_debuff1
			on_add = { log = "[GetDateText]: [Root.GetName]: add idea GER_idea_east_german_debuff4" }
			picture = fire
			allowed = {
				original_tag = GER
			}
			allowed_civil_war = {
				always = yes
			}
			modifier = {
				research_speed_factor = -0.55
				production_speed_buildings_factor = -0.55
				consumer_goods_factor = 0.20
				tax_gain_multiplier_modifier = -0.20
				communism_drift = 0.20
				productivity_growth_modifier = -2
			}
		}
		#
		GER_idea_continental_investments = {
			on_add = { log = "[GetDateText]: [Root.GetName]: add idea GER_idea_continental_investments" }
			picture = scientists_defect
			allowed = {
				original_tag = GER
			}
			allowed_civil_war = {
				always = yes
			}
			modifier = {
				political_power_factor = -0.05
				production_speed_buildings_factor = 0.05
				research_speed_factor = 0.07
			}
		}
		GER_idea_aging_population = {
			on_add = { log = "[GetDateText]: [Root.GetName]: add idea GER_idea_aging_population" }

			allowed_civil_war = { always = yes }

			picture = population_explosion

			modifier = {
				MONTHLY_POPULATION = -0.05
				economic_cycles_cost_factor = 0.25
				econ_cycle_upg_cost_multiplier_modifier = 0.15
			}
		}
		#
		GER_idea_increased_population_growth = {
			on_add = { log = "[GetDateText]: [Root.GetName]: add idea GER_idea_increased_population_growth" }

			allowed_civil_war = { always = yes }

			picture = population_growth

			modifier = {
				MONTHLY_POPULATION = 0.04
				political_power_factor = -0.02
				consumer_goods_factor = 0.015
			}
		}
		#
		GER_idea_decreased_population_growth = {
			on_add = { log = "[GetDateText]: [Root.GetName]: add idea GER_idea_decreased_population_growth" }

			allowed_civil_war = { always = yes }

			picture = population_down

			modifier = {
				MONTHLY_POPULATION = -0.10
				political_power_factor = 0.05
				consumer_goods_factor = -0.03
			}
		}

		### MILITARY ###

		GER_idea_rhineland_industry = {
			on_add = { log = "[GetDateText]: [Root.GetName]: add idea GER_idea_rhineland_industry" }
			picture = german_rhineland_industry
			allowed = {
				original_tag = GER
			}
			allowed_civil_war = {
				always = yes
			}
			modifier = {
					production_speed_buildings_factor = 0.10
					mil_facs_worker_requirement_modifier = -0.10
					civ_facs_worker_requirement_modifier = -0.10
				}
			}

		## ENERGY TREE IDEAS ##
		GER_idea_renewable_energy_projects_phase_one = {
			on_add = { log = "[GetDateText]: [Root.GetName]: add idea GER_idea_renewable_energy_projects_phase_one" }
			picture = eco_factories
			allowed = {
				original_tag = GER
			}
			allowed_civil_war = {
				always = yes
			}
			modifier = {
				renewable_energy_gain_multiplier = 0.1
				stability_factor = 0.04
			}
		}

		GER_idea_renewable_energy_projects_complete = {
			on_add = { log = "[GetDateText]: [Root.GetName]: add idea GER_idea_renewable_energy_projects_complete" }
			picture = eco_factories
			allowed = {
				original_tag = GER
			}
			allowed_civil_war = {
				always = yes
			}
			modifier = {
				renewable_energy_gain_multiplier = 0.25
				stability_factor = 0.12
			}
		}

		GER_idea_carbon_neutral = {
			on_add = { log = "[GetDateText]: [Root.GetName]: add idea GER_idea_carbon_neutral" }
			picture = sustainable_development
			allowed = {
				original_tag = GER
			}
			allowed_civil_war = {
				always = yes
			}
			modifier = {
				renewable_energy_gain_multiplier = 0.45
				stability_factor = 0.15
				production_speed_nuclear_reactor_factor = -2.0
				production_speed_synthetic_refinery_factor = 1.0
			}
			cancel = {
				custom_trigger_tooltip = {
					tooltip = has_NENERGY_TT
					is_in_array = { nuclear_status_array = 4 }
				}
			}
		}

		GER_idea_nationalised_energy_companies = {
			on_add = { log = "[GetDateText]: [Root.GetName]: add idea GER_idea_nationalised_energy_companies" }
			picture = industrial_concern
			allowed = {
				original_tag = GER
			}
			allowed_civil_war = {
				always = yes
			}
			modifier = {
				energy_gain_multiplier = 0.15
				political_power_factor = 0.05
				stability_factor = 0.05
			}
		}

		GER_idea_nuclear_power_country = {
			on_add = { log = "[GetDateText]: [Root.GetName]: add idea GER_idea_nuclear_power_country" }
			picture = fusion_energy
			allowed = {
				original_tag = GER
			}
			allowed_civil_war = {
				always = yes
			}
			modifier = {
				production_speed_nuclear_reactor_factor = 0.75
				nuclear_energy_generation_modifier = 0.15
				production_speed_synthetic_refinery_factor = -0.50
				stability_factor = -0.08
			}
			cancel = {
				neutrality_neutral_green_in_power_or_coalition = yes
				custom_trigger_tooltip = {
					tooltip = NOT_has_NENERGY_TT
					NOT = { is_in_array = { nuclear_status_array = 4 } }
				}
			}
		}
		GER_idea_nuclear_expansion1 = {
			on_add = { log = "[GetDateText]: [Root.GetName]: add idea GER_idea_nuclear_expansion1" }
			allowed = { always = no }
			picture = nuclear_energy

			modifier = {
				production_speed_nuclear_reactor_factor = 0.03
				nuclear_energy_generation_modifier = 0.03
				nuclear_fuel_consumption_modifier = -0.03
			}
		}
		GER_idea_nuclear_expansion2 = {
			on_add = { log = "[GetDateText]: [Root.GetName]: add idea GER_idea_nuclear_expansion2" }
			allowed = { always = no }
			picture = nuclear_energy

			modifier = {
				production_speed_nuclear_reactor_factor = 0.03
				nuclear_energy_generation_modifier = 0.03
				nuclear_fuel_consumption_modifier = -0.03
				energy_use_multiplier = 0.03
			}
		}
		GER_idea_nuclear_expansion3 = {
			on_add = { log = "[GetDateText]: [Root.GetName]: add idea GER_nuclear_expansion3" }
			allowed = { always = no }
			picture = nuclear_energy

			modifier = {
				production_speed_nuclear_reactor_factor = 0.10
				nuclear_energy_generation_modifier = 0.05
				nuclear_fuel_consumption_modifier = -0.03
				energy_use_multiplier = 0.03
			}
		}
		GER_idea_nuclear_expansion4 = {
			on_add = { log = "[GetDateText]: [Root.GetName]: add idea GER_nuclear_expansion4" }
			allowed = { always = no }
			picture = nuclear_energy

			modifier = {
				production_speed_nuclear_reactor_factor = 0.15
				nuclear_energy_generation_modifier = 0.10
				nuclear_fuel_consumption_modifier = -0.05
				energy_use_multiplier = 0.05
			}
		}
		GER_idea_nuclear_expansion5 = {
			on_add = { log = "[GetDateText]: [Root.GetName]: add idea GER_nuclear_expansion5" }
			allowed = { always = no }
			picture = nuclear_energy

			modifier = {
				production_speed_nuclear_reactor_factor = 0.15
				nuclear_energy_generation_modifier = 0.15
				nuclear_fuel_consumption_modifier = -0.15
				energy_use_multiplier = 0.05
			}
		}
	#Bundeswehr
		GER_Idea_Heeresflieger_VI = {
			on_add = { log = "[GetDateText]: [Root.GetName]: add idea GER_Idea_Heeresflieger_VI" }
			picture = volunteer_defenders3
			allowed = { original_tag = GER }
			allowed_civil_war = { always = yes }
			cancel = {
				has_government = nationalist
				has_government = fascism
				NOT = { original_tag = GER }
				has_army_manpower = { size > 350000 }
		   }
			modifier = {
				army_org_factor = 0.04
				army_speed_factor = 0.06
				special_forces_attack_factor = 0.04
				special_forces_defence_factor = 0.06
			}
		}
		GER_Idea_Weltraumkommando = {
			on_add = { log = "[GetDateText]: [Root.GetName]: add idea GER_Idea_Weltraumkommando" }
			picture = volunteer_defenders3
			allowed = { original_tag = GER }
			allowed_civil_war = { always = yes }
			modifier = {
				research_speed_factor = 0.06
				decryption_factor = 0.10
				air_intercept_efficiency = 0.1
			}
		}
		GER_Idea_light_Force = {
			on_add = { log = "[GetDateText]: [Root.GetName]: add idea GER_Idea_light_Force" }
			picture = infantry_bonus
			allowed = { original_tag = GER }
			allowed_civil_war = { always = yes }
			modifier = {
				special_forces_attack_factor = 0.08
				special_forces_defence_factor = 0.08
				recon_factor = 0.08
				army_org_factor = 0.06
			}
		}
		GER_Idea_medium_Force = {
			on_add = { log = "[GetDateText]: [Root.GetName]: add idea GER_Idea_medium_Force" }
			picture = motorized_focus
			allowed = { original_tag = GER }
			allowed_civil_war = { always = yes }
			modifier = {
				mechanized_attack_factor = 0.08
				mechanized_defence_factor = 0.08
				recon_factor = 0.08
				army_org_factor = 0.10
			}
		}
		GER_Idea_heavy_Force = {
			on_add = { log = "[GetDateText]: [Root.GetName]: add idea GER_Idea_heavy_Force" }
			picture = armor
			allowed = { original_tag = GER }
			allowed_civil_war = { always = yes }
			modifier = {
				army_armor_attack_factor = 0.08
				army_armor_defence_factor = 0.08
				army_org_factor = 0.08
			}
		}
		GER_Idea_Neuausrichtung_Marine = {
			on_add = { log = "[GetDateText]: [Root.GetName]: add idea GER_Idea_Neuausrichtung_Marine" }
			picture = crm_shipment_idea
			allowed = { original_tag = GER }
			allowed_civil_war = { always = yes }
			modifier = {
				spotting_chance = 0.09
				naval_coordination = 0.07
				naval_speed_factor = 0.05
				navy_submarine_detection_factor = 0.08
				navy_max_range_factor = 0.1
			}
		}
		GER_idea_Cold_War_Army = {
			on_add = { log = "[GetDateText]: [Root.GetName]: add idea GER_idea_Cold_War_Army" }
			picture = cold_war
			allowed = { original_tag = GER }
			allowed_civil_war = { always = yes }
			cancel = {
				has_government = nationalist
				has_government = fascism
				NOT = { original_tag = GER }
		   }
			modifier = {
				personnel_cost_multiplier_modifier = 0.3
				experience_gain_army = -0.05
				army_org_Factor = -0.05
				army_morale_factor = -0.1
				army_attack_factor = -0.01
				army_defence_factor = -0.10
				max_planning = 0.01
				supply_consumption_factor = 0.10
			}
		}
		GER_idea_Transformation = {
			on_add = { log = "[GetDateText]: [Root.GetName]: add idea GER_idea_Transformation" }
			picture = triumphant_will
			allowed = { original_tag = GER }
			allowed_civil_war = { always = yes }
			cancel = {
				has_government = nationalist
				has_government = fascism
				NOT = { original_tag = GER }
				has_army_manpower = { size > 350000 }
		   }
			modifier = {
				personnel_cost_multiplier_modifier = 0.4
				experience_gain_army = -0.05
				army_org_Factor = 0.05
				army_morale_factor = 0.05
				army_attack_factor = 0.02
				army_defence_factor = 0.05
				max_planning = 0.01
				supply_consumption_factor = -0.05
			}
		}
		GER_idea_Heer_2010 = {
			on_add = { log = "[GetDateText]: [Root.GetName]: add idea GER_idea_Heer_2010" }
			picture = triumphant_will
			allowed = { original_tag = GER }
			allowed_civil_war = { always = yes }
			cancel = {
				has_government = nationalist
				has_government = fascism
				NOT = { original_tag = GER }
				has_army_manpower = { size > 350000 }
		   }
			modifier = {
				personnel_cost_multiplier_modifier = 0.5
				army_defence_factor = 0.05
				supply_consumption_factor = -0.05
				army_org_Factor = 0.05
				army_morale_factor = 0.05
				army_attack_factor = 0.05
				max_planning = 0.03
				enemy_army_bonus_air_superiority_factor = -0.05
				experience_gain_army = 0.02
				experience_gain_air = 0.03
				training_time_factor = 0.1
				recon_factor = 0.05
			}
		}
		GER_idea_Heer_2010_2 = {
			on_add = { log = "[GetDateText]: [Root.GetName]: add idea GER_idea_Heer_2010_2" }
			picture = triumphant_will
			allowed = { original_tag = GER }
			allowed_civil_war = { always = yes }
			cancel = {
				has_government = nationalist
				has_government = fascism
				NOT = { original_tag = GER }
				has_army_manpower = { size > 350000 }
		   }
			modifier = {
				personnel_cost_multiplier_modifier = 0.6
				army_defence_factor = 0.05
				supply_consumption_factor = -0.05
				army_org_Factor = 0.08
				army_morale_factor = 0.08
				army_attack_factor = 0.08
				max_planning = 0.05
				enemy_army_bonus_air_superiority_factor = -0.10
				experience_gain_army = 0.03
				training_time_factor = 0.1
				special_forces_attack_factor = 0.05
				special_forces_defence_factor = 0.05
				recon_factor = 0.08
			}
		}
		GER_idea_Streitkrafte_Basis = {
			on_add = { log = "[GetDateText]: [Root.GetName]: add idea GER_idea_Streitkrafte_Basis" }
			picture = strategic_services
			allowed = { original_tag = GER }
			allowed_civil_war = { always = yes }
			modifier = {
				army_org_Factor = 0.02
				army_org_regain = 0.03
				army_morale_factor = 0.04
				army_speed_factor = 0.05
				supply_consumption_factor = -0.05
			}
		}
		GER_idea_JFST = {
			on_add = { log = "[GetDateText]: [Root.GetName]: add idea GER_idea_JFST" }
			picture = artillery_regiments
			allowed = { always = no }
			allowed_civil_war = { always = yes }
			modifier = {
				army_defence_factor = 0.02
				army_attack_factor = 0.02
				army_artillery_attack_factor = 0.09
				army_speed_factor = 0.02
				ground_attack_factor = 0.05
				intel_network_gain_factor = 0.03
				recon_factor = 0.08
			}
		}

		GER_idea_Army_Training_Command = {
			on_add = { log = "[GetDateText]: [Root.GetName]: add idea GER_idea_Army_Training_Command" }
			picture = gentleman_officers
			allowed = {
				original_tag = GER
			}
			cancel = {
				has_government = nationalist
				has_government = fascism
				NOT = { original_tag = GER }
		   }
				modifier = {
					max_planning = 0.02
					army_speed_factor = 0.02
					experience_gain_army = 0.05
					army_org_Factor = 0.02
					army_morale_factor = 0.02
					army_attack_factor = 0.02
				}
			}
		GER_idea_Cyber_and_Information_Domain_Service = {
			on_add = { log = "[GetDateText]: [Root.GetName]: add idea GER_idea_Cyber_and_Information_Domain_Service" }
			picture = internet_icon
			allowed = {
				original_tag = GER
			}
			allowed_civil_war = { always = yes }
				modifier = {
				max_planning = 0.07
				decryption_factor = 0.07
				intel_network_gain_factor = 0.05
			}
		}
		GER_idea_Marinekommando = {
			on_add = { log = "[GetDateText]: [Root.GetName]: add idea GER_idea_Marinekommando" }
			picture = coastal_defense_ships2
			allowed = {
				original_tag = GER
			}
			cancel = {
				has_government = nationalist
				has_government = fascism
				NOT = { original_tag = GER }
		   }
			allowed_civil_war = { always = yes }
				modifier = {
				naval_speed_factor = 0.06
				navy_screen_defence_factor = 0.10
				Naval_doctrine_cost_factor = 0.1
			}
		}
		Ger_idea_European_Army = {
			on_add = { log = "[GetDateText]: [Root.GetName]: add idea Ger_idea_European_Army" }
			picture = ven_nato_part

				modifier = {
				army_speed_factor = 0.05
				experience_gain_army = 0.06
				army_org_Factor = 0.06
				army_morale_factor = 0.08
			}
		}
		#####
		GER_idea_sag_company = {
			on_add = { log = "[GetDateText]: [Root.GetName]: add idea GER_idea_sag_company" }
			picture = fossil_fuel_industry
			allowed = {
				tag = GER
			}
			modifier = {
				foreign_influence_modifier = 0.10
				production_speed_infrastructure_factor = 0.15
			}
		}
		# Political Ideas
		#SPD
		GER_idea_drift_from_nuclear = {
			on_add = { log = "[GetDateText]: [Root.GetName]: add idea GER_idea_drift_from_nuclear" }
			picture = hyper_inflation
			allowed = {
				tag = GER
			}
			cancel = {
				NOT = {
					western_social_democrats_are_in_power = yes
				}
			}
			modifier = {
				production_speed_nuclear_reactor_factor = -0.10
				production_speed_synthetic_refinery_factor = 0.15
				consumer_goods_factor = -0.02
			}
		}
		####Foreign
		GER_idea_InWent = {
			on_add = { log = "[GetDateText]: [Root.GetName]: add idea GER_idea_InWent" }
			picture = disjointed_government
			allowed = {
				original_tag = GER
			}
				modifier = {
					political_power_gain = -0.1
					global_building_slots_factor = 0.05
					production_speed_industrial_complex_factor = 0.25
				}
			}
		GER_idea_Reform_the_DED = {
			on_add = { log = "[GetDateText]: [Root.GetName]: add idea GER_idea_Reform_the_DED" }
			picture = jihad_of_education
			allowed = {
				original_tag = GER
			}
				modifier = {
					foreign_influence_modifier = 0.15
					bureaucracy_cost_multiplier_modifier = -0.10
				}
			}
		GER_idea_Reform_the_GTZ = {
			on_add = { log = "[GetDateText]: [Root.GetName]: add idea GER_idea_Reform_the_GTZ" }
			picture = globalized_trade_economy
			allowed = {
				original_tag = GER
			}
				modifier = {
					projects_cost_modifier = -0.20
					investment_duration_modifier = -0.15
				}
			}
		GER_idea_GIZ = {
			on_add = { log = "[GetDateText]: [Root.GetName]: add idea GER_idea_GIZ" }
			picture = globalized_trade_economy
			allowed = {
				original_tag = GER
			}
				modifier = {
					research_speed_factor = 0.05
				}
				research_bonus = {
					CAT_ai = 0.10
					CAT_nfibers = 0.10
					CAT_3d = 0.10
					CAT_space = 0.10
				}
			}

		GER_idea_found_Bundesagentur_fur_Aussenwirtschaft = {
			on_add = { log = "[GetDateText]: [Root.GetName]: add idea GER_idea_Army_Training_Command" }
			picture = industrial_focus
			allowed = {
				original_tag = GER
			}
				modifier = {
					global_building_slots_factor = 0.10
					production_speed_industrial_complex_factor = 0.25
					intel_network_gain_factor = 0.15
				}
			}

		####Burger####
		###Ideas###
		GER_idea_restructure_Infrastructure = {
			on_add = { log = "[GetDateText]: [Root.GetName]: add idea GER_idea_Restructure_Infrastructure" }
			picture = GENERIC_public_works
			allowed = { always = no }
			allowed_civil_war = { always = yes }
			equipment_bonus = {
				train_equipment = {
					build_cost_ic = -0.1
					instant = yes
				}
				util_vehicle_equipment = {
					build_cost_ic = -0.1
					instant = yes
				}
			}
		}
		GER_idea_Privatisation_Post = {
			on_add = { log = "[GetDateText]: [Root.GetName]: add idea GER_idea_Privatisation_Post" }
			allowed = { always = no }
			allowed_civil_war = { always = yes }
			picture = international_treaty2
			modifier = {
				supply_node_range = 0.05
				tax_gain_multiplier_modifier = 0.01
			}
		}
		GER_idea_Privatisation_Post_II = {
			on_add = { log = "[GetDateText]: [Root.GetName]: add idea GER_idea_Privatisation_Post_II" }
			allowed = { always = no }
			allowed_civil_war = { always = yes }
			picture = international_treaty2
			modifier = {
				supply_node_range = 0.10
				tax_gain_multiplier_modifier = 0.02
				consumer_goods_factor = -0.02
			}
		}
		GER_idea_DHL = {
			on_add = { log = "[GetDateText]: [Root.GetName]: add idea GER_idea_DHL" }
			allowed = { always = no }
			allowed_civil_war = { always = yes }
			picture = international_treaty2
			modifier = {
				production_lack_of_resource_penalty_factor = -0.15
				supply_consumption_factor = -0.15
			}
		}
		GER_idea_Bergbaufolgelandschaften = {
			on_add = { log = "[GetDateText]: [Root.GetName]: add idea GER_idea_Bergbaufolgelandschaften" }
			allowed = { always = no }
			allowed_civil_war = { always = yes }
			picture = resource_production
			modifier = {
				local_resources_factor = 0.10
				resource_export_multiplier_modifier = 0.10
			}
		}
#start
		GER_idea_okosteuer = {
			on_add = { log = "[GetDateText]: [Root.GetName]: add idea GER_idea_okosteuer" }
			allowed = { always = no }
			allowed_civil_war = { always = yes }
			picture = eco_factories
			modifier = {
				production_speed_industrial_complex_factor = -0.05
				tax_gain_multiplier_modifier = 0.03
				stability_factor = -0.01
			}
		}
		GER_idea_okosteuer_II = {
			on_add = { log = "[GetDateText]: [Root.GetName]: add idea GER_idea_okosteuer_II" }
			allowed = { always = no }
			allowed_civil_war = { always = yes }
			picture = eco_factories
			modifier = {
				production_speed_industrial_complex_factor = -0.1
				tax_gain_multiplier_modifier = 0.05
				stability_factor = -0.01
				}
		}
		GER_idea_Corporate_Tax_Reform = {
			on_add = { log = "[GetDateText]: [Root.GetName]: add idea GER_idea_Corporate_Tax_Reform" }
			allowed = { always = no }
			allowed_civil_war = { always = yes }
			picture = economic_increase
			modifier = {
				production_speed_industrial_complex_factor = 0.05
				stability_factor = 0.01
			}
		}
		GER_idea_Agenda_2010 = {
			on_add = { log = "[GetDateText]: [Root.GetName]: add idea GER_idea_Agenda_2010" }
			picture = GER_idea_johannes_rau
			allowed = { always = no }
			allowed_civil_war = { always = yes }
			cancel = {
				NOT = {
					western_social_democrats_are_in_power = yes
				}
			}
			modifier = {
				production_factory_max_efficiency_factor = 0.05
				industrial_capacity_factory = 0.05
				bureaucracy_cost_multiplier_modifier = 0.05
				health_cost_multiplier_modifier = -0.05
				social_cost_multiplier_modifier = -0.05
				education_cost_multiplier_modifier = 0.05
				consumer_goods_factor = -0.05
				tax_gain_multiplier_modifier = 0.05
			}
		}

		#
		GER_idea_agenda = {
			on_add = { log = "[GetDateText]: [Root.GetName]: add idea GER_idea_agenda" }
			picture = international_treaty
			allowed = {
				tag = GER
			}
			cancel = {
				NOT = {
					western_social_democrats_are_in_power = yes
				}
			}
			modifier = {
				social_cost_multiplier_modifier = -0.10
				health_cost_multiplier_modifier = -0.05
			}
		}
		#
		GER_idea_agenda2 = {
			on_add = { log = "[GetDateText]: [Root.GetName]: add idea GER_idea_agenda2" }
			name = GER_idea_agenda
			picture = international_treaty
			allowed = {
				tag = GER
			}
			cancel = {
				NOT = {
					western_social_democrats_are_in_power = yes
				}
			}
			modifier = {
				social_cost_multiplier_modifier = -0.10
				health_cost_multiplier_modifier = -0.05
				production_speed_buildings_factor = 0.10
				production_speed_offices_factor = 0.15
				corporate_tax_income_multiplier_modifier = -0.05
			}
		}
		####
		GER_russian_buddies = {
			on_add = { log = "[GetDateText]: [Root.GetName]: add idea GER_russian_buddies" }
			picture = soviet_german_friendship
			allowed = {
				tag = GER
			}
			cancel = {
				NOT = {
					western_social_democrats_are_in_power = yes
				}
			}
			modifier = {
				custom_modifier_tooltip = GER_russian_buddies_income_tt
			}
		}
		#
		GER_idea_friends_with_east = {
			on_add = { log = "[GetDateText]: [Root.GetName]: add idea GER_idea_friends_with_east" }
			picture = blr_product_go_to_russia
			allowed = {
				tag = GER
			}
			cancel = {
				NOT = {
					western_social_democrats_are_in_power = yes
				}
			}
			modifier = {
				communism_acceptance = 30
				propaganda_campaign_cost_modifier = -0.20
				production_factory_max_efficiency_factor = 0.10
			}
		}
		# # # #
		GER_idea_health_reforms = {
			on_add = { log = "[GetDateText]: [Root.GetName]: add idea GER_idea_health_reforms" }
			picture = planning_bonus
			allowed = {
				tag = GER
			}
			modifier = {
				health_cost_multiplier_modifier = -0.08
				social_cost_multiplier_modifier = -0.05
			}
		}
		GER_idea_health_reforms2 = {
			on_add = { log = "[GetDateText]: [Root.GetName]: add idea GER_idea_health_reforms2" }
			name = GER_idea_health_reforms
			picture = planning_bonus
			allowed = {
				tag = GER
			}
			modifier = {
				health_cost_multiplier_modifier = -0.12
				social_cost_multiplier_modifier = -0.08
				stability_factor = 0.05
			}
		}
		GER_idea_deutsche_telekom = {
			on_add = { log = "[GetDateText]: [Root.GetName]: add idea GER_idea_deutsche_telekom" }
			picture = internet_icon
			allowed_civil_war = {
				always = yes
			}

			modifier = {
				production_speed_internet_station_factor = 0.15
				encryption_factor = 0.25
			}
		}
		GER_idea_duetch_reichsban = {
			on_add = { log = "[GetDateText]: [Root.GetName]: add idea GER_idea_duetch_reichsban" }
			picture = blr_old_railways
			allowed_civil_war = {
				always = yes
			}

			modifier = {
				production_speed_rail_way_factor = 0.20
				production_speed_supply_node_factor = 0.15
			}
		}
		### MONARCHIST/EMPIRE IDEA ###
		GER_idea_fuck_versailles = {
			on_add = { log = "[GetDateText]: [Root.GetName]: add idea GER_idea_fuck_versailles" }
			picture = politicised_army
			cancel = {
				NOT = {
					nationalist_monarchists_are_in_power = yes
				}
			}
			allowed = {
				original_tag = GER
			}
			allowed_civil_war = {
				always = yes
			}
			targeted_modifier = {
				tag = USA
				attack_bonus_against = 0.05
				defense_bonus_against = 0.10
				intel_network_gain_factor = 0.05
			}
			targeted_modifier = {
				tag = SOV
				attack_bonus_against = 0.05
				defense_bonus_against = 0.10
				intel_network_gain_factor = 0.05
			}
			targeted_modifier = {
				tag = ENG
				attack_bonus_against = 0.05
				defense_bonus_against = 0.10
				intel_network_gain_factor = 0.05
			}
			targeted_modifier = {
				tag = FRA
				attack_bonus_against = 0.05
				defense_bonus_against = 0.10
				intel_network_gain_factor = 0.05
			}
		}
		GER_idea_crusade_against_democracy = {
			on_add = { log = "[GetDateText]: [Root.GetName]: add idea GER_idea_crusade_against_democracy" }
			picture = nationalism
			cancel = {
				NOT = {
					nationalist_monarchists_are_in_power = yes
				}
			}
			modifier = {
				democratic_drift = -0.05
				nationalist_drift = 0.07
			}
		}
		GER_idea_extended_work_hours = {
			allowed = { always = no }
			allowed_civil_war = { always = yes }
			cancel = {
				NOT = {
					nationalist_monarchists_are_in_power = yes
				}
			}
			picture = arms_seizure
			on_add = {
				log = "[GetDateText]: [Root.GetName]: add idea GER_idea_extended_work_hours"
			}
			modifier = {
				resource_export_multiplier_modifier = 0.05
				mil_facs_worker_requirement_modifier = -0.10
				civ_facs_worker_requirement_modifier = -0.10
				production_factory_max_efficiency_factor = 0.10
				production_factory_efficiency_gain_factor = 0.10
			}
		}
		GER_idea_extended_work_hours2 = {
			allowed = { always = no }
			allowed_civil_war = { always = yes }
			cancel = {
				NOT = {
					nationalist_monarchists_are_in_power = yes
				}
			}
			picture = arms_seizure
			on_add = {
				log = "[GetDateText]: [Root.GetName]: add idea GER_idea_extended_work_hours2"
			}
			modifier = {
				resource_export_multiplier_modifier = 0.10
				mil_facs_worker_requirement_modifier = -0.10
				civ_facs_worker_requirement_modifier = -0.10
				production_factory_max_efficiency_factor = 0.17
				production_factory_efficiency_gain_factor = 0.17
				monthly_population = -0.03
			}
		}
		#CDU/CSU Ideas
		GER_idea_bmvi = {
			picture = worker_reforms
			on_add = {
				log = "[GetDateText]: [Root.GetName]: add idea GER_idea_bmvi"
			}
			cancel = {
				NOT = {
					western_conservatism_are_in_power = yes
				}
			}
			modifier = {
				production_speed_internet_station_factor = 0.05
				encryption_factor = 0.10
				research_speed_factor = 0.05
			}
		}
		GER_idea_bmvi2 = {
			picture = worker_reforms
			name = GER_idea_bmvi
			on_add = {
				log = "[GetDateText]: [Root.GetName]: add idea GER_idea_bmvi2"
			}
			cancel = {
				NOT = {
					western_conservatism_are_in_power = yes
				}
			}
			modifier = {
				production_speed_internet_station_factor = 0.15
				encryption_factor = 0.20
				research_speed_factor = 0.05
				civilian_intel_to_others = -20
			}
		}
		GER_idea_farming_practices = {
			picture = worker_reforms
			on_add = {
				log = "[GetDateText]: [Root.GetName]: add idea GER_idea_farming_practices"
			}
			cancel = {
				NOT = {
					western_conservatism_are_in_power = yes
				}
			}
			modifier = {
				consumer_goods_factor = 0.02
				monthly_population = 0.02
			}
			research_bonus = {
				CAT_genes = 0.10
			}
		}
		GER_idea_european_values = {
			on_add = { log = "[GetDateText]: [Root.GetName]: add idea GER_european_values" }
			allowed = { always = no }
			picture = EU_Roundel
			cancel = {
				NOT = {
					western_conservatism_are_in_power = yes
				}
			}
			modifier = {
				local_resources_factor = 0.20
				democratic_drift = 0.10
				stability_weekly = 0.001
				foreign_influence_defense_modifier = -0.20
				min_export = 0.10
			}
		}
		#FDP IDEAS
		GER_idea_stern_nato_commitment = {
			on_add = { log = "[GetDateText]: [Root.GetName]: add idea GER_idea_stern_nato_commitment" }
			allowed = { always = no }
			picture = idea_NATO_member
			cancel = {
				NOT = {
					western_liberals_are_in_power = yes
				}
			}
			modifier = {
				army_org_regain = 0.05
				terrain_penalty_reduction = 0.10
				experience_gain_army_factor = 0.10
				planning_speed = 0.10
			}
		}
		GER_idea_free_market_economy = {
			on_add = { log = "[GetDateText]: [Root.GetName]: add idea GER_idea_free_market_economy" }
			allowed = { always = no }
			picture = positive_gold
			cancel = {
				NOT = {
					western_liberals_are_in_power = yes
				}
			}
			modifier = {
				economic_cycles_cost_factor = -0.10
				return_on_investment_modifier = 0.02
				military_industry_tax_modifier = 0.05
			}
		}
		GER_idea_free_market_economy2 = {
			on_add = { log = "[GetDateText]: [Root.GetName]: add idea GER_idea_free_market_economy2" }
			name = GER_idea_free_market_economy
			allowed = { always = no }
			picture = positive_gold
			cancel = {
				NOT = {
					western_liberals_are_in_power = yes
				}
			}
			modifier = {
				economic_cycles_cost_factor = -0.10
				return_on_investment_modifier = 0.03
				military_industry_tax_modifier = 0.10
				production_lack_of_resource_penalty_factor = -0.05
			}
		}
		GER_idea_cybersecurity = {
			on_add = { log = "[GetDateText]: [Root.GetName]: add idea GER_idea_cybersecurity" }
			allowed = { always = no }
			picture = spy_intel
			cancel = {
				NOT = {
					western_liberals_are_in_power = yes
				}
			}
			modifier = {
				operative_slot = 1
				drift_defence_factor = 0.05
			}
		}
		GER_idea_cybersecurity2 = {
			on_add = { log = "[GetDateText]: [Root.GetName]: add idea GER_idea_cybersecurity2" }
			name = GER_idea_cybersecurity
			allowed = { always = no }
			picture = spy_intel
			cancel = {
				NOT = {
					western_liberals_are_in_power = yes
				}
			}
			modifier = {
				operative_slot = 1
				army_intel_factor = 0.10
				navy_intel_factor = 0.10
				airforce_intel_factor = 0.10
				drift_defence_factor = 0.05
			}
		}
		#GREEN IDEAS
		GER_idea_sustainable_development = {
			on_add = { log = "[GetDateText]: [Root.GetName]: add idea GER_idea_sustainable_development" }
			allowed = { always = no }
			picture = sustainable_development
			cancel = {
				NOT = {
					neutrality_neutral_green_are_in_power = yes
				}
			}
			modifier = {
				production_speed_supply_node_factor = 0.05
				battery_park_construction_cost = -0.10
			}
		}
		GER_idea_sustainable_development2 = {
			on_add = { log = "[GetDateText]: [Root.GetName]: add idea GER_idea_sustainable_development2" }
			name = GER_idea_sustainable_development
			allowed = { always = no }
			picture = sustainable_development
			cancel = {
				NOT = {
					neutrality_neutral_green_are_in_power = yes
				}
			}
			modifier = {
				production_speed_supply_node_factor = 0.15
				battery_park_construction_cost = -0.10
			}
		}
		GER_idea_sustainable_development3 = {
			on_add = { log = "[GetDateText]: [Root.GetName]: add idea GER_idea_sustainable_development3" }
			name = GER_idea_sustainable_development
			allowed = { always = no }
			picture = sustainable_development
			cancel = {
				NOT = {
					neutrality_neutral_green_are_in_power = yes
				}
			}
			modifier = {
				production_speed_supply_node_factor = 0.15
				battery_park_construction_cost = -0.15
				energy_use_multiplier = -0.15
			}
		}
		GER_idea_greater_regulations = {
			on_add = { log = "[GetDateText]: [Root.GetName]: add idea GER_idea_greater_regulations" }
			allowed = { always = no }
			picture = political_censorship
			cancel = {
				NOT = {
					neutrality_neutral_green_are_in_power = yes
				}
			}
			modifier = {
				global_building_slots_factor = 0.10
				industrial_capacity_factory = -0.05
			}
		}
		GER_idea_greater_regulations2 = {
			on_add = { log = "[GetDateText]: [Root.GetName]: add idea GER_idea_greater_regulations2" }
			name = GER_idea_greater_regulations
			allowed = { always = no }
			picture = political_censorship
			cancel = {
				NOT = {
					neutrality_neutral_green_are_in_power = yes
				}
			}
			modifier = {
				global_building_slots_factor = 0.15
				industrial_capacity_factory = -0.05
				industry_repair_factor = 0.10
			}
		}
		GER_idea_greater_regulations3 = {
			on_add = { log = "[GetDateText]: [Root.GetName]: add idea GER_idea_greater_regulations3" }
			name = GER_idea_greater_regulations
			allowed = { always = no }
			picture = political_censorship
			cancel = {
				NOT = {
					neutrality_neutral_green_are_in_power = yes
				}
			}
			modifier = {
				production_factory_max_efficiency_factor = 0.05
				production_speed_buildings_factor = 0.03
			}
		}
		# AfD
		GER_idea_vaterland = {
			on_add = { log = "[GetDateText]: [Root.GetName]: add idea GER_idea_vaterland" }
			cancel = {
				NOT = {
					nationalist_right_wing_populists_are_in_power = yes
				}
			}
			allowed_civil_war = {
				always = yes
			}
			picture = roit_police_idea
			modifier = {
				land_reinforce_rate = 0.05
				army_core_defence_factor = 0.10
				dig_in_speed_factor = 0.15
			}
		}
		GER_idea_volk = {
			on_add = { log = "[GetDateText]: [Root.GetName]: add idea GER_idea_volk" }
			cancel = {
				NOT = {
					nationalist_right_wing_populists_are_in_power = yes
				}
			}
			allowed = { always = no }
			allowed_civil_war = { always = yes }
			picture = great_depression
			modifier = {
				civilian_factories_productivity = 0.1
				military_factories_productivity = 0.1
				dockyard_productivity = 0.1
				offices_productivity = 0.1
			}
		}
		GER_idea_german_heritage = {
			on_add = { log = "[GetDateText]: [Root.GetName]: add idea GER_idea_german_heritage" }
			cancel = {
				NOT = {
					nationalist_right_wing_populists_are_in_power = yes
				}
			}
			allowed = { always = no }
			allowed_civil_war = { always = yes }
			picture = german_party_neutrality
			modifier = {
				nationalist_drift = 0.03
				democratic_drift = -0.05
				conscription = 0.005
			}
		}
		GER_idea_german_heritage2 = {
			on_add = { log = "[GetDateText]: [Root.GetName]: add idea GER_idea_german_heritage2" }
			cancel = {
				NOT = {
					nationalist_right_wing_populists_are_in_power = yes
				}
			}
			allowed = { always = no }
			allowed_civil_war = { always = yes }
			picture = german_party_neutrality
			modifier = {
				nationalist_drift = 0.05
				democratic_drift = -0.07
				conscription = 0.005
				party_popularity_stability_factor = 0.05
			}
		}
		GER_idea_anti_lgbt = {
			on_add = { log = "[GetDateText]: [Root.GetName]: add idea GER_idea_anti_lgbt" }
			allowed = { always = no }
			picture = anti_lgbt
			cancel = {
				NOT = {
					nationalist_right_wing_populists_are_in_power = yes
				}
			}
			modifier = {
				MONTHLY_POPULATION = 0.03
				democratic_drift = -0.05
				stability_factor = -0.03
			}
		}
		GER_idea_anti_lgbt2 = {
			on_add = { log = "[GetDateText]: [Root.GetName]: add idea GER_idea_anti_lgbt2" }
			name = GER_idea_anti_lgbt
			allowed = { always = no }
			picture = anti_lgbt
			cancel = {
				NOT = {
					nationalist_right_wing_populists_are_in_power = yes
				}
			}
			modifier = {
				MONTHLY_POPULATION = 0.05
				democratic_drift = -0.07
				stability_factor = -0.05
				party_popularity_stability_factor = 0.05
			}
		}
		# Die Linke
		GER_idea_pacifist_nation = {
			on_add = { log = "[GetDateText]: [Root.GetName]: add idea GER_idea_pacifist_nation" }
			allowed = { always = no }
			picture = conservatism
			cancel = {
				NOT = {
					emerging_anarchist_communism_are_in_power = yes
				}
			}
			modifier = {
				army_personnel_cost_multiplier_modifier = -0.15
				airforce_personnel_cost_multiplier_modifier = -0.15
				navy_personnel_cost_multiplier_modifier = -0.15
			}
		}
		##
		GER_idea_hotels = {
			on_add = { log = "[GetDateText]: [Root.GetName]: add idea GER_idea_hotels" }
			picture = construction
			allowed = {
				original_tag = GER
			}
			allowed_civil_war = {
				always = yes
			}
			modifier = {
				office_park_income_tax_modifier = 0.10
			}
		}

		#NPD Ideas
		GER_idea_german_order = {
			on_add = { log = "[GetDateText]: [Root.GetName]: add idea GER_idea_german_order" }
			picture = fascism2
			allowed = {
				original_tag = GER
			}
			allowed_civil_war = {
				always = yes
			}
			cancel = {
				NOT = {
					nationalist_fascist_are_in_power = yes
				}
			}
			modifier = {
				send_volunteer_size = 3
				civil_war_involvement_tension = -0.10
				lend_lease_tension = -0.20
			}
		}
		GER_idea_german_order2 = {
			on_add = { log = "[GetDateText]: [Root.GetName]: add idea GER_idea_german_order2" }
			name = GER_idea_german_order
			picture = fascism2
			allowed = {
				original_tag = GER
			}
			allowed_civil_war = {
				always = yes
			}
			cancel = {
				NOT = {
					nationalist_fascist_are_in_power = yes
				}
			}
			modifier = {
				send_volunteer_size = 4
				civil_war_involvement_tension = -0.10
				lend_lease_tension = -0.20
				special_forces_training_time_factor = -0.15
				special_forces_attack_factor = 0.05
				special_forces_defence_factor = 0.10
			}
		}
		#
		GER_idea_german_order3 = {
			on_add = { log = "[GetDateText]: [Root.GetName]: add idea GER_idea_german_order3" }
			picture = fascism2
			allowed = {
				original_tag = GER
			}
			allowed_civil_war = {
				always = yes
			}
			cancel = {
				NOT = {
					nationalist_fascist_are_in_power = yes
				}
			}
			modifier = {
				send_volunteer_size = 4
				civil_war_involvement_tension = -0.10
				lend_lease_tension = -0.20
				special_forces_training_time_factor = -0.15
				special_forces_attack_factor = 0.05
				special_forces_defence_factor = 0.10
				production_speed_nuclear_reactor_factor = 0.15
			}
		}
		#
		GER_idea_pride_in_history = {
			on_add = { log = "[GetDateText]: [Root.GetName]: add idea GER_idea_pride_in_history" }
			picture = fascism5
			allowed = {
				original_tag = GER
			}
			allowed_civil_war = {
				always = yes
			}
			cancel = {
				NOT = {
					nationalist_fascist_are_in_power = yes
				}
			}
			modifier = {
				conscription_factor = 0.075
				nationalist_outlook_campaign_cost_modifier = -0.15
			}
		}
		#
		GER_idea_against_migrants = {
			on_add = { log = "[GetDateText]: [Root.GetName]: add idea GER_idea_against_migrants" }
			allowed = { always = no }
			cancel = {
				NOT = {
					nationalist_fascist_are_in_power = yes
				}
			}
			picture = fascism
			name = GER_against_migrant
			modifier = {
				monthly_population = -0.05
				drift_defence_factor = 0.10
				foreign_influence_defense_modifier = 0.10
			}
		}
		GER_idea_against_migrants2 = {
			on_add = { log = "[GetDateText]: [Root.GetName]: add idea GER_idea_against_migrants2" }
			allowed = { always = no }
			cancel = {
				NOT = {
					nationalist_fascist_are_in_power = yes
				}
			}
			picture = fascism
			name = GER_against_migrant
			modifier = {
				monthly_population = -0.10
				drift_defence_factor = 0.10
				foreign_influence_defense_modifier = 0.10
				nationalist_drift = 0.1
			}
		}
		#
		GER_idea_war_machine = {
			on_add = { log = "[GetDateText]: [Root.GetName]: add idea GER_idea_war_machine" }
			name = GER_war_machine
			allowed = { always = no }
			picture = fascism

			modifier = {
				resistance_growth = -0.10
				surrender_limit = 0.05
			}
		}
		#
		GER_idea_war_machine2 = {
			on_add = { log = "[GetDateText]: [Root.GetName]: add idea GER_idea_war_machine2" }
			allowed = { always = no }
			picture = fascism
			name = GER_war_machine
			modifier = {
				resistance_growth = -0.15
				surrender_limit = 0.10
				justify_war_goal_time = -0.10
				generate_wargoal_tension = -0.10
			}
		}
		#
		GER_idea_war_machine3 = {
			on_add = { log = "[GetDateText]: [Root.GetName]: add idea GER_idea_war_machine3" }
			allowed = { always = no }
			picture = fascism
			name = GER_war_machine
			modifier = {
				resistance_growth = -0.15
				surrender_limit = 0.15
				justify_war_goal_time = -0.10
				generate_wargoal_tension = -0.10
				non_core_manpower = 0.05
			}
		}
		#
		GER_idea_retention_law_comm = {
			picture = worker_reforms
			on_add = {
				log = "[GetDateText]: [Root.GetName]: add idea GER_idea_retention_law_comm"
			}
			modifier = {
				civilian_intel_to_others = -10
			}
		}
		GER_idea_crackheads = {
			picture = opium
			on_add = {
				log = "[GetDateText]: [Root.GetName]: add idea GER_idea_crackheads"
			}
			cancel = { has_idea = health_06 }
			modifier = {
				stability_factor = -0.02
				political_power_factor = -0.02
			}
		}
		GER_idea_kebab_withdrawl = {
			picture = worker_reforms
			on_add = {
				log = "[GetDateText]: [Root.GetName]: add idea GER_idea_kebab_withdrawl"
			}
			modifier = {
				custom_modifier_tooltip = GER_kebab_modifier_TT
			}
		}
		#####
		GER_idea_afghan_bonus_1 = {

			allowed_civil_war = {
				always = yes
			}
			cancel = {
				NOT = {
					has_country_flag = GER_war_on_terror_started
				}
			}
			picture = national_defenders
			on_add = { log = "[GetDateText]: [Root.GetName]: add idea GER_idea_afghan_bonus_1" }
			modifier = {
				air_training_xp_gain_factor = 0.05
				ground_attack_factor = 0.05
				training_time_factor = -0.10
				army_leader_cost_factor = -0.05
				experience_gain_army_unit_factor = 0.05
				planning_speed = 0.05
				dig_in_speed_factor = 0.03
			}
		}
		GER_idea_afghan_bonus_2 = {

			allowed_civil_war = {
				always = yes
			}
			cancel = {
				NOT = {
					has_country_flag = GER_war_on_terror_started
				}
			}
			picture = national_defenders
			on_add = { log = "[GetDateText]: [Root.GetName]: add idea GER_idea_afghan_bonus_2" }
			modifier = {
				air_accidents_factor = -0.05
				air_escort_efficiency = 0.05
				air_training_xp_gain_factor = 0.10
				ground_attack_factor = 0.10
				army_bonus_air_superiority_factor = 0.10
				air_superiority_efficiency = 0.05
				air_superiority_bonus_in_combat = 0.05
				training_time_factor = -0.10
				army_leader_cost_factor = -0.15
				experience_gain_army_unit_factor = 0.10
				planning_speed = 0.10
				dig_in_speed_factor = 0.05
				recon_factor = 0.05
			}
		}
		GER_idea_afghan_bonus_3 = {

			allowed_civil_war = {
				always = yes
			}
			on_add = { log = "[GetDateText]: [Root.GetName]: add idea GER_idea_afghan_bonus_3" }
			picture = national_defenders
			cancel = {
				NOT = {
					has_country_flag = GER_war_on_terror_started
				}
			}
			modifier = {
				air_accidents_factor = -0.05
				air_escort_efficiency = 0.05
				air_training_xp_gain_factor = 0.10
				ground_attack_factor = 0.12
				army_bonus_air_superiority_factor = 0.10
				air_superiority_efficiency = 0.10
				air_superiority_bonus_in_combat = 0.10
				training_time_factor = -0.10
				army_leader_cost_factor = -0.15
				experience_gain_army_unit_factor = 0.10
				planning_speed = 0.10
				dig_in_speed_factor = 0.05
				recon_factor = 0.05
				breakthrough_factor = 0.03
				org_loss_at_low_org_factor = 0.05
				org_loss_when_moving = -0.03
				opinion_gain_monthly_factor = 0.10
			}
		}
		#
		GER_idea_afghan_bonus_4 = {

			allowed_civil_war = {
				always = yes
			}
			on_add = { log = "[GetDateText]: [Root.GetName]: add idea GER_idea_afghan_bonus_4" }
			picture = national_defenders
			modifier = {
				air_accidents_factor = -0.05
				air_escort_efficiency = 0.05
				air_training_xp_gain_factor = 0.10
				ground_attack_factor = 0.12
				army_bonus_air_superiority_factor = 0.10
				air_superiority_efficiency = 0.10
				air_superiority_bonus_in_combat = 0.10
				training_time_factor = -0.10
				army_leader_cost_factor = -0.15
				experience_gain_army_unit_factor = 0.10
				planning_speed = 0.10
				dig_in_speed_factor = 0.05
				recon_factor = 0.05
				breakthrough_factor = 0.03
				org_loss_at_low_org_factor = 0.05
				org_loss_when_moving = -0.03
				opinion_gain_monthly_factor = 0.10
			}
		}

		GER_italian_advisors = {
			allowed_civil_war = {
				always = yes
			}
			picture = coastal_defense_ships
			name = GER_italian_advisors
			on_add = { log = "[GetDateText]: [Root.GetName]: add idea GER_italian_advisors" }
			modifier = {
				navy_max_range_factor = 0.10
				navy_leader_cost_factor = -0.15
				experience_gain_navy_unit_factor = 0.10
			}
		}

		#######################
	}
	hidden_ideas = {
		GER_idea_bfv_islamist_high = {
			picture = salafist_outlook
			cancel = { has_country_flag = GER_BFV_GONE }
			on_add = {
				log = "[GetDateText]: [Root.GetName]: add idea GER_idea_bfv_islamist_high"
			}
			modifier = {
				corporate_tax_income_multiplier_modifier = -0.05
				fascism_acceptance = -50
				fascism_drift = -0.05
				democratic_drift = 0.02
			}
		}
		GER_idea_bfv_islamist_med = {
			picture = salafist_outlook
			cancel = { has_country_flag = GER_BFV_GONE }
			on_add = {
				log = "[GetDateText]: [Root.GetName]: add idea GER_idea_bfv_islamist_med"
			}
			modifier = {
				corporate_tax_income_multiplier_modifier = -0.03
				fascism_acceptance = -25
				fascism_drift = -0.03
				democratic_drift = 0.01
			}
		}
		GER_idea_bfv_islamist_low = {
			picture = salafist_outlook
			cancel = { has_country_flag = GER_BFV_GONE }
			on_add = {
				log = "[GetDateText]: [Root.GetName]: add idea GER_idea_bfv_islamist_low"
			}
			modifier = {
				corporate_tax_income_multiplier_modifier = -0.01
				fascism_acceptance = -10
				fascism_drift = -0.01
			}
		}
		#
		GER_idea_bfv_rightwing_high = {
			picture = fascism8
			cancel = { has_country_flag = GER_BFV_GONE }
			on_add = {
				log = "[GetDateText]: [Root.GetName]: add idea GER_idea_bfv_rightwing_high"
			}
			modifier = {
				corporate_tax_income_multiplier_modifier = -0.05
				nationalist_acceptance = -50
				nationalist_drift = -0.05
				democratic_drift = 0.02
			}
		}
		GER_idea_bfv_rightwing_med = {
			picture = fascism8
			cancel = { has_country_flag = GER_BFV_GONE }
			on_add = {
				log = "[GetDateText]: [Root.GetName]: add idea GER_idea_bfv_rightwing_med"
			}
			modifier = {
				corporate_tax_income_multiplier_modifier = -0.03
				nationalist_acceptance = -25
				nationalist_drift = -0.03
				democratic_drift = 0.01
			}
		}
		GER_idea_bfv_rightwing_low = {
			picture = fascism8
			cancel = { has_country_flag = GER_BFV_GONE }
			on_add = {
				log = "[GetDateText]: [Root.GetName]: add idea GER_idea_bfv_rightwing_low"
			}
			modifier = {
				corporate_tax_income_multiplier_modifier = -0.01
				nationalist_acceptance = -10
				nationalist_drift = -0.01
			}
		}
		#
		GER_idea_bfv_leftwing_high = {
			picture = communism
			cancel = { has_country_flag = GER_BFV_GONE }
			on_add = {
				log = "[GetDateText]: [Root.GetName]: add idea GER_idea_bfv_leftwing_high"
			}
			modifier = {
				corporate_tax_income_multiplier_modifier = -0.05
				communism_acceptance = -50
				communism_drift = -0.05
				democratic_drift = 0.02
			}
		}
		GER_idea_bfv_leftwing_med = {
			picture = communism
			cancel = { has_country_flag = GER_BFV_GONE }
			on_add = {
				log = "[GetDateText]: [Root.GetName]: add idea GER_idea_bfv_leftwing_med"
			}
			modifier = {
				corporate_tax_income_multiplier_modifier = -0.03
				communism_acceptance = -25
				communism_drift = -0.03
				democratic_drift = 0.01
			}
		}
		GER_idea_bfv_leftwing_low = {
			picture = communism
			cancel = { has_country_flag = GER_BFV_GONE }
			on_add = {
				log = "[GetDateText]: [Root.GetName]: add idea GER_idea_bfv_leftwing_low"
			}
			modifier = {
				corporate_tax_income_multiplier_modifier = -0.01
				communism_acceptance = -10
				communism_drift = -0.01
			}
		}
		GER_idea_reform_international_institutions = {
			on_add = { log = "[GetDateText]: [Root.GetName]: add idea reform_international_institutions_idea" }
			picture = pp_unity_bonus
			allowed = { always = no }
			allowed_civil_war = { has_government = democratic }
			removal_cost = -1
			modifier = {
				political_power_factor = 0.10
				research_speed_factor = 0.05
			}
		}
		GER_Ideas_Reformed_German_International_Institutes = {
			on_add = { log = "[GetDateText]: [Root.GetName]: add GER_Ideas_Reformed_German_International_Institutes" }
			picture = pp_unity_bonus
			allowed = { always = no }
			allowed_civil_war = { has_government = democratic }
			removal_cost = -1
			modifier = {
				political_power_factor = 0.05
				research_speed_factor = 0.05
				stability_factor = 0.02
			}
		}
		Ger_Idea_Miltary_Training = {
			on_add = { log = "[GetDateText]: [Root.GetName]: add idea Ger_Idea_Miltary_Training" }
			picture = gentleman_officers
			allowed = {
				original_tag = GER
			}
				modifier = {
					max_planning = 0.01
					army_speed_factor = 0.01
					experience_gain_army = 0.05
					army_org_Factor = 0.02
					army_core_defence_factor = 0.05
				}
			}
		GER_idea_Rhine_Road = {
			on_add = { log = "[GetDateText]: [Root.GetName]: add idea GER_idea_Rhine_Road" }
			picture = pp_unity_bonus
			allowed = { always = no }
			allowed_civil_war = { has_government = democratic }
			removal_cost = -1
			modifier = {
				stability_factor = 0.05
				trade_opinion_factor = 0.10
				political_power_gain = 0.05
				consumer_goods_factor = 0.02
			}
		}
		GER_idea_Petersburger_Dialog = {
			on_add = { log = "[GetDateText]: [Root.GetName]: add idea reform_international_institutions_idea" }
			picture = pp_unity_bonus
			allowed = { always = no }
			allowed_civil_war = { has_government = democratic }
			removal_cost = -1
			modifier = {
				stability_factor = 0.05
				trade_opinion_factor = 0.10
				production_speed_buildings_factor = 0.10
			}
		}
		GER_idea_befriend_Poland = {
			on_add = { log = "[GetDateText]: [Root.GetName]: add idea reform_international_institutions_idea" }
			picture = pp_unity_bonus
			allowed = { always = no }
			allowed_civil_war = { has_government = democratic }
			removal_cost = -1
			modifier = {
				trade_opinion_factor = 0.1
				improve_relations_maintain_cost_factor = -0.15
				opinion_gain_monthly_factor = 0.05
			}
		}

	}
}