ideas = {

	country = {

		KOR_human_rights_first = {
			picture = collective_soceity
			cancel = {
			}
			modifier = {
				stability_factor = 0.05
				army_attack_factor = 0.05
			}
		}

		KOR_sovereignty_first = {
			picture = defense
			cancel = {
			}
			modifier = {
				political_power_factor = 0.10
				army_core_defence_factor = 0.05
			}
		}

		KOR_idea_korea_resplendent = {
			picture = defense
			cancel = {
			}
			modifier = {
				stability_weekly = 0.01
				political_power_factor = 0.05
				conscription_factor = 0.05
				army_core_attack_factor = 0.1
				army_core_defence_factor = 0.1
			}
		}

		idea_KOR_neutrality = {
			picture = neutrality
			cancel = {
				OR = {
					is_in_faction = yes
					has_war = yes
				}
			}
			modifier = {
				political_power_factor = 0.10
				guarantee_tension = 1.0
				communism_acceptance = -50
				democratic_acceptance = -50
				hidden_modifier = {
					ai_badass_factor = 0.01	# Will receive 1% of the threat from others
					ai_get_ally_desire_factor = -100
					ai_join_ally_desire_factor = -100
				}
			}
		}

		idea_KOR_neutrality_2 = {
			picture = neutrality
			cancel = {
				OR = {
					is_in_faction = yes
					has_war = yes
				}
			}
			modifier = {
				political_power_factor = 0.10
				guarantee_cost = 0.3
				send_volunteer_size = 6
				hidden_modifier = {
					ai_badass_factor = 0.01	# Will receive 1% of the threat from others
					ai_get_ally_desire_factor = -100
					ai_join_ally_desire_factor = -100
				}
			}
		}

		idea_KOR_neutrality_3 = {
			picture = army_of_aggression
			cancel = {
				OR = {
					is_in_faction = yes
					has_war = yes
				}
			}
			modifier = {
				stability_weekly = 0.02
				war_support_weekly = 0.02
				conscription_factor = 0.05
				justify_war_goal_time = -0.10
				conversion_cost_civ_to_mil_factor = -0.2
			}
		}

		KOR_joint_us_exercises = {

			picture = USA_gun_funding

			allowed_civil_war = {
				NOT = { has_government = communism }
			}


			modifier = {
				training_time_army_factor = -0.2
				planning_speed = 0.1
				max_planning = 0.25
				experience_gain_army = 0.05
				experience_gain_navy = 0.05
				experience_gain_air = 0.05
				consumer_goods_factor = 0.05
			}

		}

		KOR_joint_us_exercises1 = {

			picture = USA_gun_funding

			name = KOR_joint_us_exercises

			allowed_civil_war = {
				NOT = { has_government = communism }
			}


			modifier = {
				training_time_army_factor = -0.25
				planning_speed = 0.15
				max_planning = 0.3
				experience_gain_army = 0.1
				experience_gain_navy = 0.1
				experience_gain_air = 0.1
				consumer_goods_factor = 0.05
			}

		}

		KOR_joint_us_exercises2 = {

			picture = USA_gun_funding

			name = KOR_joint_us_exercises

			allowed_civil_war = {
				NOT = { has_government = communism }
			}


			modifier = {
				training_time_army_factor = -0.1
				planning_speed = 0.05
				max_planning = 0.2
				experience_gain_army = 0.01
				experience_gain_navy = 0.01
				experience_gain_air = 0.01
				consumer_goods_factor = 0.05
			}

		}

		f16_upgrades = {
			picture = air_bonus

			modifier = {
				air_superiority_efficiency = 0.1
			}
		}

		KOR_smart_navy = {
			picture = ocean_navy

			allowed_civil_war = {
				NOT = { has_government = communism }
			}

			modifier = {
				spotting_chance = 0.2
				naval_coordination = 0.2
				naval_speed_factor = 0.2
			}
		}

		KOR_idea_women_in_the_special_forces = {
			picture = strategic_services

			allowed_civil_war = {
				NOT = { has_government = communism }
			}

			modifier = {
				special_forces_cap = 0.1
			}
		}

		KOR_SOF_focus = {
			picture = piracy

			allowed_civil_war = {
				NOT = { has_government = communism }
			}

			modifier = {
				special_forces_attack_factor = 0.15
				special_forces_defence_factor = 0.15
			}
		}

		KOR_smart_army = {
			picture = manpower_bonus

			allowed_civil_war = {
				NOT = { has_government = communism }
			}

			cancel = {
				num_divisions > 45
			}

			modifier = {
				army_org_factor = 0.15
				land_reinforce_rate = 0.03
				army_speed_factor = 0.15
				dig_in_speed_factor = 0.15
			}
		}

		KOR_conscientious_objectors = {
			picture = chi_forced_conscription

			allowed_civil_war = {
				NOT = { has_government = communism }
			}

			cancel = {
				OR = {
					has_idea = no_military
					has_idea = volunteer_army
				}
				NOT = { has_idea = drafted_women }
			}

			modifier = {
				conscription = -0.005
				political_power_gain = -0.25
			}
		}

		KOR_conscientious_objectors1 = {
			picture = market_liberalism

			name = KOR_conscientious_objectors

			allowed_civil_war = {
				NOT = { has_government = communism }
			}

			cancel = {
				OR = {
					has_idea = no_military
					has_idea = volunteer_army
				}
				NOT = { has_idea = drafted_women }
			}

			modifier = {
				conscription = -0.01
				political_power_gain = -0.05
			}
		}

		KOR_conscientious_objectors2 = {
			picture = market_liberalism

			name = KOR_conscientious_objectors

			allowed_civil_war = {
				NOT = { has_government = communism }
			}

			cancel = {
				OR = {
					has_idea = no_military
					has_idea = volunteer_army
				}
				NOT = { has_idea = drafted_women }
			}

			modifier = {
				conscription = -0.004
				political_power_gain = -0.25
			}
		}

		KOR_conscientious_objectors3 = {
			picture = market_liberalism

			name = KOR_conscientious_objectors

			allowed_civil_war = {
				NOT = { has_government = communism }
			}

			cancel = {
				OR = {
					has_idea = no_military
					has_idea = volunteer_army
				}
				NOT = { has_idea = drafted_women }
			}


			modifier = {
				conscription = -0.008
			}
		}

		KOR_naturalized_citizens_serve = {
			picture = reserve_divisions

			allowed_civil_war = {
				NOT = { has_government = communism }
			}

			cancel = {
				OR = {
					has_idea = no_military
					has_idea = volunteer_army
				}
				NOT = { has_idea = drafted_women }
			}

			modifier = {
				conscription = 0.005
				MONTHLY_POPULATION = -0.1
			}
		}

		KOR_improved_labor_protections = {
			allowed_civil_war = {
				always = yes
			}

			picture = production_bonus

			modifier = {
				political_power_factor = 0.05
				trade_opinion_factor = -0.05
				production_speed_buildings_factor = -0.05
			}
		}

		KOR_improved_labor_protections2 = {
			allowed_civil_war = {
				always = yes
			}

			picture = production_bonus

			name = KOR_improved_labor_protections

			modifier = {
				political_power_factor = 0.1
				trade_opinion_factor = -0.1
				production_speed_buildings_factor = -0.1
			}
		}

		KOR_reduced_labor_protections = {
			allowed_civil_war = {
				always = yes
			}

			picture = subvert_commie_control

			modifier = {
				political_power_factor = -0.05
				trade_opinion_factor = 0.05
				production_speed_buildings_factor = 0.05
			}
		}

		KOR_reduced_labor_protections2 = {
			allowed_civil_war = {
				always = yes
			}

			picture = subvert_commie_control

			name = KOR_reduced_labor_protections

			modifier = {
				political_power_factor = -0.1
				trade_opinion_factor = 0.1
				production_speed_buildings_factor = 0.1
			}
		}

		KOR_fair_economy = {
			allowed_civil_war = {
				always = yes
			}

			picture = neutrality

			modifier = {
				stability_factor = 0.1
				consumer_goods_factor = 0.05
				economic_cycles_cost_factor = 0.1
			}
		}

		KOR_liberated_economy = {
			allowed_civil_war = {
				always = yes
			}

			picture = destroy_capitalism

			modifier = {
				political_power_factor = 0.25
				consumer_goods_factor = 0.1
				economic_cycles_cost_factor = 0.25
			}
		}

		NKO_kaesong_industrial_park = {

			picture = industrial_concern

			modifier = {
				consumer_goods_factor = -0.05
				stability_factor = 0.05
			}
		}

		KOR_kaesong_industrial_park = {

			picture = industrial_concern

			modifier = {
				economic_cycles_cost_factor = -0.1
				political_power_factor = 0.05
			}
		}

		KOR_national_security_law = {

			picture = international_treaty2

			allowed_civil_war = {
				NOT = { has_government = communism }
			}

			cancel = {
				has_government = communism
			}

			modifier = {
				political_power_factor = -0.15
				war_support_factor = 0.05
				democratic_drift = 0.05
				communism_drift = -0.03
				drift_defence_factor = 0.25
			}
		}

		KOR_national_assembly_deadlocked = {

			picture = political_censorship

			cancel = {
				has_elections = no
			}

			allowed_civil_war = {
				NOT = { has_government = communism }
			}

			modifier = {
				political_power_factor = -0.05
			}
		}

		KOR_national_assembly_conservative = {

			picture = political_freedom

			cancel = {
				has_elections = no
			}

			allowed_civil_war = {
				NOT = { has_government = communism }
			}

			modifier = {
				political_power_factor = 0.01
			}
		}

		KOR_national_assembly_liberal = {

			picture = political_freedom

			cancel = {
				has_elections = no
			}

			allowed_civil_war = {
				NOT = { has_government = communism }
			}

			modifier = {
				political_power_factor = 0.01
			}
		}

		KOR_politicized_spy_agency = {
			picture = spy_coup

			cancel = {
				NOT = { has_idea = intelligence_community }
			}

			allowed_civil_war = {
				NOT = { has_government = communism }
			}

			modifier = {
				political_power_factor = -0.1
				decryption_factor = -0.1
				encryption_factor = 0.15
				internal_factions_cost_factor = 5
			}
		}

		KOR_politicized_spy_agency1 = {
			picture = spy_coup

			cancel = {
				NOT = { has_idea = intelligence_community }
			}

			name = KOR_politicized_spy_agency

			allowed_civil_war = {
				NOT = { has_government = communism }
			}

			modifier = {
				political_power_factor = -0.08
				decryption_factor = -0.08
				encryption_factor = 0.1
				internal_factions_cost_factor = 5
			}
		}

		KOR_politicized_spy_agency2 = {
			picture = spy_coup

			cancel = {
				NOT = { has_idea = intelligence_community }
			}

			name = KOR_politicized_spy_agency

			allowed_civil_war = {
				NOT = { has_government = communism }
			}

			modifier = {
				political_power_factor = -0.05
				decryption_factor = -0.05
				encryption_factor = 0.08
				internal_factions_cost_factor = 5
			}
		}

		KOR_politicized_spy_agency3 = {
			picture = spy_coup

			cancel = {
				NOT = { has_idea = intelligence_community }
			}

			name = KOR_politicized_spy_agency

			allowed_civil_war = {
				NOT = { has_government = communism }
			}

			modifier = {
				political_power_factor = -0.02
				decryption_factor = -0.02
				encryption_factor = 0.05
				internal_factions_cost_factor = 5
			}
		}

		KOR_politicized_spy_agency4 = {
			picture = spy_coup

			cancel = {
				NOT = { has_idea = intelligence_community }
			}

			name = KOR_politicized_spy_agency

			allowed_civil_war = {
				NOT = { has_government = communism }
			}

			modifier = {
				political_power_factor = -0.13
				decryption_factor = -0.13
				encryption_factor = 0.2
				internal_factions_cost_factor = 5
			}
		}

		KOR_politicized_spy_agency5 = {
			picture = spy_coup

			cancel = {
				NOT = { has_idea = intelligence_community }
			}

			name = KOR_politicized_spy_agency

			allowed_civil_war = {
				NOT = { has_government = communism }
			}

			modifier = {
				political_power_factor = -0.16
				decryption_factor = -0.16
				encryption_factor = 0.25
				internal_factions_cost_factor = 5
			}
		}

		KOR_de_facto_two_party_system = {
			picture = high_society

			allowed_civil_war = {
				NOT = { has_government = communism }
			}

			cancel = {
				has_elections = no
			}

			modifier = {
				stability_factor = 0.05
				political_power_factor = -0.1
				democratic_drift = 0.02
			}
		}

		KOR_two_party_system = {
			picture = high_society

			allowed_civil_war = {
				NOT = { has_government = communism }
			}

			cancel = {
				has_elections = no
			}

			modifier = {
				stability_factor = 0.1
				political_power_factor = -0.2
				democratic_drift = 0.05
			}
		}

		KOR_multi_party_system = {
			picture = national_unity

			allowed_civil_war = {
				NOT = { has_government = communism }
			}

			cancel = {
				has_elections = no
			}

			modifier = {
				stability_factor = -0.05
				political_power_factor = 0.1
				neutrality_drift = 0.05
				communism_drift = 0.02
				nationalist_drift = 0.02
			}
		}

		KOR_inclusive_korea = {
			picture = multi_ethnic_state_idea

			modifier = {
				stability_factor = 0.05
				political_power_factor = -0.05
				neutrality_drift = 0.01
			}
		}

		KOR_inclusive_korea1 = {
			picture = multi_ethnic_state_idea

			name = KOR_inclusive_korea

			modifier = {
				stability_factor = 0.1
				political_power_factor = -0.1
				neutrality_drift = 0.02
				MONTHLY_POPULATION = 0.1
			}
		}

		KOR_entrepreneurs_supported = {
			picture = economic_increase

			modifier = {
				research_speed_factor = 0.05
				production_speed_buildings_factor = 0.1
			}
		}

		KOR_business_first = {
			picture = foreign_capital

			modifier = {
				stability_factor = -0.1
				political_power_factor = -0.1
				research_speed_factor = 0.25
				production_speed_buildings_factor = 0.25
			}
		}

		KOR_aggressive_approach = {
			picture = army_of_aggression

			modifier = {
				army_attack_factor = 0.25
				army_speed_factor = 0.2
				breakthrough_factor = 0.2
				max_planning_factor = 0.15
				war_support_factor = 0.05
			}
		}

		KOR_military_buildup = {
			picture = tank_industry

			allowed_civil_war = {
				NOT = { has_government = communism }
			}

			modifier = {
				conversion_cost_civ_to_mil_factor = -0.5
				consumer_goods_factor = -0.05
				production_factory_efficiency_gain_factor = 0.5
				industrial_capacity_factory = 0.5
			}
		}

		KOR_defensive_approach = {
			picture = volunteer_defenders

			allowed_civil_war = {
				NOT = { has_government = communism }
			}

			modifier = {
				army_defence_factor = 0.25
				max_dig_in_factor = 0.2
				army_morale_factor = 0.2
				surrender_limit = 0.1
			}
		}

		KOR_subversive_approach = {
			picture = secret_police

			allowed_civil_war = {
				NOT = { has_government = communism }
			}

			modifier = {
				subversive_activites_upkeep = -0.5
			}
		}

		KOR_subversive_approach_lar = {
			picture = secret_police

			allowed_civil_war = {
				NOT = { has_government = communism }
			}

			modifier = {
				intel_network_gain_factor = 0.25
				own_operative_detection_chance_factor = -0.25
				boost_ideology_mission_factor = 0.5
				operative_slot = 1
			}
		}

		KOR_intensified_propaganda = {
			picture = subvert_commie_control

			allowed_civil_war = {
				NOT = {
					has_government = democratic
				}
			}

			modifier = {
				stability_weekly = -0.01
				democratic_drift = 0.1
			}
		}

		KOR_russian_satellites = {
			picture = SOV_idea_russian_legacy

			modifier = {
				research_speed_factor = 0.1
			}
		}

		KOR_iron_dome = {
			picture = long_lance

			modifier = {
				air_intercept_efficiency = 0.1
			}
		}

		KOR_PER_education_exchanges = {
			picture = KOR_democracy

			modifier = {
				research_speed_factor = 0.05
			}
		}

		KOR_CHI_exchange = {
			picture = party_before_country

			targeted_modifier = {
				tag = CHI
				attack_bonus_against = -0.1
				defense_bonus_against = -0.1
			}
		}

		KOR_dokdo_fortified = {
			picture = coastal_defense_ships

			targeted_modifier = {
				tag = JAP
				defense_bonus_against = 0.2
			}

			modifier = {
				war_support_factor = 0.02
			}
		}

		KOR_JAP_trade_war = {
			picture = embargo

			modifier = {
				political_power_factor = 0.25
				production_speed_buildings_factor = -0.05
			}
		}

		KOR_anti_dprk_coalition = {
			picture = volunteer_expedition_bonus

			cancel = {
				OR = {
					has_war_with = JAP
					has_war_with = USA
					has_war_with = KOR
				}
			}

			allowed_civil_war = {
				NOT = { has_government = communism }
			}

			targeted_modifier = {
				tag = NKO
				attack_bonus_against = 0.25
				defense_bonus_against = 0.25
			}

			modifier = {
				send_volunteers_tension = -0.1
			}
		}

		KOR_wartime_control = {

			picture = general_staff

			modifier = {

			}
		}

		KOR_wartime_control1 = {

			picture = general_staff

			name = KOR_wartime_control

			modifier = {
				max_command_power = 0
				army_attack_factor = -1
				army_defence_factor = -1
			}
		}

		KOR_development_assistance_idea = {
			picture = foreign_capital

			modifier = {
				production_speed_buildings_factor = 0.1
				research_speed_factor = 0.05
			}
		}

		KOR_anti_piracy_operations = {
			picture = coastal_navy

			modifier = {
				political_power_gain = 0.1
				experience_gain_navy = 0.1
			}
		}

		KOR_neo_colonialism = {
			picture = colonial_focus

			modifier = {
				local_resources_factor = 0.25
				consumer_goods_factor = -0.05
				political_power_factor = 0.05
			}
		}

		KOR_chaebol_dependence = {
			picture = puppet_master

			modifier = {
				corruption_cost_factor = 1
				internal_factions_cost_factor = 5
			}
		}

		KOR_chaebol_dependence1 = {
			picture = puppet_master

			name = KOR_chaebol_dependence

			modifier = {
				corruption_cost_factor = 1.25
				internal_factions_cost_factor = 5
			}
		}

		KOR_chaebol_dependence2 = {
			picture = puppet_master

			name = KOR_chaebol_dependence

			modifier = {
				corruption_cost_factor = 1.5
				internal_factions_cost_factor = 5
			}
		}

		KOR_chaebol_dependence3 = {
			picture = puppet_master

			name = KOR_chaebol_dependence

			modifier = {
				corruption_cost_factor = 0.75
				internal_factions_cost_factor = 5
			}
		}

		KOR_chaebol_dependence4 = {
			picture = puppet_master

			name = KOR_chaebol_dependence

			modifier = {
				corruption_cost_factor = 0.5
				internal_factions_cost_factor = 5
			}
		}

		KOR_chaebol_dependence5 = {
			picture = puppet_master

			name = KOR_chaebol_dependence

			modifier = {
				corruption_cost_factor = 0.25
				internal_factions_cost_factor = 5
			}
		}

		KOR_chaebol_dependence6 = {
			picture = puppet_master

			name = KOR_chaebol_dependence

			modifier = {
				corruption_cost_factor = 1.75
				internal_factions_cost_factor = 5
			}
		}

		KOR_global_korea = {
			picture = progressivism

			modifier = {
				trade_opinion_factor = 0.25
				political_power_gain = 0.2
				opinion_gain_monthly_factor = 0.1
			}
		}

		KOR_reunification_shocks = {
			picture = disjointed_government

			modifier = {
				stability_factor = -0.2
			}
		}

		KOR_divided_military = {
			picture = army_problems

			modifier = {
				army_morale_factor = -0.25
				army_org_factor = -0.25
			}
		}

		KOR_divided_military_2 = {
			name = KOR_divided_military
			picture = army_problems

			modifier = {
				army_morale_factor = -0.15
				army_org_factor = -0.15
			}
		}

		KOR_divided_military_3 = { #DDR Programs
			name = KOR_divided_military
			picture = army_problems

			modifier = {
				army_morale_factor = -0.05
				army_org_factor = -0.05
			}
		}

		KOR_mass_migration = {
			picture = migrant_crisis_europe

			modifier = {
				political_power_factor = -0.25
				stability_factor = -0.20
			}
		}

		KOR_mass_migration_2 = {
			name = KOR_mass_migration
			picture = migrant_crisis_europe

			modifier = {
				political_power_factor = -0.15
				stability_factor = -0.10
			}
		}

		KOR_mass_migration_3 = {
			name = KOR_mass_migration
			picture = migrant_crisis_europe

			modifier = {
				political_power_factor = -0.1
			}
		}

		KOR_fragmented_governance = {
			picture = disjointed_government

			modifier = {
				political_power_factor = -0.15
			}
		}

		KOR_fragmented_governance_2 = {
			name = KOR_fragmented_governance
			picture = disjointed_government

			modifier = {
				political_power_factor = -0.10
			}
		}

		KOR_fragmented_governance_3 = {
			name = KOR_fragmented_governance
			picture = disjointed_government

			modifier = {
				political_power_factor = 0.15
			}
		}
		KOR_uneven_economy = {
			picture = financial_crisis

			modifier = {
				economic_cycles_cost_factor = 0.5
				production_speed_buildings_factor = -0.25
				research_speed_factor = -0.15
			}
		}

		KOR_uneven_economy_2 = {
			picture = financial_crisis

			modifier = {
				economic_cycles_cost_factor = 0.25
				production_speed_buildings_factor = -0.125
				research_speed_factor = -0.075
			}
		}

		KOR_uneven_economy_3 = {
			picture = financial_crisis

			modifier = {
				economic_cycles_cost_factor = 0.40
				production_speed_buildings_factor = 0.125
				research_speed_factor = -0.075
			}
		}

		KOR_uneven_economy_3_1 = {
			picture = financial_crisis

			modifier = {
				economic_cycles_cost_factor = 0.40
				production_speed_buildings_factor = 0.2
				research_speed_factor = -0.15
				monthly_population = 0.5
			}
		}

		KOR_uneven_economy_3_2 = {
			picture = financial_crisis

			modifier = {
				economic_cycles_cost_factor = 0.40
				production_speed_buildings_factor = 0.2
				research_speed_factor = -0.15
				monthly_population = 0.5
				local_resources_factor = 0.20
				min_export = -0.25
				trade_opinion_factor = -0.5
				global_building_slots_factor = 0.1
			}
		}

		KOR_uneven_economy_4 = {
			picture = financial_crisis

			modifier = {
				economic_cycles_cost_factor = 0.10
				production_speed_buildings_factor = -0.125
				production_factory_start_efficiency_factor = 0.05
				production_factory_max_efficiency_factor = 0.05
				consumer_goods_factor = -0.025
			}
		}

		KOR_uneven_economy_4_1 = {
			picture = financial_crisis

			modifier = {
				economic_cycles_cost_factor = 0.10
				production_factory_start_efficiency_factor = 0.1
				production_factory_max_efficiency_factor = 0.1
				consumer_goods_factor = -0.05
			}
		}

		KOR_uneven_economy_4_2 = {
			picture = financial_crisis

			modifier = {
				economic_cycles_cost_factor = 0.10
				production_factory_start_efficiency_factor = 0.1
				production_factory_max_efficiency_factor = 0.1
				consumer_goods_factor = -0.08
				population_tax_income_multiplier_modifier = 0.1
				social_cost_multiplier_modifier = -0.2
			}
		}

		KOR_uneven_economy_5 = {
			picture = financial_crisis

			modifier = {
				economic_cycles_cost_factor = -0.10
				research_speed_factor = 0.05
				return_on_investment_modifier = 0.03
			}
		}

		KOR_uneven_economy_5_1 = {
			picture = financial_crisis

			modifier = {
				economic_cycles_cost_factor = -0.20
				research_speed_factor = 0.1
				return_on_investment_modifier = 0.03
				corporate_tax_income_multiplier_modifier = 0.1

			}
		}

		KOR_uneven_economy_5_2 = {
			picture = financial_crisis

			modifier = {
				economic_cycles_cost_factor = -0.30
				research_speed_factor = 0.1
				return_on_investment_modifier = 0.03
				corporate_tax_income_multiplier_modifier = 0.125
				health_cost_multiplier_modifier = 0.10
				social_cost_multiplier_modifier = 0.10
				interest_rate_multiplier_modifier = -2
			}
		}

		KOR_northern_propaganda_broadcasts = {

			picture = propaganda

			cancel = {
				OR = {
					NOT = { country_exists = NKO }
					NOT = { country_exists = KOR }
				}
			}

			modifier = {
				political_power_gain = -0.1
			}
		}
		KOR_idea_growth_by_innovation = {
			picture = shared_research

			modifier = {
				research_speed_factor = 0.05
				production_speed_buildings_factor = 0.1
			}
		}


	#####North korea#####
		NKO_southern_propaganda_broadcasts = {

			picture = propaganda

			cancel = {
				OR = {
					NOT = { country_exists = NKO }
					NOT = { country_exists = KOR }
				}
			}

			modifier = {
				communism_drift = -0.01
				war_support_factor = -0.01
			}
		}

		NKO_southern_balloon_leaflets = {

			picture = air_support

			cancel = {
				OR = {
					NOT = { country_exists = NKO }
					NOT = { country_exists = KOR }
				}
			}

			modifier = {
				stability_factor = -0.02
			}
		}

		NKO_nuclear_tests = {

			picture = scientists_defect

			modifier = {
				stability_factor = -0.05
				political_power_factor = 0.25
				communism_drift = 0.02
				army_morale_factor = 0.25
			}
		}

		NKO_Broken_Juche_0 = {
			name = NKO_Broken_Juche
			picture = juche_broken

			modifier = {
				stability_factor = -0.10
				political_power_factor = -0.15
				communism_drift = 0.02
			}
		}

		NKO_Broken_Juche_1 = {
			name = NKO_Broken_Juche
			picture = juche_broken

			modifier = {
				stability_factor = -0.10
				political_power_factor = -0.10
				communism_drift = 0.05
			}
		}

		NKO_Broken_Juche_2 = {
			name = NKO_Broken_Juche
			picture = juche_broken

			modifier = {
				stability_factor = -0.05
				political_power_factor = -0.10
				communism_drift = 0.08
			}
		}

		NKO_Songun_junta = {

			picture = Songun_Junta

			modifier = {
				stability_factor = -0.05
				political_power_factor = -0.10
				nationalist_drift = 0.05
			}
		}

		NKO_Eternal_Juche = {

			picture = Juche

			modifier = {
				stability_factor = 0.1
				political_power_factor = 0.05
				communism_drift = 0.10
				research_speed_factor = -0.02
			}
		}

		NKO_Maixism_Leninism = {

			picture = radical_leftist

			modifier = {
				stability_factor = 0.1
				political_power_factor = -0.05
				communism_drift = 0.15
				research_speed_factor = 0.01
				production_speed_buildings_factor = 0.05
			}
		}

		NKO_Democratic_Land = {

			picture = modern_reformist

			modifier = {
				stability_factor = -0.05
				political_power_factor = 0.05
				communism_drift = 0.15
				research_speed_factor = 0.05
				neutrality_drift = 0.10
				democratic_drift = 0.05
				nationalist_drift = -0.05
			}
		}

		NKO_Chollima_Speed = {

			picture = chollima_speed_idea

			modifier = {
				production_speed_buildings_factor = 0.02
				production_speed_infrastructure_factor = 0.05
			}
		}

		NKO_Chollima_Speed_NSB = {

			picture = chollima_speed_idea

			modifier = {
				production_speed_buildings_factor = 0.02
				production_speed_infrastructure_factor = 0.05
				production_speed_rail_way_factor = 0.10
			}
		}

		NKO_Simhwajo_Sageon_legacy = {

			picture = prisoners

			modifier = {
				stability_factor = -0.15
				political_power_factor = -0.01
				communism_drift = -0.1
			}
		}

		NKO_arduous_march_legacy_songun = {
			name = NKO_arduous_march_legacy
			picture = poor_economy

			modifier = {
				stability_factor = -0.10
				monthly_population = -0.05
				communism_drift = -0.05
				consumer_goods_factor = 0.05
				research_speed_factor = -0.10
				army_attack_factor = -0.10
			}
		}

		NKO_arduous_march_legacy_people = {
			name = NKO_arduous_march_legacy
			picture = cold_war

			modifier = {
				stability_factor = -0.05
				communism_drift = -0.05
				consumer_goods_factor = 0.05
				research_speed_factor = -0.10
				army_attack_factor = -0.15
				army_defence_factor = -0.05
			}
		}

		NKO_idea_outsource_international_animation = {
			name = NKO_outsource_international_animation_idea
			picture = cartels

			modifier = {
				consumer_goods_factor = -0.03
				foreign_influence_modifier = 0.10
				custom_modifier_tooltip = NKO_outsource_international_animation_idea_tt
			}
		}

		NKO_the_private_markets = {

			picture = foreign_capital

			modifier = {
				consumer_goods_factor = -0.01
				stability_factor = -0.02
				political_power_factor = 0.10
			}
		}

		NKO_Industrial_collapse = {

			picture = great_depression

			modifier = {
				production_speed_buildings_factor = -0.15
				production_speed_infrastructure_factor = -0.10
				production_speed_industrial_complex_factor = -0.15
				production_speed_arms_factory_factor = -0.10
				production_speed_bunker_factor = -0.10
				production_speed_coastal_bunker_factor = -0.10
				conversion_cost_civ_to_mil_factor = -0.20
			}
		}

		NKO_milestone_win = {

			picture = volunteer_expedition_bonus

			modifier = {
				political_power_factor = 0.05
				stability_weekly = 0.001
				production_factory_efficiency_gain_factor = 0.1
				research_speed_factor = 0.05
				communism_drift = 0.10
			}
		}

		NKO_Great_Victory = {

			picture = volunteer_expedition_bonus

			modifier = {
				political_power_factor = 0.1
				stability_factor = 0.10
				research_speed_factor = 0.10
				communism_drift = 0.10
			}
		}

		Kim_Jong_il_Death = {

			picture = war_to_end_all_wars

			modifier = {
				stability_factor = -0.05
				political_power_cost = 1
			}
		}

		NKO_Talent_loss = {

			picture = flexible_foreign_policy

			modifier = {
				industrial_capacity_factory = -0.10
				research_speed_factor = -0.10
				max_command_power = -20
			}
		}
		NKO_Choson_Dream = {

			picture = communism3

			modifier = {
				stability_factor = 0.05
				political_power_factor = -0.05
				communism_drift = 0.05
				consumer_goods_factor = -0.10
			}
		}
		Ryugyong_Hotel = {

			picture = high_society

			modifier = {
				stability_factor = 0.05
				consumer_goods_factor = -0.05
				corporate_tax_income_multiplier_modifier = 0.05
				foreign_subversive_activites = 0.2
				communism_drift = 0.03
				custom_modifier_tooltip = Ryugyong_Hotel_idea_tt
			}
		}

		Fallout_leadership_succession = {

			picture = anti_soviet_pact

			modifier = {
				stability_weekly = -0.002
				war_support_weekly = -0.002
				political_power_factor = -0.25
				foreign_subversive_activites = 0.2
			}
		}
		Fallout_leadership_succession2 = {

			picture = anti_soviet_pact

			modifier = {
				stability_weekly = -0.001
				war_support_weekly = -0.001
				political_power_factor = -0.10
			}
		}
		Fallout_leadership_succession3 = {

			picture = anti_soviet_pact

			modifier = {
				stability_factor = -0.10
				war_support_factor = -0.10
				political_power_factor = -0.10
			}
		}

		Fallout_leadership_succession4 = {

			picture = anti_soviet_pact

			modifier = {
				stability_factor = -0.10
				war_support_factor = -0.05
				political_power_factor = -0.05
			}
		}

		NKO_Anti_tatmadaw_sentiment = {
			allowed = { original_tag = NKO }
			picture = scw_intervention_rep

			modifier = {
				war_support_weekly = -0.001
				conscription_factor = 0.10
				nationalist_drift = -0.02
				production_speed_buildings_factor = -0.1
			}
		}
		NKO_war_footing = {
			allowed = { original_tag = NKO }
			picture = scw_intervention_rep

			modifier = {
				war_support_factor = 0.10
				nationalist_drift = 0.01
				consumer_goods_factor = 0.25
				training_time_army_factor = -0.10
				production_speed_buildings_factor = -0.1
				army_morale_factor = 0.1
				production_speed_industrial_complex_factor = -0.15
				production_speed_arms_factory_factor = 0.05
				generate_wargoal_tension = -1.00
			}
		}
		NKO_idea_send_support = {
			allowed = { original_tag = NKO }
			picture = scw_intervention_rep

			modifier = {
				join_faction_tension = 0.20
				lend_lease_tension = -1.00
				send_volunteers_tension = -1.00
			}
		}
		NKO_Revival_Industry1 = {
			allowed = { original_tag = NKO }
			picture = production_bonus

			modifier = {
				production_speed_infrastructure_factor = 0.10
				production_speed_industrial_complex_factor = 0.20
				industry_repair_factor = 0.20
				industrial_capacity_factory = -0.05
				consumer_goods_factor = -0.05
				research_speed_factor = 0.05
				conversion_cost_mil_to_civ_factor = -0.50
			}
		}
		NKO_Revival_Industry2 = {
			name = NKO_Revival_Industry1
			allowed = { original_tag = NKO }
			picture = production_bonus

			modifier = {
				production_speed_infrastructure_factor = 0.10
				production_speed_arms_factory_factor = 0.20
				industry_repair_factor = -0.30
				industrial_capacity_factory = 0.10
				experience_gain_army_factor = 0.40
				research_speed_factor = -0.05
				conversion_cost_civ_to_mil_factor = -0.50
			}
		}

		NKO_The_Green_Water_Navy = {
			allowed = { original_tag = NKO }
			picture = coastal_navy

			modifier = {
				industrial_capacity_dockyard = 0.10
				navy_max_range_factor = -0.15
				experience_gain_navy_factor = 0.05
				navy_capital_ship_attack_factor = 0.05
				navy_capital_ship_defence_factor = 0.05
			}
			equipment_bonus = {
		   		cruiser = {
					build_cost_ic = -0.1
				}
			}
		}

		NKO_The_Green_Water_Navy_mtg = {
			name = NKO_The_Green_Water_Navy
			allowed = { original_tag = NKO }
			picture = coastal_navy

			modifier = {
				industrial_capacity_dockyard = 0.10
				navy_max_range_factor = -0.15
				experience_gain_navy_factor = 0.05
				navy_capital_ship_attack_factor = 0.05
				navy_capital_ship_defence_factor = 0.05
			}
			equipment_bonus = {
		   		cruiser = {
					build_cost_ic = -0.1
				}
			}
		}
		NKO_Revolutionary_Spirit1 = {
			allowed = { original_tag = NKO }
			picture = revolutionary_army_nko
			modifier = {
				communism_drift = 0.01
				experience_gain_army_factor = 0.05
				command_power_gain_mult = 0.2
				max_dig_in = 5
				army_org_Factor = 0.05
				conscription_factor = 0.05
				army_infantry_attack_factor = 0.05
				army_infantry_defence_factor = 0.05
			}
		}
		NKO_Revolutionary_Spirit2 = {
			name = NKO_Revolutionary_Spirit1
			allowed = { original_tag = NKO }
			picture = revolutionary_army_nko
			modifier = {
				communism_drift = 0.03
				experience_gain_army_factor = 0.05
				command_power_gain_mult = 0.2
				max_dig_in = 5
				army_org_Factor = 0.05
				conscription_factor = 0.10
				army_infantry_attack_factor = 0.10
				army_infantry_defence_factor = 0.10
				army_artillery_attack_factor = 0.05
			}
		}
		NKO_Revolutionary_Spirit3 = {
			name = NKO_Revolutionary_Spirit1
			allowed = { original_tag = NKO }
			picture = revolutionary_army_nko
			modifier = {
				communism_drift = 0.15
				experience_gain_army_factor = 0.10
				command_power_gain_mult = 0.4
				max_dig_in = 5
				army_org_Factor = 0.05
				conscription_factor = 0.10
				army_attack_factor = 0.05
				army_defence_factor = 0.10
				army_artillery_attack_factor = 0.10
			}
		}
		DPRK_Exporting_Workforce = {
			allowed = { original_tag = NKO }

			picture = production_bonus

			modifier = {
				own_operative_detection_chance_factor = -0.15
				own_operative_intel_extraction_rate = 0.1
				foreign_influence_modifier = 0.02
				custom_modifier_tooltip = DPRK_Exporting_Workforce_idea_tt
			}
		}
		DPRK_Exporting_Workforce2 = {
			allowed = { original_tag = NKO }
			picture = production_bonus

			modifier = {
				consumer_goods_factor = -0.01
			}
		}

		NKO_DMZ_remilitarized = {
			picture = fortification2

			modifier = {
				army_attack_factor = 0.15
				army_morale_factor = 0.1
				dig_in_speed_factor = 0.1
			}
		}
		NKO_foreign_knowhow = {
			picture = research_bonus

			modifier = {
				research_speed_factor = 0.10
				education_cost_multiplier_modifier = 0.05
			}
		}
		NKO_expand_education = {
			picture = research_bonus

			modifier = {
				research_speed_factor = 0.05
				stability_factor = 0.05
			}
		}
		NKO_government_refroms = {
			name = NKO_government_refroms
			picture = economic_increase

			modifier = {
				political_power_factor = -0.05
				stability_factor = 0.05
				production_speed_buildings_factor = 0.05
			}
		}
		NKO_government_refroms1 = {
			name = NKO_government_refroms
			picture = economic_increase

			modifier = {
				political_power_factor = -0.1
				stability_factor = 0.1
				production_speed_buildings_factor = 0.1
				consumer_goods_factor = 0.02
			}
		}
		NKO_government_refroms2 = {
			name = NKO_government_refroms
			picture = economic_increase

			modifier = {
				political_power_factor = -0.15
				stability_factor = 0.15
				production_speed_buildings_factor = 0.15
				production_speed_industrial_complex_factor = 0.05
				consumer_goods_factor = 0.05
			}
		}
		NKO_economic_reforms = {
			picture = positive_gold

			modifier = {
				political_power_factor = 0.05
				production_speed_buildings_factor = 0.05
				production_speed_industrial_complex_factor = 0.05
			}
		}

		NKO_Juche_market_economy = {
			picture = well_balanced

			modifier = {
				communism_drift = 0.05
				research_speed_factor = -0.01
				production_factory_efficiency_gain_factor = -0.02
				production_speed_industrial_complex_factor = -0.02
				trade_opinion_factor = -0.01
				consumer_goods_factor = -0.05
				production_speed_arms_factory_factor = 0.02
				drift_defence_factor = 0.02
				corruption_cost_factor = -0.03
			}
		}

		NKO_common_trade_belt_of_korea = {
			picture = new_deal

			modifier = {
				research_speed_factor = 0.02
				trade_opinion_factor = -0.05
			}
		}

		NKO_idea_happiest_people_in_world = {
			picture = collective_soceity

			modifier = {
				communism_drift = 0.50
				stability_weekly = 0.01
				war_support_weekly = 0.01
				consumer_goods_factor = -0.05
				research_speed_factor = 0.10
			}
		}

		NKO_hermit_kingdom = {
			picture = democratic_socialism
			allowed = { original_tag = NKO }
			allowed_civil_war = { is_in_array = { ruling_party = 4 } }
			cancel = {
				NOT = { is_in_array = { ruling_party = 4 } }
			}

			modifier = {
				stability_factor = 0.50
				foreign_influence_defense_modifier = 0.25
				bureaucracy_cost_multiplier_modifier = -0.3
				personnel_cost_multiplier_modifier = -0.3
				police_cost_multiplier_modifier = -0.3
				education_cost_multiplier_modifier = -0.3
				health_cost_multiplier_modifier = -0.3
				social_cost_multiplier_modifier = -0.3
			}
		}

		NKO_encourage_foreign_investment_idea = {
			picture = construction
			allowed = { original_tag = NKO }

			modifier = {
				receiving_investment_duration_modifier = -0.10
				receiving_investment_cost_modifier = -0.10
				corporate_tax_income_multiplier_modifier = 0.20
			}
		}

		NKO_protect_state_owned_businesses_idea = {
			picture = construction
			allowed = { original_tag = NKO }

			modifier = {
				production_speed_industrial_complex_factor = 0.10
				foreign_influence_defense_modifier = 0.10
				stability_factor = 0.05
			}
		}

		NKO_scale_back_spending_idea = {
			picture = construction
			allowed = { original_tag = NKO }

			modifier = {
				political_power_factor = 0.25
				bureaucracy_cost_multiplier_modifier = -0.05
				personnel_cost_multiplier_modifier = -0.05
				police_cost_multiplier_modifier = -0.05
				education_cost_multiplier_modifier = -0.05
				health_cost_multiplier_modifier = -0.05
				social_cost_multiplier_modifier = -0.05
			}
		}

		NKO_entrench_military_authority_idea = {
			picture = construction
			allowed = { original_tag = NKO }

			modifier = {
				nationalist_drift = 0.10
				political_power_factor = -0.10
				nationalist_outlook_campaign_cost_modifier = -0.15
			}
		}
	}
}