ideas = {
	country = {
		LIT_litas = {
					cancel = {
							has_idea = the_euro
		   		}
			picture = litas
			modifier = {
				stability_factor = 0.04
				consumer_goods_factor = -0.05
			}
			
		}
	}
}