# Author(s): Aug
ideas = {
	country = {
		Basic_Law_MAC = {
			picture = international_treaty
			modifier = {
				stability_factor = 0.1
				Military_Spending_cost_factor = 100
				Conscription_Law_cost_factor = 100
				Foreign_Intervention_Law_cost_factor = 100
			}

		}

		City_Of_Casino = {
			picture = new_deal
			modifier = {
				stability_factor = 0.1
				production_speed_buildings_factor = 0.05
				political_power_factor = -0.05
				corporate_tax_income_multiplier_modifier = 0.10
			}
		}
	}
}
