focus_tree = {
	id = hez_focus
	country = {
		factor = 0
		modifier = {
			add = 20
			original_tag = HEZ
		}
	}

	continuous_focus_position = { x = 2800 y = 1200 }

	focus = {
		id = HEZ_Party_of_God
		icon = islamic_resistance

		x = 5
		y = 0

		cost = 10

		search_filters = { FOCUS_FILTER_POLITICAL }
		completion_reward = {
			log = "[GetDateText]: [Root.GetName]: Focus HEZ_Party_of_God"
			set_temp_variable = { temp_opinion = 10 }
			change_the_ulema_opinion = yes

			set_temp_variable = { temp_opinion = 10 }
			change_the_military_opinion = yes

			set_temp_variable = { temp_opinion = 10 }
			change_iranian_quds_force_opinion = yes

			add_political_power = 75
		}

		ai_will_do = { factor = 1 }
	}

	focus = {
		id = HEZ_Our_own_state
		icon = hezbollah_flag

		x = -4
		y = 1

		relative_position_id = HEZ_Party_of_God

		prerequisite = { focus = HEZ_Party_of_God }

		mutually_exclusive = {
			focus = HEZ_Co_existence
			focus = HEZ_Conquer_Lebanon
		}

		cost = 10

		search_filters = { FOCUS_FILTER_POLITICAL }
		completion_reward = {
			log = "[GetDateText]: [Root.GetName]: Focus HEZ_Our_own_state"
			every_country = {
				limit = {
					OR = {
						original_tag = LEB
						original_tag = PER
						original_tag = SYR
					}
				}
				add_opinion_modifier = {
					target = PER
					modifier = medium_increase
				}
			}
			swap_ideas = {
				remove_idea = HEZ_militant_group
				add_idea = HEZ_militant_group_2
			}
			remove_state_core = 202
			remove_state_core = 553
			remove_state_core = 203
		}
		ai_will_do = { factor = 1
			modifier = {
				factor = 0
				is_historical_focus_on = yes
			}
		}
	}

	focus = {
		id = HEZ_Conquer_Lebanon
		icon = cut_ties_with_leb

		x = 4
		y = 1

		relative_position_id = HEZ_Party_of_God

		prerequisite = { focus = HEZ_Party_of_God }

		mutually_exclusive = {
			focus = HEZ_Co_existence
			focus = HEZ_Our_own_state
		}

		cost = 10

		available = {
			country_exists = LEB
		}

		search_filters = { FOCUS_FILTER_POLITICAL }
		completion_reward = {
			log = "[GetDateText]: [Root.GetName]: Focus HEZ_Conquer_Lebanon"
			swap_ideas = {
				remove_idea = HEZ_militant_group
				add_idea = HEZ_militant_group_3
			}
			remove_ideas = { katib_hezbollah syrian_hezbollah }
		}

		ai_will_do = {
			factor = 1
			modifier = {
				factor = 0
				is_historical_focus_on = yes
			}
		}
	}



	focus = {
		id = HEZ_Religion_in_Focus
		icon = quaran_book

		x = 15
		y = 0

		available = { has_idea = the_ulema }

		cost = 10

		search_filters = { FOCUS_FILTER_STABILITY }
		completion_reward = {
			log = "[GetDateText]: [Root.GetName]: Focus HEZ_Religion_in_Focus"
			set_temp_variable = { temp_opinion = 10 }
			change_the_ulema_opinion = yes
		}
	}

	focus = {
		id = HEZ_Industry
		icon = construction_engineering

		x = 22
		y = 9

		cost = 10

		search_filters = { FOCUS_FILTER_ECONOMY FOCUS_FILTER_INDUSTRY }
		completion_reward = {
			log = "[GetDateText]: [Root.GetName]: Focus HEZ_Industry"
			one_random_industrial_complex = yes
			add_timed_idea = {
				idea = idea_focus_generic_commerce_efficiency
				days = 1825
			}
		}

		ai_will_do = { factor = 1 }
	}

	focus = {
		id = HEZ_Puppet_state_of_Iran
		icon = iran_republic

		x = -4
		y = 1

		relative_position_id = HEZ_Industry

		prerequisite = { focus = HEZ_Industry }

		mutually_exclusive = {
			focus = HEZ_Hezbollahs_independent_industry
			focus = HEZ_New_Backers
		}
		cost = 10
		available = {
			PER = {
				OR = {
					emerging_hardline_shiite_are_in_power = yes
					emerging_moderate_shiite_are_in_power = yes
				}
			}
		}
		search_filters = { FOCUS_FILTER_ECONOMY }
		completion_reward = {
			log = "[GetDateText]: [Root.GetName]: Focus HEZ_Puppet_state_of_Iran"
			set_temp_variable = { treasury_change = 50 }
			modify_treasury_effect = yes
			set_temp_variable = { percent_change = 40 }
			set_temp_variable = { tag_index = PER }
			set_temp_variable = { influence_target = HEZ }
			change_influence_percentage = yes
		}

		ai_will_do = { factor = 1
		modifier = {
			factor = 0
			is_historical_focus_on = yes
		}
	}
	}

	focus = {
		id = HEZ_New_Backers
		icon = euro

		x = 4
		y = 1

		relative_position_id = HEZ_Industry

		prerequisite = { focus = HEZ_Industry }

		available = { has_completed_focus = HEZ_Our_own_state }

		mutually_exclusive = {
			focus = HEZ_Hezbollahs_independent_industry
			focus = HEZ_Puppet_state_of_Iran
		}
		cost = 10

		search_filters = { FOCUS_FILTER_ECONOMY FOCUS_FILTER_INDUSTRY }
		completion_reward = {
			log = "[GetDateText]: [Root.GetName]: Focus HEZ_New_Backers"
			random_list = {
				1 = { # Infrastructure
					capital_scope = {
						add_building_construction = {
							type = infrastructure
							level = 1
							instant_build = yes
						}
					}
					set_temp_variable = { percent_change = 1 }
					set_temp_variable = { tag_index = GER }
					set_temp_variable = { influence_target = HEZ }
					change_influence_percentage = yes
					set_temp_variable = { percent_change = 1 }
					set_temp_variable = { tag_index = FRA }
					set_temp_variable = { influence_target = HEZ }
					change_influence_percentage = yes
					set_temp_variable = { percent_change = 1 }
					set_temp_variable = { tag_index = ENG }
					set_temp_variable = { influence_target = HEZ }
					change_influence_percentage = yes
				}
				1 = { # Civ
					capital_scope = {
						add_extra_state_shared_building_slots = 1
						add_building_construction = {
							type = industrial_complex
							level = 1
							instant_build = yes
						}
					}
					set_temp_variable = { percent_change = 1.5 }
					set_temp_variable = { tag_index = GER }
					set_temp_variable = { influence_target = HEZ }
					change_influence_percentage = yes
					set_temp_variable = { percent_change = 1.5 }
					set_temp_variable = { tag_index = FRA }
					set_temp_variable = { influence_target = HEZ }
					change_influence_percentage = yes
					set_temp_variable = { percent_change = 1.5 }
					set_temp_variable = { tag_index = ENG }
					set_temp_variable = { influence_target = HEZ }
					change_influence_percentage = yes
				}
				1 = { # Mil
					capital_scope = {
						add_extra_state_shared_building_slots = 1
						add_building_construction = {
							type = arms_factory
							level = 1
							instant_build = yes
						}
					}
					set_temp_variable = { percent_change = 1 }
					set_temp_variable = { tag_index = GER }
					set_temp_variable = { influence_target = HEZ }
					change_influence_percentage = yes
					set_temp_variable = { percent_change = 1 }
					set_temp_variable = { tag_index = FRA }
					set_temp_variable = { influence_target = HEZ }
					change_influence_percentage = yes
					set_temp_variable = { percent_change = 1 }
					set_temp_variable = { tag_index = ENG }
					set_temp_variable = { influence_target = HEZ }
					change_influence_percentage = yes
				}
			}
		}

		ai_will_do = { factor = 1
		modifier = {
			factor = 0
			is_historical_focus_on = yes
		}
	}
	}
	focus = {
		id = HEZ_banks_in_beirut
		icon = generic_banks

		x = 0
		y = 1

		relative_position_id = HEZ_New_Backers

		prerequisite = { focus = HEZ_New_Backers }
		cost = 10

		search_filters = { FOCUS_FILTER_ECONOMY FOCUS_FILTER_INDUSTRY }
		completion_reward = {
			log = "[GetDateText]: [Root.GetName]: Focus HEZ_New_Backers"
			set_temp_variable = { percent_change = 1.0 }
			set_temp_variable = { tag_index = GER }
			set_temp_variable = { influence_target = HEZ }
			change_influence_percentage = yes
			set_temp_variable = { percent_change = 1.0 }
			set_temp_variable = { tag_index = FRA }
			set_temp_variable = { influence_target = HEZ }
			change_influence_percentage = yes
			set_temp_variable = { percent_change = 1.0 }
			set_temp_variable = { tag_index = ENG }
			set_temp_variable = { influence_target = HEZ }
			change_influence_percentage = yes
			capital_scope = {
				add_extra_state_shared_building_slots = 1
				add_building_construction = {
					type = offices
					level = 1
					instant_build = yes
				}
			}
		}

		ai_will_do = { factor = 1 }
	}
	focus = {
		id = HEZ_negotiations_in_the_south
		icon = dangerous_deal3

		x = 0
		y = 1

		relative_position_id = HEZ_banks_in_beirut

		prerequisite = { focus = HEZ_banks_in_beirut }

		cost = 10

		search_filters = { FOCUS_FILTER_ECONOMY }
		completion_reward = {
			log = "[GetDateText]: [Root.GetName]: Focus HEZ_New_Backers"
			set_temp_variable = { treasury_change = 10.00 }
			modify_treasury_effect = yes
			set_temp_variable = { percent_change = 1.2 }
			set_temp_variable = { tag_index = GER }
			set_temp_variable = { influence_target = HEZ }
			change_influence_percentage = yes
			set_temp_variable = { percent_change = 1.2 }
			set_temp_variable = { tag_index = FRA }
			set_temp_variable = { influence_target = HEZ }
			change_influence_percentage = yes
			set_temp_variable = { percent_change = 1.2 }
			set_temp_variable = { tag_index = ENG }
			set_temp_variable = { influence_target = HEZ }
			change_influence_percentage = yes
		}

		ai_will_do = { factor = 1 }
	}
	focus = {
		id = HEZ_a_new_economy
		icon = coins

		x = 0
		y = 1

		relative_position_id = HEZ_negotiations_in_the_south

		prerequisite = { focus = HEZ_negotiations_in_the_south }

		cost = 10

		search_filters = { FOCUS_FILTER_ECONOMY }
		completion_reward = {
			log = "[GetDateText]: [Root.GetName]: Focus HEZ_New_Backers"
			set_temp_variable = { treasury_change = -20.00 }
			modify_treasury_effect = yes
			increase_economic_growth = yes
		}

		ai_will_do = { factor = 1 }
	}
	focus = {
		id = HEZ_a_free_market
		icon = market_economy

		x = -1
		y = 1

		relative_position_id = HEZ_a_new_economy

		prerequisite = { focus = HEZ_a_new_economy }

		cost = 10

		search_filters = { FOCUS_FILTER_ECONOMY }
		completion_reward = {
			log = "[GetDateText]: [Root.GetName]: Focus HEZ_New_Backers"
			add_ideas = HEZ_liberization
		}

		ai_will_do = { factor = 1 }
	}
	focus = {
		id = HEZ_a_free_industry
		icon = red_industry

		x = 1
		y = 1

		relative_position_id = HEZ_a_new_economy

		prerequisite = { focus = HEZ_a_new_economy }

		cost = 10

		search_filters = { FOCUS_FILTER_ECONOMY }
		completion_reward = {
			log = "[GetDateText]: [Root.GetName]: Focus HEZ_New_Backers"
			add_ideas = HEZ_industrial_investments
		}

		ai_will_do = { factor = 1 }

	}
	focus = {
		id = HEZ_new_dubai
		icon = Generic_Major_City

		x = -1
		y = 1

		relative_position_id = HEZ_a_free_industry

		prerequisite = { focus = HEZ_a_free_industry }
		prerequisite = { focus = HEZ_a_free_market }
		cost = 10

		search_filters = { FOCUS_FILTER_ECONOMY FOCUS_FILTER_INDUSTRY }
		completion_reward = {
			log = "[GetDateText]: [Root.GetName]: Focus HEZ_New_Backers"
			add_stability = 0.05
			capital_scope = {
				add_extra_state_shared_building_slots = 3
				add_building_construction = {
					type = offices
					level = 3
					instant_build = yes
				}
			}
			set_temp_variable = { treasury_change = -36.00 }
			modify_treasury_effect = yes
		}

		ai_will_do = { factor = 1 }

	}
	focus = {
		id = HEZ_Armed_forces
		icon = Hezbollah_Armed_Forces

		x = 26
		y = 0

		cost = 10

		search_filters = { FOCUS_FILTER_MILITARY }
		completion_reward = {
			log = "[GetDateText]: [Root.GetName]: Focus HEZ_Armed_forces"
			add_ideas = HEZ_hezbollah_armed_forces
			army_experience = 25
		}

		ai_will_do = { factor = 1 }
	}

	focus = {
		id = HEZ_Creating_opportunities
		icon = construction2

		x = 1
		y = 1

		relative_position_id = HEZ_Our_own_state

		prerequisite = { focus = HEZ_Our_own_state }

		cost = 10

		search_filters = { FOCUS_FILTER_POLITICAL FOCUS_FILTER_INDUSTRY }
		completion_reward = {
			log = "[GetDateText]: [Root.GetName]: Focus HEZ_Creating_opportunities"
			201 = {
				add_building_construction = {
					type = naval_base
					level = 1
				}
				add_building_construction = {
					type = air_base
					level = 1
					instant_build = yes
				}
			}
		}

		ai_will_do = { factor = 1 }
	}

	focus = {
		id = HEZ_International_recognization
		icon = break_free

		x = -1
		y = 1

		relative_position_id = HEZ_Our_own_state

		prerequisite = { focus = HEZ_Our_own_state }

		cost = 10

		search_filters = { FOCUS_FILTER_POLITICAL }
		completion_reward = {
			log = "[GetDateText]: [Root.GetName]: Focus HEZ_International_recognization"
			remove_ideas = Non_State_Actor
		}

		ai_will_do = { factor = 1 }
	}

	focus = {
		id = HEZ_Building_of_our_nation
		icon = industry_civilian

		x = 0
		y = 1

		relative_position_id = HEZ_Creating_opportunities

		prerequisite = { focus = HEZ_Creating_opportunities }

		cost = 10

		search_filters = { FOCUS_FILTER_POLITICAL FOCUS_FILTER_INDUSTRY }
		completion_reward = {
			log = "[GetDateText]: [Root.GetName]: Focus HEZ_Building_of_our_nation"
			201 = {
				add_extra_state_shared_building_slots = 3
				add_building_construction = {
					type = industrial_complex
					level = 1
					instant_build = yes
		   		}
			}
		}

		ai_will_do = { factor = 1 }
	}

	focus = {
		id = HEZ_Seeking_Allies
		icon = internationalism

		x = 0
		y = 1

		relative_position_id = HEZ_International_recognization

		prerequisite = { focus = HEZ_International_recognization }

		cost = 10

		bypass = {
			if = {
				NOT = {
					any_country = {
						NOT = {
							has_war_with = HEZ
						}
						is_major = yes
						has_opinion = {
							target = HEZ
							value > -19
						}
						HEZ = {
							has_opinion = {
								target = ROOT
								value > -19
							}
						}
					}
				}
			}
		}

		search_filters = { FOCUS_FILTER_POLITICAL }
		completion_reward = {
			log = "[GetDateText]: [Root.GetName]: Focus HEZ_Seeking_Allies"
			every_country = {
				limit = {
					NOT = {
						has_war_with = HEZ
					}
					is_major = yes
					has_opinion = {
						target = HEZ
						value > -16
					}
					HEZ = {
						has_opinion = {
							target = ROOT
							value > -16
						}
					}
				}
				country_event = {
					id = hezbollah_events.3
				}
			}
		}

		ai_will_do = { factor = 1 }
	}

	focus = {
		id = HEZ_Improved_living
		icon = infrastructure1

		x = 0
		y = 1

		relative_position_id = HEZ_Building_of_our_nation

		prerequisite = { focus = HEZ_Building_of_our_nation }

		cost = 10

		search_filters = { FOCUS_FILTER_POLITICAL FOCUS_FILTER_INDUSTRY }
		completion_reward = {
		201 = {
				add_building_construction = {
				type = infrastructure
				level = 1
				instant_build = yes
				}
			}
		201 = {

				add_building_construction = {
					type = internet_station
					level = 1
					instant_build = yes
				}
			}
			log = "[GetDateText]: [Root.GetName]: Focus HEZ_Improved_living"
		}

		ai_will_do = { factor = 1 }
	}
	focus = {
		id = HEZ_Independence
		icon = break_free2

		x = -1
		y = 1

		relative_position_id = HEZ_Improved_living

		prerequisite = { focus = HEZ_Improved_living }
		prerequisite = { focus = HEZ_Recruiting_Loyalists }

		cost = 10

		search_filters = { FOCUS_FILTER_POLITICAL }
		completion_reward = {
			log = "[GetDateText]: [Root.GetName]: Focus HEZ_Independence"
			add_stability = 0.05
			set_temp_variable = { percent_change = 20 }
			change_domestic_influence_percentage = yes
			set_temp_variable = { percent_change = -15 }
			set_temp_variable = { tag_index = PER }
			set_temp_variable = { influence_target = HEZ }
			change_influence_percentage = yes
		}

		ai_will_do = { factor = 1 }
	}

	focus = {
		id = HEZ_Land_of_God
		icon = land_of_god

		x = 0
		y = 1

		relative_position_id = HEZ_Independence

		prerequisite = { focus = HEZ_Independence }

		cost = 10

		search_filters = { FOCUS_FILTER_POLITICAL }
		completion_reward = {
			log = "[GetDateText]: [Root.GetName]: Focus HEZ_Land_of_God"
			set_cosmetic_tag = HEZ_amel
			swap_ideas = {
				remove_idea = HEZ_militant_group
				add_idea = HEZ_militant_group_6
			}
		}

		ai_will_do = { factor = 1 }
	}

	focus = {
		id = HEZ_Defence_force
		icon = Generic_Soldiers_Defense

		x = 5
		y = 1

		relative_position_id = HEZ_Armed_forces

		prerequisite = { focus = HEZ_Armed_forces }

		mutually_exclusive = {
			focus = HEZ_Intervention_forces
			focus = HEZ_The_Army_We_Know
		}
		cost = 10

		search_filters = { FOCUS_FILTER_MILITARY }
		completion_reward = {
			log = "[GetDateText]: [Root.GetName]: Focus HEZ_Defence_force"
			add_tech_bonus = {
				name = HEZ_Defence_force
				bonus = 0.5
				uses = 2
				category = CAT_land_doctrine
			}
			swap_ideas = {
				remove_idea = HEZ_hezbollah_armed_forces
				add_idea = HEZ_hezbollah_armed_forces_9
			}
		}

		ai_will_do = { factor = 1
		modifier = {
			factor = 0
			is_historical_focus_on = yes
		}
	}
	}
	focus = {
		id = HEZ_International_Hezbollah
		icon = hezbollah_international

		x = 6
		y = 9

		cost = 10

		search_filters = { FOCUS_FILTER_INFLUENCE }
		completion_reward = {
			log = "[GetDateText]: [Root.GetName]: Focus HEZ_International_Hezbollah"
			custom_effect_tooltip = unlock_the_international_hezbollah_GUI
		}

		ai_will_do = { factor = 1 }
	}

	focus = {
		id = HEZ_African_Hezbollah
		icon = african_hezbollah

		x = -4
		y = 1

		relative_position_id = HEZ_International_Hezbollah

		prerequisite = { focus = HEZ_International_Hezbollah }

		cost = 5

		search_filters = { FOCUS_FILTER_INFLUENCE }
		completion_reward = {
			log = "[GetDateText]: [Root.GetName]: Focus HEZ_African_Hezbollah"
			unlock_decision_category_tooltip = HEZ_our_boots_on_africa_decisions
			custom_effect_tooltip = HEZ_unlock_region_africa_TT
			set_temp_variable = { percent_change = 5 }
			set_temp_variable = { tag_index = HEZ }
			set_temp_variable = { influence_target = NGR }
			change_influence_percentage = yes
			set_temp_variable = { percent_change = 5 }
			set_temp_variable = { tag_index = HEZ }
			set_temp_variable = { influence_target = CHA }
			change_influence_percentage = yes
			set_temp_variable = { percent_change = 5 }
			set_temp_variable = { tag_index = HEZ }
			set_temp_variable = { influence_target = CAR }
			change_influence_percentage = yes
			set_temp_variable = { percent_change = 5 }
			set_temp_variable = { tag_index = HEZ }
			set_temp_variable = { influence_target = SUD }
			change_influence_percentage = yes
		}

		ai_will_do = { factor = 1 }
	}

	focus = {
		id = HEZ_Latin_American_Hezbollah
		icon = latin_hezbollah

		x = -1
		y = 1

		relative_position_id = HEZ_International_Hezbollah

		prerequisite = { focus = HEZ_International_Hezbollah }

		cost = 5

		search_filters = { FOCUS_FILTER_INFLUENCE }
		completion_reward = {
			log = "[GetDateText]: [Root.GetName]: Focus HEZ_Latin_American_Hezbollah"
			custom_effect_tooltip = HEZ_unlock_region_latin_america_TT
		}

		ai_will_do = { factor = 1 }
	}

	focus = {
		id = HEZ_North_American_Hezbollah
		icon = north_american_hezbollah

		x = 2
		y = 1

		relative_position_id = HEZ_International_Hezbollah

		prerequisite = { focus = HEZ_International_Hezbollah }
		available = { has_completed_focus = HEZ_From_Caracasto_Washington }
		cost = 5

		search_filters = { FOCUS_FILTER_INFLUENCE }
		completion_reward = {
			log = "[GetDateText]: [Root.GetName]: Focus HEZ_North_American_Hezbollah"
			custom_effect_tooltip = HEZ_unlock_region_north_america_TT
			set_temp_variable = { percent_change = 2 }
			set_temp_variable = { tag_index = HEZ }
			set_temp_variable = { influence_target = USA }
			change_influence_percentage = yes
			set_temp_variable = { percent_change = 2 }
			set_temp_variable = { tag_index = HEZ }
			set_temp_variable = { influence_target = CAN }
			change_influence_percentage = yes
		}

		ai_will_do = { factor = 1 }
	}
	focus = {
		id = HEZ_last_effects_of_the_drugs
		icon = become_puppet

		x = 2
		y = 2

		relative_position_id = HEZ_International_Hezbollah

		prerequisite = { focus = HEZ_North_American_Hezbollah }

		cost = 10

		search_filters = { FOCUS_FILTER_INFLUENCE }
		completion_reward = {
			log = "[GetDateText]: [Root.GetName]: Focus HEZ_North_American_Hezbollah"
			USA = { add_stability = -0.05 }
			add_political_power = -150
		}

		ai_will_do = { factor = 1 }
	}
	focus = {
		id = HEZ_propaganda_for_north_america
		icon = propaganda

		x = 2
		y = 3

		relative_position_id = HEZ_International_Hezbollah

		prerequisite = { focus = HEZ_last_effects_of_the_drugs }
		available = {
			USA = {
					influence_higher_5 = yes
				}
			CAN = {
					influence_higher_5 = yes
				}
		}

		cost = 10

		search_filters = { FOCUS_FILTER_INFLUENCE }
		completion_reward = {
			log = "[GetDateText]: [Root.GetName]: Focus HEZ_North_American_Hezbollah"
			add_manpower = -500
			add_political_power = -100
			set_temp_variable = { treasury_change = -10.00 }
			modify_treasury_effect = yes
			USA = { add_ideas = HEZ_eastern_propaganda }
			CAN = { add_ideas = HEZ_eastern_propaganda }

		}

		ai_will_do = { factor = 1 }
	}
	focus = {
		id = HEZ_an_american_muslim_spring
		icon = fund_shia_militias

		x = 2
		y = 4

		relative_position_id = HEZ_International_Hezbollah

		prerequisite = { focus = HEZ_propaganda_for_north_america }
		available = {
			USA = {
					influence_higher_5 = yes
				}
			CAN = {
					influence_higher_5 = yes
				}
		}

		cost = 10

		search_filters = { FOCUS_FILTER_INFLUENCE }
		completion_reward = {
			log = "[GetDateText]: [Root.GetName]: Focus HEZ_North_American_Hezbollah"
			add_timed_idea = {
				idea = HEZ_preparing_for_new_plans
				days = 180
			}
		}

		ai_will_do = { factor = 1 }
	}

	focus	= {
		id = HEZ_fund_muslim_institutes
		icon = money

		x = 2
		y = 5

		relative_position_id = HEZ_International_Hezbollah

		prerequisite = { focus = HEZ_an_american_muslim_spring }
		available = {
			USA = {
					influence_higher_10 = yes
				}
			CAN = {
					influence_higher_10 = yes
				}
		}
		cost = 10

		search_filters = { FOCUS_FILTER_INFLUENCE }
		completion_reward = {
			log = "[GetDateText]: [Root.GetName]: Focus HEZ_North_American_Hezbollah"
	   		set_temp_variable = { treasury_change = -2.50 }
	   		modify_treasury_effect = yes
			add_political_power = -50
			USA = {
				add_stability = -0.02
				add_war_support = -0.02
				add_popularity = {
					ideology = communism
					popularity = 0.02
				}
			}
		}

		ai_will_do = { factor = 1 }
	}
	focus	= {
		id = HEZ_first_wave_of_protests
		icon = Focus_Generic_Molotov

		x = 1
		y = 6

		relative_position_id = HEZ_International_Hezbollah

		prerequisite = { focus = HEZ_fund_muslim_institutes }
		available = {
			USA = {
					influence_higher_10 = yes
				}
			CAN = {
					influence_higher_10 = yes
				}
		}

		cost = 10

		search_filters = { FOCUS_FILTER_INFLUENCE }
		completion_reward = {
			log = "[GetDateText]: [Root.GetName]: Focus HEZ_North_American_Hezbollah"
			set_temp_variable = { treasury_change = -5.00 }
			modify_treasury_effect = yes
			add_political_power = -50
			add_manpower = -500
			USA = {
				add_timed_idea = {
					idea = HEZ_strange_activities_1
					days = 90
				}
			}
		}

		ai_will_do = { factor = 1 }
	}

	focus = {
		id = HEZ_muslim_militias
		icon = Generic_Violent_Coup

		x = 3
		y = 6

		relative_position_id = HEZ_International_Hezbollah

		prerequisite = { focus = HEZ_fund_muslim_institutes }
		available = {
			USA = {
					influence_higher_10 = yes
				}
			CAN = {
					influence_higher_10 = yes
				}
		}
		cost = 10

		search_filters = { FOCUS_FILTER_INFLUENCE FOCUS_FILTER_INSURGENCY }
		completion_reward = {
			log = "[GetDateText]: [Root.GetName]: Focus HEZ_North_American_Hezbollah"
			swap_ideas = {
				remove_idea = HEZ_strange_activities_1
				add_idea = HEZ_strange_activities_2
			}
		}

		ai_will_do = { factor = 1 }
	}
	focus = {
		id = HEZ_the_muslim_spring
		icon = united_islamic_republics_flag

		x = 2
		y = 7

		relative_position_id = HEZ_International_Hezbollah

		prerequisite = { focus = HEZ_muslim_militias }
 		prerequisite = { focus = HEZ_first_wave_of_protests }
		available = {
			USA = {
					influence_higher_10 = yes
				}
			CAN = {
					influence_higher_10 = yes
				}
		}

		cost = 10

		search_filters = { FOCUS_FILTER_INFLUENCE FOCUS_FILTER_INSURGENCY }
		completion_reward = {
			log = "[GetDateText]: [Root.GetName]: Focus HEZ_North_American_Hezbollah"
			army_experience = -10
			set_temp_variable = { treasury_change = -15.00 }
			modify_treasury_effect = yes
			add_manpower = -1000
			add_political_power = 100
			USA = {
		   		add_war_support = -0.03
				add_popularity = {
					ideology = communism
		   			popularity = 0.05
				}
			}
			custom_effect_tooltip = rushdie_decision_unlock_TT
		}
		ai_will_do = { factor = 1 }
	}

	focus = {
		id = HEZ_Hezbollah_in_the_Middle_east
		icon = middle_eastern_hezbollah

		x = 5
		y = 1

		relative_position_id = HEZ_International_Hezbollah

		prerequisite = { focus = HEZ_International_Hezbollah }

		cost = 5

		search_filters = { FOCUS_FILTER_INFLUENCE }
		completion_reward = {
			log = "[GetDateText]: [Root.GetName]: Focus HEZ_Hezbollah_in_the_Middle_east"
			custom_effect_tooltip = HEZ_unlock_region_middle_east_TT
			set_temp_variable = { percent_change = 3 }
			set_temp_variable = { tag_index = HEZ }
			set_temp_variable = { influence_target = YEM }
			change_influence_percentage = yes
			set_temp_variable = { percent_change = 5 }
			set_temp_variable = { tag_index = HEZ }
			set_temp_variable = { influence_target = IRQ }
			change_influence_percentage = yes
			set_temp_variable = { percent_change = 5 }
			set_temp_variable = { tag_index = HEZ }
			set_temp_variable = { influence_target = SYR }
			change_influence_percentage = yes
			set_temp_variable = { percent_change = 3 }
			set_temp_variable = { tag_index = HEZ }
			set_temp_variable = { influence_target = SAU }
			change_influence_percentage = yes
		}

		ai_will_do = { factor = 1 }
	}

	focus = {
		id = HEZ_An_Inevitable_failure
		icon = syria_resistance

		x = 4
		y = 1

		relative_position_id = HEZ_Hezbollah_in_the_Middle_east

		prerequisite = {
			focus = HEZ_Hezbollah_in_the_Middle_east
		}
		available = { SYR = { has_civil_war = yes } }

		cost = 10

		search_filters = { FOCUS_FILTER_INFLUENCE }
		completion_reward = {
			log = "[GetDateText]: [Root.GetName]: Focus HEZ_An_Inevitable_failure"
			custom_effect_tooltip = HEZ_An_Inevitable_failure_TT
		}

		ai_will_do = { factor = 1 }
	}

	focus = {
		id = HEZ_Our_Brothers_in_Sanaa_and_Baghdad
		icon = support_the_left_right

		x = 0
		y = 1

		relative_position_id = HEZ_Hezbollah_in_the_Middle_east

		prerequisite = {
			focus = HEZ_Hezbollah_in_the_Middle_east
		}

		cost = 10

		search_filters = { FOCUS_FILTER_INFLUENCE }
		completion_reward = {
			log = "[GetDateText]: [Root.GetName]: Focus HEZ_Our_Brothers_in_Sanaa_and_Baghdad"
			if = {
				limit = { IRQ = { NOT = { has_government = communism } } }
				custom_effect_tooltip = HEZ_Our_Brothers_in_Sanaa_and_Baghdad_TT
			}
			if = {
				limit = { YEM = { NOT = { has_government = communism } } }
				custom_effect_tooltip = HEZ_Our_Brothers_in_Sanaa_and_Baghdad_TT2
			}
			add_political_power = 100
			set_temp_variable = { percent_change = 2 }
			set_temp_variable = { tag_index = HEZ }
			set_temp_variable = { influence_target = YEM }
			change_influence_percentage = yes
			set_temp_variable = { percent_change = 2 }
			set_temp_variable = { tag_index = HEZ }
			set_temp_variable = { influence_target = IRQ }
			change_influence_percentage = yes

		}

		ai_will_do = { factor = 1 }
	}

	focus = {
		id = HEZ_The_Army_We_Know
		icon = coalition_army

		x = -5
		y = 1

		relative_position_id = HEZ_Armed_forces

		prerequisite = { focus = HEZ_Armed_forces }

		mutually_exclusive = {
			focus = HEZ_Intervention_forces
			focus = HEZ_Defence_force
		}
		cost = 10

		search_filters = { FOCUS_FILTER_MILITARY }
		completion_reward = {
			log = "[GetDateText]: [Root.GetName]: Focus HEZ_The_Army_We_Know"
			swap_ideas = {
				remove_idea = HEZ_hezbollah_armed_forces
				add_idea = HEZ_hezbollah_armed_forces_2
			}
		}

		ai_will_do = { factor = 1 }
	}

	focus = {
		id = HEZ_Recruiting_Soldiers
		icon = recruitment

		x = -1
		y = 1

		relative_position_id = HEZ_Conquer_Lebanon

		prerequisite = { focus = HEZ_Conquer_Lebanon }

		cost = 10

		search_filters = { FOCUS_FILTER_POLITICAL }
		completion_reward = {
			log = "[GetDateText]: [Root.GetName]: Focus HEZ_Recruiting_Soldiers"
			swap_ideas = {
				remove_idea = HEZ_militant_group_3
				add_idea = HEZ_militant_group_4
			}
		}

		ai_will_do = { factor = 1 }
	}

	focus = {
		id = HEZ_Gathering_Equipment
		icon = small_arms_east

		x = 1
		y = 1

		relative_position_id = HEZ_Conquer_Lebanon

		prerequisite = { focus = HEZ_Conquer_Lebanon }

		cost = 10

		available = {
			country_exists = PER
			PER = {
				OR = {
					emerging_hardline_shiite_are_in_power = yes
					emerging_moderate_shiite_are_in_power = yes
				}
			}
		}
		bypass = {
			NOT = {
				OR = {
					country_exists = PER
					PER = {
						OR = {
							emerging_hardline_shiite_are_in_power = yes
							emerging_moderate_shiite_are_in_power = yes
						}
					}
				}
			}
		}

		search_filters = { FOCUS_FILTER_POLITICAL }
		completion_reward = {
			log = "[GetDateText]: [Root.GetName]: Focus HEZ_Gathering_Equipment"
			add_equipment_to_stockpile = {
				type = Inf_equipment
				amount = 5000
				producer = PER
			}
			add_equipment_to_stockpile = {
				type = cnc_equipment
				amount = 2000
				producer = PER
			}
			add_equipment_to_stockpile = {
				type = AA_Equipment
				amount = 100
				producer = PER
			}
			add_equipment_to_stockpile = {
				type = L_AT_Equipment
				amount = 100
				producer = PER
			}
		}

		ai_will_do = { factor = 1 }
	}

	focus = {
		id = HEZ_Rightful_Clay
		icon = hezbollah_soldiers

		x = 0
		y = 1

		relative_position_id = HEZ_Recruiting_Soldiers

		prerequisite = { focus = HEZ_Recruiting_Soldiers }

		cost = 10

		search_filters = { FOCUS_FILTER_POLITICAL }
		completion_reward = {
			log = "[GetDateText]: [Root.GetName]: Focus HEZ_Rightful_Clay"
			swap_ideas = {
				remove_idea = HEZ_militant_group_4
				add_idea = HEZ_militant_group_5
			}
		}

		ai_will_do = { factor = 1 }
	}

	focus = {
		id = HEZ_Recruiting_Loyalists
		icon = iranian_soldier

		x = 0
		y = 1

		relative_position_id = HEZ_Seeking_Allies

		prerequisite = { focus = HEZ_Seeking_Allies }

		cost = 10

		search_filters = { FOCUS_FILTER_POLITICAL }
		completion_reward = {
			log = "[GetDateText]: [Root.GetName]: Focus HEZ_Recruiting_Loyalists"
			add_ideas = HEZ_wave_of_volunteers
		}

		ai_will_do = { factor = 1 }
	}

	focus = {
		id = HEZ_Defectors_of_the_LAF
		icon = Generic_Outside_Aid

		x = 0
		y = 1

		relative_position_id = HEZ_Gathering_Equipment

		prerequisite = { focus = HEZ_Gathering_Equipment }

		cost = 10

		available = {
			LEB = {
				influence_higher_5 = yes
			}
		}
		search_filters = { FOCUS_FILTER_POLITICAL }
		completion_reward = {
			log = "[GetDateText]: [Root.GetName]: Focus HEZ_Defectors_of_the_LAF"
			custom_effect_tooltip = HEZ_defector_resources_based_on_influence_TT
			country_event = {
				id = hezbollah_events.1
				days = 0
			}
		}

		ai_will_do = { factor = 1 }
	}

	focus = {
		id = HEZ_Skirmish_Raids
		icon = border_war

		x = 1
		y = 1

		relative_position_id = HEZ_Rightful_Clay

		prerequisite = { focus = HEZ_Rightful_Clay }
		prerequisite = { focus = HEZ_Defectors_of_the_LAF }

		cost = 10

		search_filters = { FOCUS_FILTER_POLITICAL }
		completion_reward = {
			log = "[GetDateText]: [Root.GetName]: Focus HEZ_Skirmish_Raids"
			unlock_decision_category_tooltip = HEZ_border_skirmish_lebanon
		}

		ai_will_do = { factor = 1 }
	}

	focus = {
		id = HEZ_War_for_Lebanon
		icon = war2_green

		x = 0
		y = 1

		relative_position_id = HEZ_Skirmish_Raids

		prerequisite = { focus = HEZ_Skirmish_Raids }

		cost = 10

		search_filters = { FOCUS_FILTER_POLITICAL }
		will_lead_to_war_with = LEB
		completion_reward = {
			news_event = hezbollah_events.41
			log = "[GetDateText]: [Root.GetName]: Focus HEZ_War_for_Lebanon"
			set_cosmetic_tag = ISLAMIC_REPUBLIC_OF_LEBANON
			if = {
				limit = {
					any_country = {
						has_guaranteed = LEB
					}
				}
				every_country = {
					limit = {
						has_guaranteed = LEB
					}
					diplomatic_relation = {
						country = LEB
						relation = guarantee
						active = no
					}
				}
			}
			declare_war_on = {
				target = LEB
				type = take_core_state
			}
		}

		ai_will_do = {
			factor = 1
			modifier = {
				factor = 0
				LEB = { is_subject_of = SYR }
			}
			modifier = {
				factor = 0
				strength_ratio = {
					tag = LEB
					ratio > 0.8
				}
			}
		}
	}

	focus = {
		id = HEZ_Turning_South
		icon = border_conflict_bunker

		x = 0
		y = 1

		relative_position_id = HEZ_War_for_Lebanon

		prerequisite = { focus = HEZ_War_for_Lebanon }

		cost = 10

		search_filters = { FOCUS_FILTER_POLITICAL }
		completion_reward = {
			log = "[GetDateText]: [Root.GetName]: Focus HEZ_Turning_South"
			unlock_decision_category_tooltip = HEZ_border_skirmish_israel
		}

		ai_will_do = { factor = 1 }
	}

	focus = {
		id = HEZ_Neutralizing_the_Threat
		icon = attack_israel_iran

		x = 0
		y = 1

		relative_position_id = HEZ_Turning_South

		prerequisite = { focus = HEZ_Turning_South }

		cost = 10

		search_filters = { FOCUS_FILTER_POLITICAL }
		will_lead_to_war_with = ISR
		completion_reward = {
			news_event = hezbollah_events.42
			log = "[GetDateText]: [Root.GetName]: Focus HEZ_Neutralizing_the_Threat"
			create_wargoal = {
				type = liberate_wargoal
				target = ISR
			}
		}

		ai_will_do = { factor = 1 }
	}

	focus = {
		id = HEZ_Vilayat-e-faqih
		icon = khomeini

		x = -2
		y = 1

		relative_position_id = HEZ_Religion_in_Focus

		prerequisite = { focus = HEZ_Religion_in_Focus }

		available = { has_idea = the_ulema }

		cost = 10

		search_filters = { FOCUS_FILTER_STABILITY }
		completion_reward = {
			log = "[GetDateText]: [Root.GetName]: Focus HEZ_Vilayat-e-faqih"
			add_stability = 0.05
			set_temp_variable = { temp_opinion = 5 }
			change_the_ulema_opinion = yes

		}

		ai_will_do = { factor = 1 }
	}

	focus = {
		id = HEZ_The_Council_of_12
		icon = self_management

		x = 0
		y = 1

		relative_position_id = HEZ_Religion_in_Focus

		prerequisite = { focus = HEZ_Religion_in_Focus }

		available = { has_idea = the_ulema }

		cost = 10

		search_filters = { FOCUS_FILTER_STABILITY }
		completion_reward = {
			log = "[GetDateText]: [Root.GetName]: Focus HEZ_The_Council_of_12"
			add_ideas = { HEZ_council_of_12 }
		}

		ai_will_do = { factor = 1 }
	}

	focus = {
		id = HEZ_Deputy_leader
		icon = naim_qassim_portrait_icon

		x = 0
		y = 1

		relative_position_id = HEZ_The_Council_of_12

		prerequisite = { focus = HEZ_The_Council_of_12 }

		available = { has_idea = the_ulema }

		cost = 10

		search_filters = { FOCUS_FILTER_STABILITY }
		completion_reward = {
			log = "[GetDateText]: [Root.GetName]: Focus HEZ_Deputy_leader"
			add_ideas = HEZ_naim_qassim
		}

		ai_will_do = { factor = 1 }
	}

	focus = {
		id = HEZ_The_Blue_Shirt_Kids
		icon = soldier

		x = 0
		y = 1

		relative_position_id = HEZ_Vilayat-e-faqih

		prerequisite = { focus = HEZ_Vilayat-e-faqih }
		available = {
			has_idea = the_ulema
			NOT = {
				has_idea = draft_army
			}
		}
		cost = 10

		search_filters = { FOCUS_FILTER_STABILITY }
		completion_reward = {
			log = "[GetDateText]: [Root.GetName]: Focus HEZ_The_Blue_Shirt_Kids"
			add_ideas = HEZ_blue_shirt_kids
		}

		ai_will_do = { factor = 1 }
	}

	focus = {
		id = HEZ_Taabia
		icon = military_academy

		x = 1
		y = 1

		relative_position_id = HEZ_The_Army_We_Know

		prerequisite = { focus = HEZ_The_Army_We_Know }

		cost = 10

		search_filters = { FOCUS_FILTER_MILITARY }

		completion_reward = {
			log = "[GetDateText]: [Root.GetName]: Focus HEZ_Taabia"
			if = {
				limit = {
					has_idea = HEZ_hezbollah_armed_forces_2
				}
				swap_ideas = {
					remove_idea = HEZ_hezbollah_armed_forces_2
					add_idea = HEZ_hezbollah_armed_forces_4_A

				}
			}
			else = {
				swap_ideas = {
					remove_idea = HEZ_hezbollah_armed_forces_3_A
					add_idea = HEZ_hezbollah_armed_forces_4_B
				}
			}
			# swap_ideas = {
			# 	remove_idea = HEZ_hezbollah_armed_forces_3
			# 	add_idea = HEZ_hezbollah_armed_forces_4
			# }
		}

		ai_will_do = { factor = 1 }
	}

	focus = {
		id = HEZ_Intervention_forces
		icon = volunteers

		x = 0
		y = 1

		relative_position_id = HEZ_Armed_forces

		prerequisite = { focus = HEZ_Armed_forces }
		available = { has_completed_focus = HEZ_Our_own_state }

		mutually_exclusive = {
			focus = HEZ_Defence_force
			focus = HEZ_The_Army_We_Know
		}

		cost = 10

		search_filters = { FOCUS_FILTER_MILITARY }
		completion_reward = {
			log = "[GetDateText]: [Root.GetName]: Focus HEZ_Intervention_forces"
			swap_ideas = {
				remove_idea = syrian_hezbollah
				add_idea = syrian_hezbollah_2
			}
			swap_ideas = {
				remove_idea = katib_hezbollah
				add_idea = katib_hezbollah_2
			}
			army_experience = 50
		}

		ai_will_do = { factor = 1
		modifier = {
			factor = 0
			is_historical_focus_on = yes
		}
	}
	}

	focus = {
		id = HEZ_Al-Radwan
		icon = al_radwan

		x = 0
		y = 1

		relative_position_id = HEZ_Taabia

		prerequisite = { focus = HEZ_Taabia }

		cost = 10

		search_filters = { FOCUS_FILTER_MILITARY }
		completion_reward = {
			log = "[GetDateText]: [Root.GetName]: Focus HEZ_Al-Radwan"
			add_tech_bonus = {
				name = HEZ_Al-Radwan
				bonus = 0.50
				uses = 2
				category = CAT_special_forces
			}
		}

		ai_will_do = { factor = 1 }
	}

	focus = {
		id = HEZ_Specialized_Equipment
		icon = lend_lease

		x = -1
		y = 1

		relative_position_id = HEZ_The_Army_We_Know

		prerequisite = { focus = HEZ_The_Army_We_Know }

		cost = 10

		search_filters = { FOCUS_FILTER_MILITARY FOCUS_FILTER_EQUIPMENT }
		completion_reward = {
			log = "[GetDateText]: [Root.GetName]: Focus HEZ_Specialized_Equipment"
			add_tech_bonus = {
				name = HEZ_Specialized_Equipment
				bonus = 0.5
				uses = 1
				category = CAT_inf_wep
			}
			add_tech_bonus = {
				name = HEZ_Specialized_Equipment
				bonus = 0.5
				uses = 1
				category = CAT_at
			}
		}
		ai_will_do = { factor = 1 }
	}

	focus = {
		id = HEZ_Iranian_Training_Camps
		icon = Generic_Infantry_Training

		x = 0
		y = 1

		relative_position_id = HEZ_Specialized_Equipment

		prerequisite = { focus = HEZ_Specialized_Equipment }

		cost = 10
		available = {
			PER = {
				OR = {
					emerging_hardline_shiite_are_in_power = yes
					emerging_moderate_shiite_are_in_power = yes
				}
			}
		}
		search_filters = { FOCUS_FILTER_MILITARY }
		completion_reward = {
			log = "[GetDateText]: [Root.GetName]: Focus HEZ_Iranian_Training_Camps"
			if = {
				limit = {
					has_idea = HEZ_hezbollah_armed_forces_4_A
				}
				swap_ideas = {
					remove_idea = HEZ_hezbollah_armed_forces_4_A
					add_idea = HEZ_hezbollah_armed_forces_3_B
				}
			}
			else = {
				swap_ideas = {
					remove_idea = HEZ_hezbollah_armed_forces_2
					add_idea = HEZ_hezbollah_armed_forces_3_A
				}
			}
			# swap_ideas = {
			# 	remove_idea = HEZ_hezbollah_armed_forces_2
			# 	add_idea = HEZ_hezbollah_armed_forces_3
			# }
		}

		ai_will_do = { factor = 1 }
	}

	focus = {
		id = HEZ_Support_for_our_Militia
		icon = artillery3

		x = 0
		y = 1

		relative_position_id = HEZ_Al-Radwan

		prerequisite = { focus = HEZ_Al-Radwan }

		cost = 10

		search_filters = { FOCUS_FILTER_MILITARY FOCUS_FILTER_EQUIPMENT }
		completion_reward = {
			log = "[GetDateText]: [Root.GetName]: Focus HEZ_Support_for_our_Militia"
			add_tech_bonus = {
				name = HEZ_Support_for_our_Militia
				bonus = 0.25
				uses = 2
				category = CAT_artillery
			}
			add_tech_bonus = {
				name = HEZ_Support_for_our_Militia
				bonus = 0.25
				uses = 3
				category = CAT_sp_arty
			}
		}

		ai_will_do = { factor = 1 }
	}

	focus = {
		id = HEZ_iranian_missiles
		icon = IRGC_missile

		x = 0
		y = 1

		relative_position_id = HEZ_Iranian_Training_Camps

		prerequisite = { focus = HEZ_Iranian_Training_Camps }

		cost = 10
		available = {
			PER = {
				OR = {
					emerging_hardline_shiite_are_in_power = yes
					emerging_moderate_shiite_are_in_power = yes
				}
			}
		}
		search_filters = { FOCUS_FILTER_MILITARY FOCUS_FILTER_EQUIPMENT }
		completion_reward = {
			log = "[GetDateText]: [Root.GetName]: Focus HEZ_iranian_missiles"
			add_to_array = { array = missile_inventory_array value = 20 index = 51 }
			custom_effect_tooltip = HEZ_GLCM_tt
			add_ideas = HEZ_iranian_missile_aid
			set_technology = {
				cruise_missile = 1
				GLCM = 1
				TEL_launched_missiles = 1
				GLCM1 = 1
				conventional_warhead_0 = 1
				conventional_warhead_1 = 1
			}
		}

		ai_will_do = { factor = 1 }
	}

	focus = {
		id = HEZ_Al-Manar
		icon = al_manar

		x = 2
		y = 1

		relative_position_id = HEZ_Religion_in_Focus

		prerequisite = { focus = HEZ_Religion_in_Focus }

		available = { has_idea = the_ulema }

		cost = 10

		search_filters = { FOCUS_FILTER_STABILITY }
		completion_reward = {
			log = "[GetDateText]: [Root.GetName]: Focus HEZ_Al-Manar"
			add_ideas = HEZ_al_manar
		}

		ai_will_do = { factor = 1 }
	}

	focus = {
		id = HEZ_Satellite_link_up
		icon = international_space_station

		x = 0
		y = 1

		relative_position_id = HEZ_Al-Manar

		prerequisite = { focus = HEZ_Al-Manar }

		available = { has_idea = the_ulema }

		cost = 10

		search_filters = { FOCUS_FILTER_STABILITY }
		completion_reward = {
			log = "[GetDateText]: [Root.GetName]: Focus HEZ_Satellite_link_up"
			every_neighbor_country = {
			add_ideas = HEZ_hezbollah_is_watching_you
			}
			swap_ideas = {
				remove_idea = HEZ_al_manar
				add_idea = HEZ_al_manar_2
			}

		}

		ai_will_do = { factor = 1 }
	}

	focus = {
		id = HEZ_Lujnat_Imdad_al-khomeini
		icon = support_committe

		x = -1
		y = 1

		relative_position_id = HEZ_Deputy_leader

		prerequisite = { focus = HEZ_Deputy_leader }
		prerequisite = { focus = HEZ_The_Blue_Shirt_Kids }
		prerequisite = { focus = HEZ_Satellite_link_up }

		available = { has_idea = the_ulema }

		cost = 10

		search_filters = { FOCUS_FILTER_STABILITY }
		completion_reward = {
			log = "[GetDateText]: [Root.GetName]: Focus HEZ_Lujnat_Imdad_al-khomeini"
			remove_ideas = {
				HEZ_blue_shirt_kids
				HEZ_al_manar_2
			}
			add_ideas = HEZ_lujnat_imdad_al_khomeini
		}

		ai_will_do = { factor = 1 }
	}

	focus = {
		id = HEZ_Increasing_our_presence_aboard
		icon = military_planning

		x = -1
		y = 1

		relative_position_id = HEZ_Intervention_forces

		prerequisite = { focus = HEZ_Intervention_forces }

		cost = 10
		search_filters = { FOCUS_FILTER_MILITARY }
		completion_reward = {
			log = "[GetDateText]: [Root.GetName]: Focus HEZ_Increasing_our_presence_aboard"
			swap_ideas = {
				remove_idea = syrian_hezbollah_2
				add_idea = syrian_hezbollah_3
			}
			swap_ideas = {
				remove_idea = katib_hezbollah_2
				add_idea = katib_hezbollah_3
			}
		}

		ai_will_do = { factor = 1 }
	}

	focus = {
		id = HEZ_Hezbollahs_International_recruitment
		icon = recruitment

		x = 1
		y = 1

		relative_position_id = HEZ_Intervention_forces

		prerequisite = { focus = HEZ_Intervention_forces }

		cost = 10

		search_filters = { FOCUS_FILTER_MILITARY }
		completion_reward = {
			log = "[GetDateText]: [Root.GetName]: Focus HEZ_Hezbollahs_International_recruitment"
			if = {
				limit = {
					has_idea = HEZ_hezbollah_armed_forces_5_A
				}
				swap_ideas = {
					remove_idea = HEZ_hezbollah_armed_forces_5_A
					add_idea = HEZ_hezbollah_armed_forces_6_B

				}
			}
			else = {
				swap_ideas = {
					remove_idea = HEZ_hezbollah_armed_forces
					add_idea = HEZ_hezbollah_armed_forces_6_A
				}
			}
			# swap_ideas = {
			# 	remove_idea = HEZ_hezbollah_armed_forces_5
			# 	add_idea = HEZ_hezbollah_armed_forces_6_A
			# }
		}

		ai_will_do = { factor = 1 }
	}

	focus = {
		id = HEZ_Militarizing_our_society
		icon = Generic_Liberation

		x = 0
		y = 1

		relative_position_id = HEZ_Increasing_our_presence_aboard

		prerequisite = { focus = HEZ_Increasing_our_presence_aboard }

		cost = 10

		search_filters = { FOCUS_FILTER_MILITARY }
		completion_reward = {
			log = "[GetDateText]: [Root.GetName]: Focus HEZ_Militarizing_our_society"
			if = {
				limit = {
					has_idea = HEZ_hezbollah_armed_forces_6_A
				}
				swap_ideas = {
					remove_idea = HEZ_hezbollah_armed_forces_6_A
					add_idea = HEZ_hezbollah_armed_forces_5_B
				}
			}
			else = {
				swap_ideas = {
					remove_idea = HEZ_hezbollah_armed_forces
					add_idea = HEZ_hezbollah_armed_forces_5_A
				}
			}
			# swap_ideas = {
			# 	remove_idea = HEZ_hezbollah_armed_forces
			# 	add_idea = HEZ_hezbollah_armed_forces_5
			# }
		}

		ai_will_do = { factor = 1 }
	}

	focus = {
		id = HEZ_Expand_Hezbollahs_Secret_Service
		icon = intelligence_exchange

		x = 1
		y = 1

		relative_position_id = HEZ_Militarizing_our_society

		prerequisite = { focus = HEZ_Militarizing_our_society }
		prerequisite = { focus = HEZ_Specialized_Agents }

		cost = 10

		search_filters = { FOCUS_FILTER_MILITARY }
		completion_reward = {
			log = "[GetDateText]: [Root.GetName]: Focus HEZ_Expand_Hezbollahs_Secret_Service"
			swap_ideas = {
				remove_idea = HEZ_secret_service
				add_idea = HEZ_secret_service_2
			}
		}

		ai_will_do = { factor = 1 }
	}

	focus = {
		id = HEZ_Specialized_Agents
		icon = Generic_Intelligence_Gathering

		x = 0
		y = 1

		relative_position_id = HEZ_Hezbollahs_International_recruitment

		prerequisite = { focus = HEZ_Hezbollahs_International_recruitment }

		cost = 10

		search_filters = { FOCUS_FILTER_MILITARY }
		completion_reward = {
			log = "[GetDateText]: [Root.GetName]: Focus HEZ_Specialized_Agents"
			add_ideas = HEZ_secret_service
		}

		ai_will_do = { factor = 1 }
	}

	focus = {
		id = HEZ_Proper_use_of_recon
		icon = recon

		x = 0
		y = 1

		relative_position_id = HEZ_Expand_Hezbollahs_Secret_Service

		prerequisite = { focus = HEZ_Expand_Hezbollahs_Secret_Service }

		cost = 10

		search_filters = { FOCUS_FILTER_MILITARY }
		completion_reward = {
			log = "[GetDateText]: [Root.GetName]: Focus HEZ_Proper_use_of_recon"
			if = {
				limit = {
					has_idea = HEZ_hezbollah_armed_forces_6_B
				}
				swap_ideas = {
					remove_idea = HEZ_hezbollah_armed_forces_6_B
					add_idea = HEZ_hezbollah_armed_forces_7
				}
			}
			else = {
				swap_ideas = {
					remove_idea = HEZ_hezbollah_armed_forces_5_B
					add_idea = HEZ_hezbollah_armed_forces_7
				}
			}
		}

		ai_will_do = { factor = 1 }
	}

	focus = {
		id = HEZ_Preparing_an_airforce
		icon = fighter_plane

		x = -2
		y = 1

		relative_position_id = HEZ_Defence_force

		prerequisite = { focus = HEZ_Defence_force }

		cost = 10

		search_filters = { FOCUS_FILTER_MILITARY }
		completion_reward = {
			log = "[GetDateText]: [Root.GetName]: Focus HEZ_Preparing_an_airforce"
			201 = {
				add_building_construction = {
					type = air_base
					level = 1
					instant_build = yes
				}
				add_building_construction = {
					type = anti_air_building
					level = 2
					instant_build = yes
				}
			}
			set_temp_variable = { treasury_change = -9 }
			modify_treasury_effect = yes
		}

		ai_will_do = { factor = 1 }
	}

	focus = {
		id = HEZ_Defending_Our_Shores
		icon = coastal_fort

		x = 0
		y = 1

		relative_position_id = HEZ_Defence_force

		prerequisite = { focus = HEZ_Defence_force }

		cost = 10

		search_filters = { FOCUS_FILTER_MILITARY }
		completion_reward = {
			log = "[GetDateText]: [Root.GetName]: Focus HEZ_Defending_Our_Shores"
			201 = {
				add_building_construction = {
					type = coastal_bunker
					level = 2
					instant_build = yes
					province = { all_provinces = yes }
				}
				add_building_construction = {
					type = naval_base
					level = 1
					instant_build = yes
					province = { id = 11919 }
				}
			}
			set_temp_variable = { treasury_change = -1.50 }
			modify_treasury_effect = yes
		}

		ai_will_do = { factor = 1 }
	}

	focus = {
		id = HEZ_Producing_Equipment
		icon = Focus_Rifle_Production

		x = 2
		y = 1

		relative_position_id = HEZ_Defence_force

		prerequisite = { focus = HEZ_Defence_force }

		cost = 10

		search_filters = { FOCUS_FILTER_EQUIPMENT FOCUS_FILTER_MILITARY FOCUS_FILTER_INDUSTRY }
		completion_reward = {
			log = "[GetDateText]: [Root.GetName]: Focus HEZ_Producing_Equipment"
			201 = {
				add_extra_state_shared_building_slots = 1
				add_building_construction = {
					type = arms_factory
					level = 1
					instant_build = yes
				}
			}
			set_temp_variable = { treasury_change = -7.50 }
			modify_treasury_effect = yes
		}

		ai_will_do = { factor = 1 }
	}

	focus = {
		id = HEZ_Establish_a_Flight_School
		icon = Generic_Pilots

		x = 0
		y = 1

		relative_position_id = HEZ_Preparing_an_airforce

		prerequisite = { focus = HEZ_Preparing_an_airforce }

		cost = 10

		search_filters = { FOCUS_FILTER_MILITARY }
		completion_reward = {
			log = "[GetDateText]: [Root.GetName]: Focus HEZ_Establish_a_Flight_School"
			add_tech_bonus = {
				name = HEZ_Establish_a_Flight_School
				bonus = 0.5
				uses = 2
				category = CAT_air_eqp
			}
			swap_ideas = {
				remove_idea = HEZ_hezbollah_armed_forces_9
				add_idea = HEZ_hezbollah_armed_forces_10
			}
		}

		ai_will_do = { factor = 1 }
	}

	focus = {
		id = HEZ_Protecting_our_Borders
		icon = military_fort

		x = 2
		y = 1

		relative_position_id = HEZ_Establish_a_Flight_School

		prerequisite = { focus = HEZ_Establish_a_Flight_School }
		prerequisite = { focus = HEZ_Getting_off_our_shores }
		prerequisite = { focus = HEZ_Updating_our_Equipment }

		cost = 10

		search_filters = { FOCUS_FILTER_MILITARY }
		completion_reward = {
			log = "[GetDateText]: [Root.GetName]: Focus HEZ_Protecting_our_Borders"
			201 = {
				add_building_construction = {
					type = bunker
					level = 2
				}
				add_building_construction = {
					type = radar_station
					level = 3
				}
			}
			set_temp_variable = { treasury_change = -6.25 }
			modify_treasury_effect = yes
		}

		ai_will_do = { factor = 1 }
	}

	focus = {
		id = HEZ_Peoples_Support_For_Hezbollah
		icon = support_the_left_right

		x = 1
		y = 1

		relative_position_id = HEZ_Lujnat_Imdad_al-khomeini

		prerequisite = { focus = HEZ_Lujnat_Imdad_al-khomeini }
		prerequisite = { focus = HEZ_Volunteers_Of_All_Beliefs }

		available = { has_idea = the_ulema }

		cost = 10

		search_filters = { FOCUS_FILTER_STABILITY }
		completion_reward = {
			log = "[GetDateText]: [Root.GetName]: Focus HEZ_Peoples_Support_For_Hezbollah"
			hidden_effect = {
				remove_ideas = {
					HEZ_lujnat_imdad_al_khomeini
					HEZ_Council_of_12
				}
				add_ideas = HEZ_peoples_support_for_hezbollah_1
			}
			custom_effect_tooltip = HEZ_peoples_support
		}

		ai_will_do = { factor = 1 }
	}

	focus = {
		id = HEZ_Volunteers_Of_All_Beliefs
		icon = aid_quran

		x = 1
		y = 1

		relative_position_id = HEZ_Deputy_leader

		prerequisite = { focus = HEZ_Deputy_leader }
		prerequisite = { focus = HEZ_Satellite_link_up }
		prerequisite = { focus = HEZ_The_Blue_Shirt_Kids }

		available = { has_idea = the_ulema }

		cost = 10

		search_filters = { FOCUS_FILTER_STABILITY }
		completion_reward = {
			log = "[GetDateText]: [Root.GetName]: Focus HEZ_Volunteers_Of_All_Beliefs"
			add_manpower = 10000
			add_war_support = 0.05
			add_ideas = HEZ_volunteers_of_all_beliefs
		}

		ai_will_do = { factor = 1 }
	}

	focus = {
		id = HEZ_Getting_off_our_shores
		icon = battleships

		x = 0
		y = 1

		relative_position_id = HEZ_Defending_Our_Shores

		prerequisite = { focus = HEZ_Defending_Our_Shores }

		cost = 10

		search_filters = { FOCUS_FILTER_EQUIPMENT FOCUS_FILTER_MILITARY FOCUS_FILTER_INDUSTRY }
		completion_reward = {
			log = "[GetDateText]: [Root.GetName]: Focus HEZ_Getting_off_our_shores"
			add_tech_bonus = {
				bonus = 0.5
				uses = 2
				category = CAT_surface_ship
			}
			201 = {
				add_extra_state_shared_building_slots = 1
				add_building_construction = {
					type = dockyard
					level = 1
				}
			}
			set_temp_variable = { treasury_change = -7.50 }
			modify_treasury_effect = yes
		}

		ai_will_do = { factor = 1 }
	}

	focus = {
		id = HEZ_Updating_our_Equipment
		icon = Focus_Study_Submachineguns

		x = 0
		y = 1

		relative_position_id = HEZ_Producing_Equipment

		prerequisite = { focus = HEZ_Producing_Equipment }

		cost = 10

		search_filters = { FOCUS_FILTER_MILITARY }
		completion_reward = {
			log = "[GetDateText]: [Root.GetName]: Focus HEZ_Updating_our_Equipment"
			add_tech_bonus = {
				name = HEZ_Updating_our_Equipment
				bonus = 0.5
				uses = 1
				category = CAT_inf
			}
			add_tech_bonus = {
				name = HEZ_Updating_our_Equipment
				bonus = 0.5
				uses = 1
				category = CAT_cnc
			}
			add_doctrine_cost_reduction = {
				cost_reduction = 0.5
				name = HEZ_Updating_our_Equipment
				uses = 2
				category = CAT_land_doctrine
			}
		}

		ai_will_do = { factor = 1 }
	}

	focus = {
		id = HEZ_Co_existence
		icon = co_existance

		x = 0
		y = 1

		relative_position_id = HEZ_Party_of_God

		prerequisite = { focus = HEZ_Party_of_God }

		mutually_exclusive = {
			focus = HEZ_Our_own_state
			focus = HEZ_Conquer_Lebanon
		}

		cost = 10

		search_filters = { FOCUS_FILTER_POLITICAL }
		completion_reward = {
			log = "[GetDateText]: [Root.GetName]: Focus HEZ_Co_existence"
			if = {
				limit = {
					has_idea = iranian_aid
				}
				custom_effect_tooltip = HEZ_iranian_aid_changes_TT
				swap_ideas = {
					remove_idea = iranian_aid
					add_idea = iranian_aid_2
				}
			}
			else = {
				add_ideas = iranian_aid_2
			}
			remove_state_core = 202
			remove_state_core = 553
			remove_state_core = 203
			add_opinion_modifier = {
				target = LEB
				modifier = declaration_of_friendship
			}
			LEB = {
				remove_state_core = 201
				remove_opinion_modifier = {
					target = HEZ
					modifier = holds_our_cores
				}
				remove_opinion_modifier = {
					target = HEZ
					modifier = claims_on_us
				}
				add_opinion_modifier = {
					target = HEZ
					modifier = declaration_of_friendship
				}
			}
		}

		ai_will_do = { factor = 1 }
	}

	focus = {
		id = HEZ_Influence_Lebanese_politics
		icon = diplomacy

		x = -1
		y = 1

		relative_position_id = HEZ_Co_existence

		prerequisite = { focus = HEZ_Co_existence }

		cost = 10

		search_filters = { FOCUS_FILTER_POLITICAL }
		completion_reward = {
			log = "[GetDateText]: [Root.GetName]: Focus HEZ_Influence_Lebanese_politics"
			set_temp_variable = { percent_change = 10 }
			set_temp_variable = { tag_index = HEZ }
			set_temp_variable = { influence_target = LEB }
			change_influence_percentage = yes
			LEB = {
				add_ideas = HEZ_hezbollah_influencing_lebanon
			}
		}

		ai_will_do = { factor = 1 }
	}

	focus = {
		id = HEZ_Increased_Iranian_Support
		icon = align_to_iran

		x = 0
		y = 1

		relative_position_id = HEZ_Influence_Lebanese_politics

		prerequisite = { focus = HEZ_Influence_Lebanese_politics }

		bypass = {
			OR = {
 				NOT = {
					country_exists = PER
					PER = { has_government = communism }
				}
				has_war_with = PER
			}
		}

		cost = 10
		available = {
			country_exists = PER
			PER = {
				OR = {
					emerging_hardline_shiite_are_in_power = yes
					emerging_moderate_shiite_are_in_power = yes
				}
			}
		}
		bypass = {
			NOT = {
				OR = {
					country_exists = PER
					PER = {
						OR = {
							emerging_hardline_shiite_are_in_power = yes
							emerging_moderate_shiite_are_in_power = yes
						}
					}
				}
			}
		}
		search_filters = { FOCUS_FILTER_POLITICAL }
		completion_reward = {
			log = "[GetDateText]: [Root.GetName]: Focus HEZ_Increased_Iranian_Support"
			custom_effect_tooltip = HEZ_iranian_aid_income_based_on_influence_TT
		}

		ai_will_do = { factor = 1 }
	}

	focus = {
		id = HEZ_Hezbollah_and_the_LAF
		icon = LAF

		x = 1
		y = 1

		relative_position_id = HEZ_Co_existence

		available = {
			has_opinion = {
				target = LEB
				value > 9
			}
			LEB = {
				has_opinion = {
					target = HEZ
					value > 9
				}
			}
		}
		prerequisite = { focus = HEZ_Co_existence }

		cost = 10

		search_filters = { FOCUS_FILTER_POLITICAL }
		completion_reward = {
			log = "[GetDateText]: [Root.GetName]: Focus HEZ_Hezbollah_and_the_LAF"
			diplomatic_relation = {
				country = LEB
				relation = non_aggression_pact
				active = yes
			}
			add_ideas = HEZ_the_LAF
		}

		ai_will_do = { factor = 1 }
	}

	focus = {
		id = HEZ_Memory_of_AMIA
		icon = TheArgentiantrheat

		x = 0
		y = 1

		relative_position_id = HEZ_Latin_American_Hezbollah

		prerequisite = { focus = HEZ_Latin_American_Hezbollah }

		cost = 10

		search_filters = { FOCUS_FILTER_INFLUENCE }
		completion_reward = {
			log = "[GetDateText]: [Root.GetName]: Focus HEZ_Memory_of_AMIA"
			unlock_decision_category_tooltip = HEZ_our_step_in_latin_america_decisions
		}

		ai_will_do = { factor = 1 }
	}

	focus = {
		id = HEZ_Anti_Zionist_Parties
		icon = attack_israel

		x = -1
		y = 1

		relative_position_id = HEZ_Memory_of_AMIA

		prerequisite = { focus = HEZ_Memory_of_AMIA }

		cost = 10

		search_filters = { FOCUS_FILTER_INFLUENCE }
		completion_reward = {
			log = "[GetDateText]: [Root.GetName]: Focus HEZ_Anti_Zionist_Parties"
			custom_effect_tooltip = HEZ_Anti_Zionist_Parties_TT
			ARG = {
				add_timed_idea = {
					idea = HEZ_eastern_propaganda
					days = 365
				}
			}
			set_temp_variable = { percent_change = 5 }
			set_temp_variable = { tag_index = HEZ }
			set_temp_variable = { influence_target = ARG }
			change_influence_percentage = yes
		}

		ai_will_do = { factor = 1 }
	}

	focus = {
		id = HEZ_Our_Era
		icon = MEX_Cartel_terrorism

		x = 1
		y = 1

		relative_position_id = HEZ_Anti_Zionist_Parties

		prerequisite = { focus = HEZ_Anti_Zionist_Parties }
		prerequisite = { focus = HEZ_New_Contracts_with_Drug_Cartels }

		cost = 10

		search_filters = { FOCUS_FILTER_INFLUENCE FOCUS_FILTER_INSURGENCY }
		completion_reward = {
			log = "[GetDateText]: [Root.GetName]: Focus HEZ_Our_Era"
			add_ideas = HEZ_our_cartels_in_south_america
			every_country = {
				limit = { capital_scope = { is_on_continent = south_america } }
				add_timed_idea = {
					idea = HEZ_unknown_cartel_operations
					days = 60
				}
			}
		}

		ai_will_do = { factor = 1 }
	}

	focus = {
		id = HEZ_New_Contracts_with_Drug_Cartels
		icon = legalize_all_drugs

		x = 1
		y = 1

		relative_position_id = HEZ_Memory_of_AMIA

		prerequisite = { focus = HEZ_Memory_of_AMIA }

		cost = 10

		search_filters = { FOCUS_FILTER_INFLUENCE }
		completion_reward = {
			log = "[GetDateText]: [Root.GetName]: Focus HEZ_New_Contracts_with_Drug_Cartels"
 			custom_effect_tooltip = HEZ_New_Contracts_with_Drug_Cartels_TT
			set_temp_variable = { treasury_change = -10.00 }
			modify_treasury_effect = yes
			ARG = {
				every_neighbor_country = {
					add_stability = -0.05
				}
				set_temp_variable = { cart_strength_change = 2 }
				set_temp_variable = { cart_influence_change = 2 }
				modify_cartel_variables_effect = yes
			}
		}

		ai_will_do = { factor = 1 }
	}

	focus = {
		id = HEZ_A_Remembrance_to_an_old_friend
		icon = align_to_nigeria

		x = 0
		y = 1

		relative_position_id = HEZ_African_Hezbollah

		prerequisite = { focus = HEZ_African_Hezbollah }

		cost = 10

		search_filters = { FOCUS_FILTER_INFLUENCE }
		completion_reward = {
			log = "[GetDateText]: [Root.GetName]: Focus HEZ_A_Remembrance_to_an_old_friend"
			add_political_power = -50
			set_temp_variable = { percent_change = 3 }
			set_temp_variable = { tag_index = HEZ }
			set_temp_variable = { influence_target = NIG }
			change_influence_percentage = yes
		}

		ai_will_do = { factor = 1 }
	}

	focus = {
		id = HEZ_Hezbollahs_independent_industry
		icon = islamic_resistance

		x = 0
		y = 1

		relative_position_id = HEZ_Industry

		prerequisite = { focus = HEZ_Industry }
		prerequisite = { focus = HEZ_Industry }

		mutually_exclusive = {
			focus = HEZ_Puppet_state_of_Iran
			focus = HEZ_New_Backers
		}

		cost = 10

		search_filters = { FOCUS_FILTER_ECONOMY FOCUS_FILTER_INDUSTRY }
		completion_reward = {
			log = "[GetDateText]: [Root.GetName]: Focus HEZ_Hezbollahs_independent_industry"
			capital_scope = {
				add_extra_state_shared_building_slots = 1
				add_building_construction = {
					type = industrial_complex
					level = 1
					instant_build = yes
				}
			}
			set_temp_variable = { treasury_change = -7.50 }
			modify_treasury_effect = yes
		}

		ai_will_do = { factor = 1 }
	}

	focus = {
		id = HEZ_friends_in_lebanon
		icon = align_to_lebanon2

		x = 0
		y = 1

		relative_position_id = HEZ_Hezbollahs_independent_industry

		prerequisite = { focus = HEZ_Hezbollahs_independent_industry }

		bypass = { NOT = { country_exists = LEB } }

		cost = 10

		search_filters = { FOCUS_FILTER_ECONOMY }
		completion_reward = {
			log = "[GetDateText]: [Root.GetName]: Focus HEZ_Hezbollahs_independent_industry"
			set_temp_variable = { percent_change = -2.5 }
			set_temp_variable = { tag_index = HEZ }
			set_temp_variable = { influence_target = LEB }
			change_influence_percentage = yes
			set_temp_variable = { treasury_change = 6.50 }
			modify_treasury_effect = yes
		}

		ai_will_do = { factor = 1 }
	}
	focus = {
		id = HEZ_friends_in_outside
		icon = race_relations2

		x = 0
		y = 2

		relative_position_id = HEZ_Hezbollahs_independent_industry

		prerequisite = { focus = HEZ_friends_in_lebanon }


		cost = 10

		search_filters = { FOCUS_FILTER_ECONOMY }
		completion_reward = {
			log = "[GetDateText]: [Root.GetName]: Focus HEZ_Hezbollahs_independent_industry"
			add_ideas = HEZ_foreign_economical_funds
		}

		ai_will_do = { factor = 1 }
	}
	focus = {
		id = HEZ_ready_for_construction
		icon = infrastructure

		x = 0
		y = 3

		relative_position_id = HEZ_Hezbollahs_independent_industry

		prerequisite = { focus = HEZ_friends_in_outside }



		cost = 10

		search_filters = { FOCUS_FILTER_ECONOMY FOCUS_FILTER_INDUSTRY }
		completion_reward = {
			log = "[GetDateText]: [Root.GetName]: Focus HEZ_Hezbollahs_independent_industry"
			capital_scope = {
				add_extra_state_shared_building_slots = 1
				add_building_construction = {
					type = infrastructure
					level = 1
					instant_build = yes
				}
			}
			set_temp_variable = { treasury_change = -3.50 }
			modify_treasury_effect = yes
		}

		ai_will_do = { factor = 1 }
	}
	focus = {
		id = HEZ_collaboration_in_the_civilian_industry
		icon = industry_civilian

		x = -1
		y = 4

		relative_position_id = HEZ_Hezbollahs_independent_industry

		prerequisite = { focus = HEZ_ready_for_construction }



		cost = 10

		search_filters = { FOCUS_FILTER_ECONOMY FOCUS_FILTER_INDUSTRY }
		completion_reward = {
			log = "[GetDateText]: [Root.GetName]: Focus HEZ_Hezbollahs_independent_industry"
			capital_scope = {
				add_extra_state_shared_building_slots = 1
				add_building_construction = {
					type = industrial_complex
					level = 1
					instant_build = yes
				}
			}
			set_temp_variable = { treasury_change = -7.50 }
			modify_treasury_effect = yes
		}

		ai_will_do = { factor = 1 }
	}
	focus = {
		id = HEZ_collaboration_in_the_military_industry
		icon = industry_military

		x = 1
		y = 4

		relative_position_id = HEZ_Hezbollahs_independent_industry

		prerequisite = { focus = HEZ_ready_for_construction }



		cost = 10

		search_filters = { FOCUS_FILTER_ECONOMY FOCUS_FILTER_INDUSTRY }
		completion_reward = {
			log = "[GetDateText]: [Root.GetName]: Focus HEZ_Hezbollahs_independent_industry"
			capital_scope = {
				add_extra_state_shared_building_slots = 1
				add_building_construction = {
					type = arms_factory
					level = 1
					instant_build = yes
				}
			}
			set_temp_variable = { treasury_change = -7.50 }
			modify_treasury_effect = yes
		}
		}
		focus = {
		id = HEZ_al_bina
		icon = al_bina

		x = 0
		y = 5

		relative_position_id = HEZ_Hezbollahs_independent_industry

		prerequisite = { focus = HEZ_collaboration_in_the_military_industry }
		prerequisite = { focus = HEZ_collaboration_in_the_civilian_industry }



		cost = 10

		search_filters = { FOCUS_FILTER_ECONOMY FOCUS_FILTER_INDUSTRY }
		completion_reward = {
			log = "[GetDateText]: [Root.GetName]: Focus HEZ_Hezbollahs_independent_industry"
			capital_scope = {
				add_extra_state_shared_building_slots = 1
				add_building_construction = {
					type = offices
					level = 1
					instant_build = yes
				}
			}
			set_temp_variable = { treasury_change = -12.00 }
			modify_treasury_effect = yes
			add_ideas = HEZ_the_second_khatam_al_anbia_construction_camp
		}

		ai_will_do = { factor = 1 }
	}

	focus = {
		id = HEZ_Preparing_Iranian_businesses
		icon = brick_laying

		x = 0
		y = 1

		relative_position_id = HEZ_Puppet_state_of_Iran

		prerequisite = { focus = HEZ_Puppet_state_of_Iran }

		cost = 10
		available = {
			PER = {
				OR = {
					emerging_hardline_shiite_are_in_power = yes
					emerging_moderate_shiite_are_in_power = yes
				}
			}
		}
		search_filters = { FOCUS_FILTER_ECONOMY FOCUS_FILTER_INDUSTRY }
		completion_reward = {
			log = "[GetDateText]: [Root.GetName]: Focus HEZ_Preparing_Iranian_businesses"
			PER = { puppet = HEZ }
			hidden_effect = {
				create_country_leader = {
					name = "Hassan Nasrallah"
					picture = "hassan_nasrallah.dds"
					ideology = Vilayat_e_Faqih
					traits = {
						cleric
						emerging_Vilayat_e_Faqih
						pro_iranian
						political_dancer
						geopolitical_thinker
						tech_savy
						honest
						stubborn
						sly
						rational
						anti_zionist
					}
				}
			}
			capital_scope = {
				add_extra_state_shared_building_slots = 5
			}
			add_ideas = HEZ_iranian_business
		}

		ai_will_do = { factor = 1 }
	}

	focus = {
		id = HEZ_Iranian_Construction_tools
		icon = production

		x = 1
		y = 1

		relative_position_id = HEZ_Preparing_Iranian_businesses

		prerequisite = { focus = HEZ_Preparing_Iranian_businesses }

		available = {
			OR = {
				is_subject_of = PER
				hidden_trigger = {
					is_subject_of = PER
				}
			}
			PER = {
				OR = {
					emerging_hardline_shiite_are_in_power = yes
					emerging_moderate_shiite_are_in_power = yes
				}
			}
		}

		cost = 10

		search_filters = { FOCUS_FILTER_ECONOMY FOCUS_FILTER_INDUSTRY }
		completion_reward = {
			log = "[GetDateText]: [Root.GetName]: Focus HEZ_Iranian_Construction_tools"
			if = {
				limit = {
					NOT = { has_idea = HEZ_iranian_business_2 }
				}
				swap_ideas = {
					remove_idea = HEZ_iranian_business
					add_idea = HEZ_iranian_business_3
				}
			}
			else = {
				swap_ideas = {
					remove_idea = HEZ_iranian_business_2
					add_idea = HEZ_iranian_business_4
				}
			}
			capital_scope = {
				add_extra_state_shared_building_slots = 3
				add_building_construction = {
					type = industrial_complex
					level = 3
					instant_build = yes
				}
			}
			add_autonomy_score = {
				value = -500
				localization = iranian_construction_tools_autonomy_TT
			}
		}

		ai_will_do = { factor = 1 }
	}

	focus = {
		id = HEZ_Iranian_Offices
		icon = economic_prosperity

		x = -1
		y = 1

		relative_position_id = HEZ_Iranian_Construction_tools

		prerequisite = { focus = HEZ_Iranian_Construction_tools }
		prerequisite = { focus = HEZ_Iranian_Roads }
		available = {
			OR = {
				is_subject_of = PER
				hidden_trigger = {
					is_subject_of = PER
				}
			}
			PER = {
				OR = {
					emerging_hardline_shiite_are_in_power = yes
					emerging_moderate_shiite_are_in_power = yes
				}
			}
		}
		cost = 10

		search_filters = { FOCUS_FILTER_ECONOMY FOCUS_FILTER_INDUSTRY }
		completion_reward = {
			log = "[GetDateText]: [Root.GetName]: Focus HEZ_Iranian_Offices"
			capital_scope = {
				add_extra_state_shared_building_slots = 1
				add_building_construction = {
					type = offices
					level = 1
					instant_build = yes
				}
			}
			add_autonomy_score = {
				value = -500
				localization = iranian_offices_autonomy_TT
			}
		}

		ai_will_do = { factor = 1 }
	}

	focus = {
		id = HEZ_Iranian_Roads
		icon = infrastructure

		x = -1
		y = 1

		relative_position_id = HEZ_Preparing_Iranian_businesses

		prerequisite = { focus = HEZ_Preparing_Iranian_businesses }

		cost = 10

		available = {
			OR = {
				is_subject_of = PER
				hidden_trigger = {
					is_subject_of = PER
				}
			}
			PER = {
				OR = {
					emerging_hardline_shiite_are_in_power = yes
					emerging_moderate_shiite_are_in_power = yes
				}
			}
		}

		search_filters = { FOCUS_FILTER_ECONOMY FOCUS_FILTER_INDUSTRY }
		completion_reward = {
			log = "[GetDateText]: [Root.GetName]: Focus HEZ_Iranian_Roads"
			capital_scope = {
				add_building_construction = {
					type = infrastructure
					level = 2
					instant_build = yes
				}
			}
			if = {
				limit = {
					NOT = { has_idea = HEZ_iranian_business_3 }
				}
				swap_ideas = {
					remove_idea = HEZ_iranian_business
					add_idea = HEZ_iranian_business_2
				}
			}
			else = {
				swap_ideas = {
					remove_idea = HEZ_iranian_business_3
					add_idea = HEZ_iranian_business_4
				}
			}
			add_autonomy_score = {
				value = -250
				localization = iranian_roads_autonomy_TT
			}
		}

		ai_will_do = { factor = 1 }
	}

	focus = {
		id = HEZ_Iranian_Business_Stimulus
		icon = cash_grap

		x = 0
		y = 1

		relative_position_id = HEZ_Iranian_Offices

		prerequisite = { focus = HEZ_Iranian_Offices }
		available = {
			OR = {
				is_subject_of = PER
				hidden_trigger = {
					is_subject_of = PER
				}
			}
			PER = {
				OR = {
					emerging_hardline_shiite_are_in_power = yes
					emerging_moderate_shiite_are_in_power = yes
				}
			}
		}
		cost = 10

		search_filters = { FOCUS_FILTER_ECONOMY }
		completion_reward = {
			log = "[GetDateText]: [Root.GetName]: Focus HEZ_Iranian_Business_Stimulus"
			add_autonomy_score = {
				value = -750
				localization = HEZ_Iranian_Business_Stimulus_autonomy_TT
			}
			swap_ideas = {
				remove_idea = HEZ_iranian_business_4
				add_idea = HEZ_iranian_business_5
			}
		}

		ai_will_do = { factor = 1 }
	}

	focus = {
		id = HEZ_Iranian_Supported_Education
		icon = literacy_rate_improvment2

		x = 0
		y = 1

		relative_position_id = HEZ_Iranian_Business_Stimulus

		prerequisite = { focus = HEZ_Iranian_Business_Stimulus }
		available = {
			OR = {
				is_subject_of = PER
				hidden_trigger = {
					is_subject_of = PER
				}
			}
			PER = {
				OR = {
					emerging_hardline_shiite_are_in_power = yes
					emerging_moderate_shiite_are_in_power = yes
				}
			}
		}
		cost = 10

		search_filters = { FOCUS_FILTER_ECONOMY }
		completion_reward = {
			log = "[GetDateText]: [Root.GetName]: Focus HEZ_Iranian_Supported_Education"
			add_autonomy_score = {
				value = -1000
				localization = HEZ_Iranian_Supported_Education_TT
			}
			swap_ideas = {
				remove_idea = HEZ_iranian_business_5
				add_idea = HEZ_iranian_business_6
			}
		}

		ai_will_do = { factor = 1 }
	}

	focus = {
		id = HEZ_Our_Gift_To_the_Great_Satan
		icon = gift_to_the_grat_satan

		x = 0
		y = 1

		cost = 10

		search_filters = { FOCUS_FILTER_INFLUENCE FOCUS_FILTER_INSURGENCY }
		relative_position_id = HEZ_Our_Era
		prerequisite = {
			focus = HEZ_Our_Era
		}

		completion_reward = {
			log = "[GetDateText]: [Root.GetName]: Focus HEZ_Our_Gift_To_the_Great_Satan"
			custom_effect_tooltip = HEZ_Our_Gift_To_the_Great_Satan_TT
		}

		ai_will_do = { factor = 1 }
	}

	focus = {
		id = HEZ_From_Caracasto_Washington
		icon = stage_americas

		x = 0
		y = 1

		cost = 10

		search_filters = { FOCUS_FILTER_INFLUENCE FOCUS_FILTER_INSURGENCY }
		relative_position_id = HEZ_Our_Gift_To_the_Great_Satan
		prerequisite = {
			focus = HEZ_Our_Gift_To_the_Great_Satan
		}

		completion_reward = {
			log = "[GetDateText]: [Root.GetName]: Focus HEZ_From_Caracasto_Washington"
			add_political_power = 100
			add_war_support = 0.05
			set_temp_variable = { percent_change = 5 }
			set_temp_variable = { tag_index = HEZ }
			set_temp_variable = { influence_target = MEX }
			change_influence_percentage = yes
			set_temp_variable = { percent_change = 5 }
			set_temp_variable = { tag_index = HEZ }
			set_temp_variable = { influence_target = COL }
			change_influence_percentage = yes
			set_temp_variable = { percent_change = 5 }
			set_temp_variable = { tag_index = HEZ }
			set_temp_variable = { influence_target = VEN }
			change_influence_percentage = yes
			set_temp_variable = { percent_change = 5 }
			set_temp_variable = { tag_index = HEZ }
			set_temp_variable = { influence_target = BRA }
			change_influence_percentage = yes
			set_temp_variable = { percent_change = 5 }
			set_temp_variable = { tag_index = HEZ }
			set_temp_variable = { influence_target = ARG }
			change_influence_percentage = yes
		}

		ai_will_do = { factor = 1 }
	}

	focus = {
		id = HEZ_Ayatollah_ZakZaki
		icon = zakzaky

		x = 0
		y = 1

		relative_position_id = HEZ_A_Remembrance_to_an_old_friend

		prerequisite = { focus = HEZ_A_Remembrance_to_an_old_friend }

		cost = 10

		search_filters = { FOCUS_FILTER_INFLUENCE }
		completion_reward = {
			log = "[GetDateText]: [Root.GetName]: Focus HEZ_Ayatollah_ZakZaki"
			custom_effect_tooltip = Zakzaki_tt
		}

		ai_will_do = { factor = 1 }
	}

	focus = {
		id = HEZ_Help_Zakzaki_and_his_companions
		icon = diplomacy

		x = 1
		y = 1

		relative_position_id = HEZ_Ayatollah_ZakZaki

		prerequisite = { focus = HEZ_Ayatollah_ZakZaki }

		cost = 10

		search_filters = { FOCUS_FILTER_INFLUENCE }
		completion_reward = {
			log = "[GetDateText]: [Root.GetName]: Focus HEZ_Help_Zakzaki_and_his_companions"
			set_temp_variable = { treasury_change = -10 }
			modify_treasury_effect = yes
			NIG = {
				add_popularity = {
					ideology = communism
					popularity = 0.03
				}
			}
			custom_effect_tooltip = HEZ_all_emerging_drift_to_shia
			NIG = {
				hidden_effect = {
					set_temp_variable = { party_index = 9 }
					set_temp_variable = { party_popularity_increase = var:party_popularity@communism }
					add_relative_party_popularity = yes
				}
			}

		}

		ai_will_do = { factor = 1 }
	}

	focus = {
		id = HEZ_Establish_Secret_Bases_in_Nigeria
		icon = military_bases

		x = -1
		y = 1

		relative_position_id = HEZ_Help_Zakzaki_and_his_companions

		prerequisite = { focus = HEZ_Help_Zakzaki_and_his_companions }
		prerequisite = { focus = HEZ_Formalize_the_first_Shia_Institutions_in_Africa }

		cost = 10

		search_filters = { FOCUS_FILTER_INSURGENCY FOCUS_FILTER_INFLUENCE }
		completion_reward = {
			log = "[GetDateText]: [Root.GetName]: Focus HEZ_Establish_Secret_Bases_in_Nigeria"
			add_political_power = 100
			set_temp_variable = { percent_change = 3 }
			set_temp_variable = { tag_index = HEZ }
			set_temp_variable = { influence_target = EGY }
			change_influence_percentage = yes
			set_temp_variable = { percent_change = 3 }
			set_temp_variable = { tag_index = HEZ }
			set_temp_variable = { influence_target = LBA }
			change_influence_percentage = yes
			set_temp_variable = { percent_change = 3 }
			set_temp_variable = { tag_index = HEZ }
			set_temp_variable = { influence_target = TUN }
			change_influence_percentage = yes
			NIG = {
				HEZ = {
					add_intel = {
						target = PREV
 						civilian_intel = 30
					}
				}
			}
			NIG = {
				every_neighbor_country = {
					HEZ = {
						add_intel = {
							target = PREV
							civilian_intel = 15
						}
					}
				}
			}

		}

		ai_will_do = { factor = 1 }
	}

	focus = {
		id = HEZ_how_little_they_know
		icon = infilitration

		x = 0
		y = 1

		relative_position_id = HEZ_Establish_Secret_Bases_in_Nigeria

		prerequisite = { focus = HEZ_Establish_Secret_Bases_in_Nigeria }

		cost = 10

		search_filters = { FOCUS_FILTER_INFLUENCE FOCUS_FILTER_INSURGENCY }
		completion_reward = {
			log = "[GetDateText]: [Root.GetName]: Focus HEZ_how_little_they_know"
			custom_effect_tooltip = HEZ_how_little_they_know_TT
		}

		ai_will_do = { factor = 1 }
	}

	focus = {
		id = HEZ_Lebanese_Support
		icon = align_to_lebanon2

		x = 0
		y = 1

		relative_position_id = HEZ_Hezbollah_and_the_LAF

		prerequisite = { focus = HEZ_Hezbollah_and_the_LAF }

		bypass = {
			OR = {
				NOT = { country_exists = LEB }
				has_war_with = LEB
			}
		}

		cost = 10

		search_filters = { FOCUS_FILTER_POLITICAL }
		completion_reward = {
			log = "[GetDateText]: [Root.GetName]: Focus HEZ_Lobbying_Public_Support"
			custom_effect_tooltip = HEZ_lebanese_aid_income_based_on_influence_TT
		}

		ai_will_do = { factor = 1 }
	}

	focus = {
		id = HEZ_Lobbying_Public_Support
		icon = Focus_Parliament_Constitution

		x = 1
		y = 1

		relative_position_id = HEZ_Increased_Iranian_Support

		prerequisite = { focus = HEZ_Increased_Iranian_Support }
		prerequisite = { focus = HEZ_Lebanese_Support }

		cost = 10

		search_filters = { FOCUS_FILTER_POLITICAL }
		completion_reward = {
			log = "[GetDateText]: [Root.GetName]: Focus HEZ_Lobbying_Public_Support"
			add_political_power = 100
			add_ideas = HEZ_public_support
		}

		ai_will_do = { factor = 1 }
	}

	focus = {
		id = HEZ_Request_Election_funds
		icon = Election_graphics

		x = 0
		y = 1

		relative_position_id = HEZ_Lobbying_Public_Support

		prerequisite = { focus = HEZ_Lobbying_Public_Support }

		cost = 10

		search_filters = { FOCUS_FILTER_POLITICAL }
		completion_reward = {
			log = "[GetDateText]: [Root.GetName]: Focus HEZ_Request_Election_funds"
			PER = {
				country_event = {
					id = hezbollah_events.2
				}
			}
		}

		ai_will_do = { factor = 1 }
	}

	focus = {
		id = HEZ_Shias_Lebanon
		icon = qadire_khom

		x = -1
		y = 1

		relative_position_id = HEZ_Request_Election_funds

		prerequisite = { focus = HEZ_Request_Election_funds }

		mutually_exclusive = {
			focus = HEZ_maintain_status_quo
		}

		available = {
			LEB = {
				influence_higher_50 = yes
			}
		}

		cost = 10

		search_filters = { FOCUS_FILTER_POLITICAL }
		completion_reward = {
			news_event = hezbollah_events.40
			log = "[GetDateText]: [Root.GetName]: Focus HEZ_Shias_Lebanon"
			set_cosmetic_tag = ISLAMIC_REPUBLIC_OF_LEBANON
			HEZ = {
				set_capital = {
					state = 202
				}
			}
			annex_country = {
				target = LEB
				transfer_troops = yes
			}
			203 = { add_core_of = HEZ }
			553 = { add_core_of = HEZ }
			202 = { add_core_of = HEZ }
			remove_ideas = iranian_aid
		}

		ai_will_do = { factor = 1
		modifier = {
			factor = 0
			is_historical_focus_on = yes
		}
	}
	}
	focus = {
		id = HEZ_maintain_status_quo
		icon = hezbollah_lebanon

		x = 1
		y = 1

		relative_position_id = HEZ_Request_Election_funds

		prerequisite = { focus = HEZ_Request_Election_funds }

		mutually_exclusive = {
			focus = HEZ_Shias_Lebanon
		}

		available = {
			LEB = {
				influence_higher_50 = yes
			}
		}

		cost = 10

		search_filters = { FOCUS_FILTER_POLITICAL }
		completion_reward = {
			log = "[GetDateText]: [Root.GetName]: Focus HEZ_Shias_Lebanon"
			add_political_power = 100
			set_temp_variable = { treasury_change = 100.00 }
			modify_treasury_effect = yes
			add_offsite_building = { type = arms_factory level = 1 }
			add_offsite_building = { type = industrial_complex level = 1 }
			set_temp_variable = { percent_change = 15 }
			set_temp_variable = { tag_index = HEZ }
			set_temp_variable = { influence_target = LEB }
			change_influence_percentage = yes
			set_temp_variable = { percent_change = 5 }
			set_temp_variable = { tag_index = HEZ }
			set_temp_variable = { influence_target = IRQ }
			change_influence_percentage = yes
			set_temp_variable = { percent_change = 5 }
			set_temp_variable = { tag_index = HEZ }
			set_temp_variable = { influence_target = SYR }
			change_influence_percentage = yes
		}

		ai_will_do = { factor = 1 }
	}

	focus = {
		id = HEZ_Formalize_the_first_Shia_Institutions_in_Africa
		icon = NIG_federal_government

		x = -1
		y = 1

		relative_position_id = HEZ_Ayatollah_ZakZaki

		prerequisite = { focus = HEZ_Ayatollah_ZakZaki }

		cost = 10

		search_filters = { FOCUS_FILTER_INFLUENCE }
		completion_reward = {
			log = "[GetDateText]: [Root.GetName]: Focus HEZ_Formalize_the_first_Shia_Institutions_in_Africa"
			NIG = {
				add_popularity = {
					ideology = communism
					popularity = 0.06
				}
				add_timed_idea = {
					idea = hezbollah_influence_idea
					days = 365
				}
			}

			set_temp_variable = { treasury_change = -10 }
			modify_treasury_effect = yes
		}

		ai_will_do = { factor = 1 }
	}

	focus = {
		id = HEZ_call_to_arms
		icon = war2_green

		x = 0
		y = 1

		cost = 10

		relative_position_id = HEZ_An_Inevitable_failure
		prerequisite = { focus = HEZ_An_Inevitable_failure }

		search_filters = { FOCUS_FILTER_INFLUENCE }
		completion_reward = {
			log = "[GetDateText]: [Root.GetName]: Focus HEZ_call_to_arms"
			custom_effect_tooltip = HEZ_call_to_arms_TT
			division_template = {
					name = "Badr Forces"
					regiments = {
						Mot_Militia_Bat = { x = 0 y = 0 }
						Mot_Militia_Bat = { x = 0 y = 1 }
						Mot_Militia_Bat = { x = 0 y = 2 }
						Mot_Militia_Bat = { x = 0 y = 3 }
						Mech_Inf_Bat = { x = 1 y = 0 }
						Mech_Inf_Bat = { x = 1 y = 1 }
						L_Inf_Bat = { x = 2 y = 0 }
					}
					support = {
						armor_Comp = { x = 0 y = 0 }
						Arty_Battery = { x = 0 y = 1 }
					}
				}
				capital_scope = {
					create_unit = {
						division = "name =\"Badr Forces\" division_template = \"Badr Forces\" start_experience_factor = 1.0 start_equipment_factor =  1.0"
						owner = HEZ
						count = 1
					}
				}
				division_template = {
					name = "Al Abbas Forces"
					regiments = {
						Mot_Militia_Bat = { x = 0 y = 0 }
						Mot_Militia_Bat = { x = 0 y = 1 }
						Mot_Militia_Bat = { x = 0 y = 2 }
						Mot_Militia_Bat = { x = 0 y = 3 }
						Mech_Inf_Bat = { x = 1 y = 0 }
						Mech_Inf_Bat = { x = 1 y = 1 }
						L_Inf_Bat = { x = 2 y = 0 }
					}
					support = {
						armor_Comp = { x = 0 y = 0 }
						Arty_Battery = { x = 0 y = 1 }
					}
				}
				capital_scope = {
					create_unit = {
						division = "name =\"Al Abbas Forces\" division_template = \"Al Abbas Forces\" start_experience_factor = 1.0 start_equipment_factor =  1.0"
						owner = HEZ
						count = 1
					}
				}
				division_template = {
					name = "Lebanese Militias"
					regiments = {
						Mot_Militia_Bat = { x = 0 y = 0 }
						Mot_Militia_Bat = { x = 0 y = 1 }
						Mot_Militia_Bat = { x = 0 y = 2 }
						Mot_Militia_Bat = { x = 0 y = 3 }
						Mech_Inf_Bat = { x = 1 y = 0 }
						Mech_Inf_Bat = { x = 1 y = 1 }
						L_Inf_Bat = { x = 2 y = 0 }
					}
					support = {
						armor_Comp = { x = 0 y = 0 }
						Arty_Battery = { x = 0 y = 1 }
					}
				}
				capital_scope = {
					create_unit = {
						division = "name =\"Lebanese Militias\" division_template = \"Lebanese Militias\" start_experience_factor = 1.0 start_equipment_factor =  1.0"
						owner = HEZ
						count = 1
					}
				}
				set_temp_variable = { treasury_change = -10.00 }
				modify_treasury_effect = yes
				add_political_power = -50

		}

		ai_will_do = { factor = 1 }
	}
	focus = {
		id = HEZ_Negotiations_for_Intervention
		icon = treaty4

		x = 0
		y = 1

		cost = 1

		relative_position_id = HEZ_call_to_arms
		prerequisite = { focus = HEZ_call_to_arms }

		available = {
			has_opinion = {
	   			target = SYR
				value > 19
			}
	  		SYR = {
				has_opinion = {
					target = HEZ
					value > 19
				}
			}
			has_political_power > 49
		}

		search_filters = { FOCUS_FILTER_INFLUENCE }
		completion_reward = {
			log = "[GetDateText]: [Root.GetName]: Focus HEZ_Negotiations_for_Intervention"
			add_political_power = -50
			HEZ = {
				declare_war_on = {
					target = ISI
					type = annex_everything
				}
			}

		}

		ai_will_do = { factor = 1 }
	}

	focus = {
		id = HEZ_For_Allah_Islam_and_Zeinabyah
		icon = islamic_emirate_of_syria

		x = 0
		y = 1

		cost = 10

		search_filters = { FOCUS_FILTER_INFLUENCE }
		relative_position_id = HEZ_Negotiations_for_Intervention
		prerequisite = { focus = HEZ_Negotiations_for_Intervention }

		completion_reward = {
			log = "[GetDateText]: [Root.GetName]: Focus HEZ_For_Allah_Islam_and_Zeinabyah"
			add_timed_idea = {
				idea = HEZ_defenders_of_the_shrine
				days = 1095
			}
		}

		ai_will_do = { factor = 1 }
	}

	focus = {
		id = HEZ_Houthi_brothers
		icon = houthi_yemen

		x = 2
		y = 1

		relative_position_id = HEZ_Our_Brothers_in_Sanaa_and_Baghdad

		prerequisite = { focus = HEZ_Our_Brothers_in_Sanaa_and_Baghdad }

		available = {
			YEM = {
					influence_higher_5 = yes
				}
			}
		cost = 10

		search_filters = { FOCUS_FILTER_INFLUENCE }
		completion_reward = {
			log = "[GetDateText]: [Root.GetName]: Focus HEZ_Houthi_brothers"
			if = {
				limit = { YEM = { NOT = { has_government = communism } } }
				custom_effect_tooltip = HEZ_fund_houthi_propaganda_TT
			}
			set_temp_variable = { percent_change = 4 }
			set_temp_variable = { tag_index = HEZ }
			set_temp_variable = { influence_target = YEM }
			change_influence_percentage = yes
			add_political_power = -20
			set_temp_variable = { treasury_change = -5.00 }
			modify_treasury_effect = yes

			YEM = {
			add_popularity = {
				ideology = communism
				popularity = 0.05
			}
			set_temp_variable = { party_index = 9 }
			set_temp_variable = { party_popularity_increase = 0.05 }
			add_relative_party_popularity = yes
			}
		}

		ai_will_do = { factor = 1 }
	}

	focus = {
		id = HEZ_Badr_in_the_shadows
		icon = militarized_iraq

		x = 0
		y = 1

		relative_position_id = HEZ_Our_Brothers_in_Sanaa_and_Baghdad
		available = {
			IRQ = {
				influence_higher_5 = yes
			}
		}
		prerequisite = { focus = HEZ_Our_Brothers_in_Sanaa_and_Baghdad }

		cost = 10

		search_filters = { FOCUS_FILTER_INFLUENCE }
		completion_reward = {
			log = "[GetDateText]: [Root.GetName]: Focus HEZ_Badr_in_the_shadows"
			if = {
				limit = { IRQ = { NOT = { has_government = communism } } }
				custom_effect_tooltip = HEZ_Badr_in_the_shadows_TT
			}
			set_temp_variable = { percent_change = 3 }
			set_temp_variable = { tag_index = HEZ }
			set_temp_variable = { influence_target = IRQ }
			change_influence_percentage = yes
			add_popularity = {
				ideology = communism
				popularity = 0.05
			}
			set_temp_variable = { treasury_change = -5.00 }
			modify_treasury_effect = yes
			add_political_power = -20

		}

		ai_will_do = { factor = 1 }
	}

	focus = {
		id = HEZ_Organize_Shii_Forces
		icon = islam

		x = 0
		y = 1

		relative_position_id = HEZ_Badr_in_the_shadows
		available = {

			custom_trigger_tooltip = {
				tooltip = requirement_hez
				OR = {
				  has_idea = officer_military_school
				  has_idea = officer_military_academy
				  has_idea = officer_international_education
			  }
			}
		}
		prerequisite = { focus = HEZ_Badr_in_the_shadows }

		cost = 10

		search_filters = { FOCUS_FILTER_INFLUENCE }
		completion_reward = {
			if = {
				limit = { IRQ = { NOT = { has_government = communism } } }
				custom_effect_tooltip = HEZ_shia_advisors_for_iraq_TT
			}
			if = {
				limit = { IRQ = { NOT = { has_government = communism } } }
				custom_effect_tooltip = HEZ_volunteers_for_iraq_TT
			}
			add_manpower = -2000
			log = "[GetDateText]: [Root.GetName]: Focus HEZ_Organize_Shii_Forces"
			IRQ = {
				add_manpower = 2000
				add_popularity = {
					ideology = communism
					popularity = 0.025
				}
				set_temp_variable = { party_index = 9 }
				set_temp_variable = { party_popularity_increase = 0.025 }
				add_relative_party_popularity = yes
				add_ideas = foreign_military_advisors2
			}
		}

		ai_will_do = { factor = 1 }
	}

	focus = {
		id = HEZ_Invest_in_Saada
		icon = anarchist_economy

		x = 0
		y = 1

		relative_position_id = HEZ_Houthi_brothers
		available = {
			num_of_civilian_factories > 2
		}
		prerequisite = { focus = HEZ_Houthi_brothers }

		cost = 10

		search_filters = { FOCUS_FILTER_INFLUENCE }
		completion_reward = {
			log = "[GetDateText]: [Root.GetName]: Focus HEZ_Invest_in_Saada"
			if = {
				limit = { YEM = { NOT = { has_government = communism } } }
				custom_effect_tooltip = HEZ_infrastructure_in_saadaa_TT
			}
			set_temp_variable = { treasury_change = -7.50 }
			modify_treasury_effect = yes
			set_temp_variable = { percent_change = 3 }
			set_temp_variable = { tag_index = HEZ }
			set_temp_variable = { influence_target = YEM }
			change_influence_percentage = yes

			YEM = {
				add_popularity = {
					ideology = communism
					popularity = 0.025
				}
				set_temp_variable = { party_index = 9 }
				set_temp_variable = { party_popularity_increase = 0.025 }
				add_relative_party_popularity = yes
				951 = {
					add_extra_state_shared_building_slots = 1
					add_building_construction = {
						type = industrial_complex
						level = 1
						instant_build = yes
					}
				}
			}
		}

		ai_will_do = { factor = 1 }
	}

	focus = {
		id = HEZ_Steal_the_Bastards
		icon = MEX_Expell_western_influence

		x = 0
		y = 1

		cost = 10

		search_filters = { FOCUS_FILTER_INFLUENCE FOCUS_FILTER_INSURGENCY }
		relative_position_id = HEZ_Organize_Shii_Forces

		available = {
			has_manpower > 999

		}
		prerequisite = { focus = HEZ_Organize_Shii_Forces }

		completion_reward = {
			log = "[GetDateText]: [Root.GetName]: Focus HEZ_Steal_the_Bastards"
			set_temp_variable = { treasury_change = -10.00 }
			modify_treasury_effect = yes
			add_war_support = 0.1
			set_temp_variable = { percent_change = 3 }
			set_temp_variable = { tag_index = HEZ }
			set_temp_variable = { influence_target = IRQ }
			change_influence_percentage = yes

			IRQ = {
				add_popularity = {
					ideology = communism
					popularity = 0.015
				}
				set_temp_variable = { party_index = 9 }
				set_temp_variable = { party_popularity_increase = 0.015 }
				add_relative_party_popularity = yes
			}
			USA = {
				add_political_power = -50
				country_event = {
					id = hezbollah_events.5
					days = 2
					random_hours = 12
					random_days = 2
				}
			}
		}
		ai_will_do = { factor = 1 }
	}

	focus = {
		id = HEZ_and_Steal_the_Heathens
		icon = arab_focus_saud

		x = 0
		y = 1

		cost = 10

		search_filters = { FOCUS_FILTER_INFLUENCE FOCUS_FILTER_INSURGENCY }
		relative_position_id = HEZ_Invest_in_Saada

		available = {
			has_manpower > 1000
		}

		prerequisite = { focus = HEZ_Invest_in_Saada }
		completion_reward = {
			if = {
				limit = { YEM = { NOT = { has_government = communism } } }
				custom_effect_tooltip = HEZ_sabotage_wahhabi_schools_TT
			}
			if = {
				limit = { YEM = { NOT = { has_government = communism } } }
				custom_effect_tooltip = HEZ_fund_protests_against_wahabbis_in_sanaa_TT
			}
			log = "[GetDateText]: [Root.GetName]: Focus HEZ_and_Steal_the_Heathens"
			set_temp_variable = { treasury_change = -5.00 }
			modify_treasury_effect = yes
			add_political_power = 100
			set_temp_variable = { percent_change = 3 }
			set_temp_variable = { tag_index = HEZ }
			set_temp_variable = { influence_target = YEM }
			change_influence_percentage = yes

			YEM = {
				add_popularity = {
					ideology = communism
					popularity = 0.015
				}
				set_temp_variable = { party_index = 9 }
				set_temp_variable = { party_popularity_increase = 0.015 }
				add_relative_party_popularity = yes
			}
		}

		ai_will_do = { factor = 1 }
	}

	focus = {
		id = HEZ_The_End
		icon = focus_ETH_an_arabic_base

		x = 1
		y = 1

		cost = 10

		search_filters = { FOCUS_FILTER_INFLUENCE FOCUS_FILTER_INSURGENCY }
		relative_position_id = HEZ_Steal_the_Bastards
		available = {
			if = {
				limit = {
					country_exists = SAU
				}
				SAU = {
					influence_higher_10 = yes
				}
			}
			if = {
				limit = {
					country_exists = IRQ
				}
				IRQ = {
					influence_higher_10 = yes
				}
			}
			if = {
				limit = {
					country_exists = YEM
				}
				YEM = {
					influence_higher_10 = yes
				}
			}
			if = {
				limit = {
					country_exists = HOU
				}
				HOU = {
					influence_higher_10 = yes
				}
			}
		}
		prerequisite = { focus = HEZ_Steal_the_Bastards }
		prerequisite = { focus = HEZ_and_Steal_the_Heathens }
		completion_reward = {
			log = "[GetDateText]: [Root.GetName]: Focus HEZ_The_End"
			SAU = {
				add_stability = -0.05
				add_war_support = -0.03
				set_temp_variable = { treasury_change = -20.00 }
				modify_treasury_effect = yes
			}
			set_temp_variable = { treasury_change = -10.00 }
			modify_treasury_effect = yes
			YEM = {
				add_popularity = {
					ideology = communism
					popularity = 0.1
				}
				set_temp_variable = { party_index = 9 }
					set_temp_variable = { party_popularity_increase = 0.1 }
					add_relative_party_popularity = yes
			}
			IRQ = {
				add_popularity = {
					ideology = communism
					popularity = 0.1
					}
				set_temp_variable = { party_index = 9 }
				set_temp_variable = { party_popularity_increase = 0.1 }
				add_relative_party_popularity = yes
			}
			news_event = { id = hezbollah_events.4 }

		}

		ai_will_do = { factor = 1 }
	}

}
