defined_text = {
	name = name_of_reform
	#Use the variable to set the loc key for each law
	text = { trigger = { check_variable = { v = 002 } }
		localization_key = EU_show_available_002_loc_key
	}
	text = { trigger = { check_variable = { v = 101 } }
		localization_key = EU_show_available_101_loc_key
	}
	text = { trigger = { check_variable = { v = 102 } }
		localization_key = EU_show_available_102_loc_key
	}
	text = { trigger = { check_variable = { v = 103 } }
		localization_key = EU_show_available_103_loc_key
	}
	text = { trigger = { check_variable = { v = 104 } }
		localization_key = EU_show_available_104_loc_key
	}
	text = { trigger = { check_variable = { v = 105 } }
		localization_key = EU_show_available_105_loc_key
	}
	text = { trigger = { check_variable = { v = 201 } }
		localization_key = EU_show_available_201_loc_key
	}
	text = { trigger = { check_variable = { v = 202 } }
		localization_key = EU_show_available_202_loc_key
	}
	text = { trigger = { check_variable = { v = 203 } }
		localization_key = EU_show_available_203_loc_key
	}
	text = { trigger = { check_variable = { v = 204 } }
		localization_key = EU_show_available_204_loc_key
	}
	text = { trigger = { check_variable = { v = 205 } }
		localization_key = EU_show_available_205_loc_key
	}
	text = { trigger = { check_variable = { v = 206 } }
		localization_key = EU_show_available_206_loc_key
	}
	text = { trigger = { check_variable = { v = 207 } }
		localization_key = EU_show_available_207_loc_key
	}
	text = { trigger = { check_variable = { v = 208 } }
		localization_key = EU_show_available_208_loc_key
	}
	text = { trigger = { check_variable = { v = 301 } }
		localization_key = EU_show_available_301_loc_key
	}
	text = { trigger = { check_variable = { v = 302 } }
		localization_key = EU_show_available_302_loc_key
	}
	text = { trigger = { check_variable = { v = 303 } }
		localization_key = EU_show_available_303_loc_key
	}
	text = { trigger = { check_variable = { v = 304 } }
		localization_key = EU_show_available_304_loc_key
	}
	text = { trigger = { check_variable = { v = 305 } }
		localization_key = EU_show_available_305_loc_key
	}
	text = { trigger = { check_variable = { v = 306 } }
		localization_key = EU_show_available_306_loc_key
	}
	text = { trigger = { check_variable = { v = 307 } }
		localization_key = EU_show_available_307_loc_key
	}
	text = { trigger = { check_variable = { v = 308 } }
		localization_key = EU_show_available_308_loc_key
	}
	text = { trigger = { check_variable = { v = 401 } }
		localization_key = EU_show_available_401_loc_key
	}
	text = { trigger = { check_variable = { v = 402 } }
		localization_key = EU_show_available_402_loc_key
	}
	text = { trigger = { check_variable = { v = 403 } }
		localization_key = EU_show_available_403_loc_key
	}
	text = { trigger = { check_variable = { v = 404 } }
		localization_key = EU_show_available_404_loc_key
	}
	text = { trigger = { check_variable = { v = 405 } }
		localization_key = EU_show_available_405_loc_key
	}
	text = { trigger = { check_variable = { v = 406 } }
		localization_key = EU_show_available_406_loc_key
	}
	text = { trigger = { check_variable = { v = 407 } }
		localization_key = EU_show_available_407_loc_key
	}
	text = { trigger = { check_variable = { v = 408 } }
		localization_key = EU_show_available_408_loc_key
	}
	text = { trigger = { check_variable = { v = 601 } }
		localization_key = EU_show_available_601_loc_key
	}
	text = { trigger = { check_variable = { v = 602 } }
		localization_key = EU_show_available_602_loc_key
	}
	text = { trigger = { check_variable = { v = 603 } }
		localization_key = EU_show_available_603_loc_key
	}
	text = { trigger = { check_variable = { v = 605 } }
		localization_key = EU_show_available_605_loc_key
	}
	text = { trigger = { check_variable = { v = 606 } }
		localization_key = EU_show_available_606_loc_key
	}
	text = { trigger = { check_variable = { v = 607 } }
		localization_key = EU_show_available_607_loc_key
	}
	text = { trigger = { check_variable = { v = 608 } }
		localization_key = EU_show_available_608_loc_key
	}
	text = { trigger = { check_variable = { v = 609 } }
		localization_key = EU_show_available_609_loc_key
	}
	text = { trigger = { check_variable = { v = 610 } }
		localization_key = EU_show_available_610_loc_key
	}
	text = { trigger = { check_variable = { v = 611 } }
		localization_key = EU_show_available_611_loc_key
	}
	text = { trigger = { check_variable = { v = 112 } }
		localization_key = EU_show_available_112_loc_key
	}
	text = { trigger = { check_variable = { v = 110 } }
		localization_key = EU_show_available_110_loc_key
	}
	text = { trigger = { check_variable = { v = 111 } }
		localization_key = EU_show_available_111_loc_key
	}
}

defined_text = {
	name = name_of_vote
	#Use the variable to set the loc key for each law
	text = { trigger = { check_variable = { v = 002 } }
		localization_key = EU_show_available_002_loc_key
	}
	text = { trigger = { check_variable = { v = 101 } }
		localization_key = EU_show_available_101_loc_key
	}
	text = { trigger = { check_variable = { v = 102 } }
		localization_key = EU_show_available_102_loc_key
	}
	text = { trigger = { check_variable = { v = 103 } }
		localization_key = EU_show_available_103_loc_key
	}
	text = { trigger = { check_variable = { v = 104 } }
		localization_key = EU_show_available_104_loc_key
	}
	text = { trigger = { check_variable = { v = 105 } }
		localization_key = EU_show_available_105_loc_key
	}
	text = { trigger = { check_variable = { v = 201 } }
		localization_key = EU_show_available_201_loc_key
	}
	text = { trigger = { check_variable = { v = 202 } }
		localization_key = EU_show_available_202_loc_key
	}
	text = { trigger = { check_variable = { v = 203 } }
		localization_key = EU_show_available_203_loc_key
	}
	text = { trigger = { check_variable = { v = 204 } }
		localization_key = EU_show_available_204_loc_key
	}
	text = { trigger = { check_variable = { v = 205 } }
		localization_key = EU_show_available_205_loc_key
	}
	text = { trigger = { check_variable = { v = 206 } }
		localization_key = EU_show_available_206_loc_key
	}
	text = { trigger = { check_variable = { v = 207 } }
		localization_key = EU_show_available_207_loc_key
	}
	text = { trigger = { check_variable = { v = 208 } }
		localization_key = EU_show_available_208_loc_key
	}
	text = { trigger = { check_variable = { v = 301 } }
		localization_key = EU_show_available_301_loc_key
	}
	text = { trigger = { check_variable = { v = 302 } }
		localization_key = EU_show_available_302_loc_key
	}
	text = { trigger = { check_variable = { v = 303 } }
		localization_key = EU_show_available_303_loc_key
	}
	text = { trigger = { check_variable = { v = 304 } }
		localization_key = EU_show_available_304_loc_key
	}
	text = { trigger = { check_variable = { v = 305 } }
		localization_key = EU_show_available_305_loc_key
	}
	text = { trigger = { check_variable = { v = 306 } }
		localization_key = EU_show_available_306_loc_key
	}
	text = { trigger = { check_variable = { v = 307 } }
		localization_key = EU_show_available_307_loc_key
	}
	text = { trigger = { check_variable = { v = 308 } }
		localization_key = EU_show_available_308_loc_key
	}
	text = { trigger = { check_variable = { v = 401 } }
		localization_key = EU_show_available_401_loc_key
	}
	text = { trigger = { check_variable = { v = 402 } }
		localization_key = EU_show_available_402_loc_key
	}
	text = { trigger = { check_variable = { v = 403 } }
		localization_key = EU_show_available_403_loc_key
	}
	text = { trigger = { check_variable = { v = 404 } }
		localization_key = EU_show_available_404_loc_key
	}
	text = { trigger = { check_variable = { v = 405 } }
		localization_key = EU_show_available_405_loc_key
	}
	text = { trigger = { check_variable = { v = 406 } }
		localization_key = EU_show_available_406_loc_key
	}
	text = { trigger = { check_variable = { v = 407 } }
		localization_key = EU_show_available_407_loc_key
	}
	text = { trigger = { check_variable = { v = 408 } }
		localization_key = EU_show_available_408_loc_key
	}
	text = { trigger = { check_variable = { v = 601 } }
		localization_key = EU_show_available_601_loc_key
	}
	text = { trigger = { check_variable = { v = 602 } }
		localization_key = EU_show_available_602_loc_key
	}
	text = { trigger = { check_variable = { v = 603 } }
		localization_key = EU_show_available_603_loc_key
	}
	text = { trigger = { check_variable = { v = 605 } }
		localization_key = EU_show_available_605_loc_key
	}
	text = { trigger = { check_variable = { v = 606 } }
		localization_key = EU_show_available_606_loc_key
	}
	text = { trigger = { check_variable = { v = 607 } }
		localization_key = EU_show_available_607_loc_key
	}
	text = { trigger = { check_variable = { v = 608 } }
		localization_key = EU_show_available_608_loc_key
	}
	text = { trigger = { check_variable = { v = 609 } }
		localization_key = EU_show_available_609_loc_key
	}
	text = { trigger = { check_variable = { v = 610 } }
		localization_key = EU_show_available_610_loc_key
	}
	text = { trigger = { check_variable = { v = 611 } }
		localization_key = EU_show_available_611_loc_key
	}
	text = { trigger = { check_variable = { v = 112 } }
		localization_key = EU_show_available_112_loc_key
	}
	text = { trigger = { check_variable = { v = 110 } }
		localization_key = EU_show_available_110_loc_key
	}
	text = { trigger = { check_variable = { v = 111 } }
		localization_key = EU_show_available_111_loc_key
	}
}

defined_text = {
	name = name_of_passed_law
	#Use the variable to set the loc key for each law
	text = { trigger = { check_variable = { v = 002 } }
		localization_key = EU_show_available_002_loc_key
	}
	text = { trigger = { check_variable = { v = 101 } }
		localization_key = EU_show_available_101_loc_key
	}
	text = { trigger = { check_variable = { v = 102 } }
		localization_key = EU_show_available_102_loc_key
	}
	text = { trigger = { check_variable = { v = 103 } }
		localization_key = EU_show_available_103_loc_key
	}
	text = { trigger = { check_variable = { v = 104 } }
		localization_key = EU_show_available_104_loc_key
	}
	text = { trigger = { check_variable = { v = 105 } }
		localization_key = EU_show_available_105_loc_key
	}
	text = { trigger = { check_variable = { v = 201 } }
		localization_key = EU_show_available_201_loc_key
	}
	text = { trigger = { check_variable = { v = 202 } }
		localization_key = EU_show_available_202_loc_key
	}
	text = { trigger = { check_variable = { v = 203 } }
		localization_key = EU_show_available_203_loc_key
	}
	text = { trigger = { check_variable = { v = 204 } }
		localization_key = EU_show_available_204_loc_key
	}
	text = { trigger = { check_variable = { v = 205 } }
		localization_key = EU_show_available_205_loc_key
	}
	text = { trigger = { check_variable = { v = 206 } }
		localization_key = EU_show_available_206_loc_key
	}
	text = { trigger = { check_variable = { v = 207 } }
		localization_key = EU_show_available_207_loc_key
	}
	text = { trigger = { check_variable = { v = 208 } }
		localization_key = EU_show_available_208_loc_key
	}
	text = { trigger = { check_variable = { v = 301 } }
		localization_key = EU_show_available_301_loc_key
	}
	text = { trigger = { check_variable = { v = 302 } }
		localization_key = EU_show_available_302_loc_key
	}
	text = { trigger = { check_variable = { v = 303 } }
		localization_key = EU_show_available_303_loc_key
	}
	text = { trigger = { check_variable = { v = 304 } }
		localization_key = EU_show_available_304_loc_key
	}
	text = { trigger = { check_variable = { v = 305 } }
		localization_key = EU_show_available_305_loc_key
	}
	text = { trigger = { check_variable = { v = 306 } }
		localization_key = EU_show_available_306_loc_key
	}
	text = { trigger = { check_variable = { v = 307 } }
		localization_key = EU_show_available_307_loc_key
	}
	text = { trigger = { check_variable = { v = 308 } }
		localization_key = EU_show_available_308_loc_key
	}
	text = { trigger = { check_variable = { v = 401 } }
		localization_key = EU_show_available_401_loc_key
	}
	text = { trigger = { check_variable = { v = 402 } }
		localization_key = EU_show_available_402_loc_key
	}
	text = { trigger = { check_variable = { v = 403 } }
		localization_key = EU_show_available_403_loc_key
	}
	text = { trigger = { check_variable = { v = 404 } }
		localization_key = EU_show_available_404_loc_key
	}
	text = { trigger = { check_variable = { v = 405 } }
		localization_key = EU_show_available_405_loc_key
	}
	text = { trigger = { check_variable = { v = 406 } }
		localization_key = EU_show_available_406_loc_key
	}
	text = { trigger = { check_variable = { v = 407 } }
		localization_key = EU_show_available_407_loc_key
	}
	text = { trigger = { check_variable = { v = 408 } }
		localization_key = EU_show_available_408_loc_key
	}
	text = { trigger = { check_variable = { v = 601 } }
		localization_key = EU_show_available_601_loc_key
	}
	text = { trigger = { check_variable = { v = 602 } }
		localization_key = EU_show_available_602_loc_key
	}
	text = { trigger = { check_variable = { v = 603 } }
		localization_key = EU_show_available_603_loc_key
	}
	text = { trigger = { check_variable = { v = 605 } }
		localization_key = EU_show_available_605_loc_key
	}
	text = { trigger = { check_variable = { v = 606 } }
		localization_key = EU_show_available_606_loc_key
	}
	text = { trigger = { check_variable = { v = 607 } }
		localization_key = EU_show_available_607_loc_key
	}
	text = { trigger = { check_variable = { v = 608 } }
		localization_key = EU_show_available_608_loc_key
	}
	text = { trigger = { check_variable = { v = 609 } }
		localization_key = EU_show_available_609_loc_key
	}
	text = { trigger = { check_variable = { v = 610 } }
		localization_key = EU_show_available_610_loc_key
	}
	text = { trigger = { check_variable = { v = 611 } }
		localization_key = EU_show_available_611_loc_key
	}
	text = { trigger = { check_variable = { v = 112 } }
		localization_key = EU_show_available_112_loc_key
	}
	text = { trigger = { check_variable = { v = 110 } }
		localization_key = EU_show_available_110_loc_key
	}
	text = { trigger = { check_variable = { v = 111 } }
		localization_key = EU_show_available_111_loc_key
	}
}

defined_text = {
	name = current_active_agenda_disp
	#Use the variable to set the loc key for each law

	text = { trigger = { check_variable = { global.current_active_agenda_disp = 002 } }
		localization_key = EU_show_available_002_loc_key
	}
	text = { trigger = { check_variable = { global.current_active_agenda_disp = 101 } }
		localization_key = EU_show_available_101_loc_key
	}
	text = { trigger = { check_variable = { global.current_active_agenda_disp = 102 } }
		localization_key = EU_show_available_102_loc_key
	}
	text = { trigger = { check_variable = { global.current_active_agenda_disp = 103 } }
		localization_key = EU_show_available_103_loc_key
	}
	text = { trigger = { check_variable = { global.current_active_agenda_disp = 104 } }
		localization_key = EU_show_available_104_loc_key
	}
	text = { trigger = { check_variable = { global.current_active_agenda_disp = 105 } }
		localization_key = EU_show_available_105_loc_key
	}
	text = { trigger = { check_variable = { global.current_active_agenda_disp = 201 } }
		localization_key = EU_show_available_201_loc_key
	}
	text = { trigger = { check_variable = { global.current_active_agenda_disp = 202 } }
		localization_key = EU_show_available_202_loc_key
	}
	text = { trigger = { check_variable = { global.current_active_agenda_disp = 203 } }
		localization_key = EU_show_available_203_loc_key
	}
	text = { trigger = { check_variable = { global.current_active_agenda_disp = 204 } }
		localization_key = EU_show_available_204_loc_key
	}
	text = { trigger = { check_variable = { global.current_active_agenda_disp = 205 } }
		localization_key = EU_show_available_205_loc_key
	}
	text = { trigger = { check_variable = { global.current_active_agenda_dispv = 206 } }
		localization_key = EU_show_available_206_loc_key
	}
	text = { trigger = { check_variable = { global.current_active_agenda_disp = 207 } }
		localization_key = EU_show_available_207_loc_key
	}
	text = { trigger = { check_variable = { global.current_active_agenda_disp = 208 } }
		localization_key = EU_show_available_208_loc_key
	}
	text = { trigger = { check_variable = { global.current_active_agenda_disp = 301 } }
		localization_key = EU_show_available_301_loc_key
	}
	text = { trigger = { check_variable = { global.current_active_agenda_disp = 302 } }
		localization_key = EU_show_available_302_loc_key
	}
	text = { trigger = { check_variable = { global.current_active_agenda_disp = 303 } }
		localization_key = EU_show_available_303_loc_key
	}
	text = { trigger = { check_variable = { global.current_active_agenda_disp = 304 } }
		localization_key = EU_show_available_304_loc_key
	}
	text = { trigger = { check_variable = { global.current_active_agenda_disp = 305 } }
		localization_key = EU_show_available_305_loc_key
	}
	text = { trigger = { check_variable = { global.current_active_agenda_disp = 306 } }
		localization_key = EU_show_available_306_loc_key
	}
	text = { trigger = { check_variable = { global.current_active_agenda_disp = 307 } }
		localization_key = EU_show_available_307_loc_key
	}
	text = { trigger = { check_variable = { global.current_active_agenda_disp = 308 } }
		localization_key = EU_show_available_308_loc_key
	}
	text = { trigger = { check_variable = { global.current_active_agenda_disp = 401 } }
		localization_key = EU_show_available_401_loc_key
	}
	text = { trigger = { check_variable = { global.current_active_agenda_disp = 402 } }
		localization_key = EU_show_available_402_loc_key
	}
	text = { trigger = { check_variable = { global.current_active_agenda_disp = 403 } }
		localization_key = EU_show_available_403_loc_key
	}
	text = { trigger = { check_variable = { global.current_active_agenda_disp = 404 } }
		localization_key = EU_show_available_404_loc_key
	}
	text = { trigger = { check_variable = { global.current_active_agenda_disp = 405 } }
		localization_key = EU_show_available_405_loc_key
	}
	text = { trigger = { check_variable = { global.current_active_agenda_disp = 406 } }
		localization_key = EU_show_available_406_loc_key
	}
	text = { trigger = { check_variable = { global.current_active_agenda_disp = 407 } }
		localization_key = EU_show_available_407_loc_key
	}
	text = { trigger = { check_variable = { global.current_active_agenda_disp = 408 } }
		localization_key = EU_show_available_408_loc_key
	}
	text = { trigger = { check_variable = { global.current_active_agenda_disp = 601 } }
		localization_key = EU_show_available_601_loc_key
	}
	text = { trigger = { check_variable = { global.current_active_agenda_disp = 602 } }
		localization_key = EU_show_available_602_loc_key
	}
	text = { trigger = { check_variable = { global.current_active_agenda_disp = 603 } }
		localization_key = EU_show_available_603_loc_key
	}
	text = { trigger = { check_variable = { global.current_active_agenda_disp = 605 } }
		localization_key = EU_show_available_605_loc_key
	}
	text = { trigger = { check_variable = { global.current_active_agenda_disp = 606 } }
		localization_key = EU_show_available_606_loc_key
	}
	text = { trigger = { check_variable = { global.current_active_agenda_disp = 607 } }
		localization_key = EU_show_available_607_loc_key
	}
	text = { trigger = { check_variable = { global.current_active_agenda_disp = 608 } }
		localization_key = EU_show_available_608_loc_key
	}
	text = { trigger = { check_variable = { global.current_active_agenda_disp = 609 } }
		localization_key = EU_show_available_609_loc_key
	}
	text = { trigger = { check_variable = { global.current_active_agenda_disp = 610 } }
		localization_key = EU_show_available_610_loc_key
	}
	text = { trigger = { check_variable = { global.current_active_agenda_disp = 611 } }
		localization_key = EU_show_available_611_loc_key
	}
	text = { trigger = { check_variable = { global.current_active_agenda_disp = 112 } }
		localization_key = EU_show_available_112_loc_key
	}
	text = { trigger = { check_variable = { global.current_active_agenda_disp = 110 } }
		localization_key = EU_show_available_110_loc_key
	}
	text = { trigger = { check_variable = { global.current_active_agenda_disp = 111 } }
		localization_key = EU_show_available_111_loc_key
	}
	text = { trigger = { check_variable = { global.current_active_agenda_disp = 999 } }
		localization_key = EU_show_available_999_loc_key
	}
	text = { trigger = { check_variable = { global.current_active_agenda_disp = 998 } }
		localization_key = EU_show_available_998_loc_key
	}
	text = {
		localization_key = EU_show_available_0_loc_key
	}
}

defined_text = {
	name = current_active_vote_disp
	#Use the variable to set the loc key for each law

	text = { trigger = { check_variable = { global.current_active_vote_disp = 002 } }
		localization_key = EU_show_available_002_loc_key
	}
	text = { trigger = { check_variable = { global.current_active_vote_disp = 101 } }
		localization_key = EU_show_available_101_loc_key
	}
	text = { trigger = { check_variable = { global.current_active_vote_disp = 102 } }
		localization_key = EU_show_available_102_loc_key
	}
	text = { trigger = { check_variable = { global.current_active_vote_disp = 103 } }
		localization_key = EU_show_available_103_loc_key
	}
	text = { trigger = { check_variable = { global.current_active_vote_disp = 104 } }
		localization_key = EU_show_available_104_loc_key
	}
	text = { trigger = { check_variable = { global.current_active_vote_disp = 105 } }
		localization_key = EU_show_available_105_loc_key
	}
	text = { trigger = { check_variable = { global.current_active_vote_disp = 201 } }
		localization_key = EU_show_available_201_loc_key
	}
	text = { trigger = { check_variable = { global.current_active_vote_disp = 202 } }
		localization_key = EU_show_available_202_loc_key
	}
	text = { trigger = { check_variable = { global.current_active_vote_disp = 203 } }
		localization_key = EU_show_available_203_loc_key
	}
	text = { trigger = { check_variable = { global.current_active_vote_disp = 204 } }
		localization_key = EU_show_available_204_loc_key
	}
	text = { trigger = { check_variable = { global.current_active_vote_disp = 205 } }
		localization_key = EU_show_available_205_loc_key
	}
	text = { trigger = { check_variable = { global.current_active_vote_disp = 206 } }
		localization_key = EU_show_available_206_loc_key
	}
	text = { trigger = { check_variable = { global.current_active_vote_disp = 207 } }
		localization_key = EU_show_available_207_loc_key
	}
	text = { trigger = { check_variable = { global.current_active_vote_disp = 208 } }
		localization_key = EU_show_available_208_loc_key
	}
	text = { trigger = { check_variable = { global.current_active_vote_disp = 301 } }
		localization_key = EU_show_available_301_loc_key
	}
	text = { trigger = { check_variable = { global.current_active_vote_disp = 302 } }
		localization_key = EU_show_available_302_loc_key
	}
	text = { trigger = { check_variable = { global.current_active_vote_disp = 303 } }
		localization_key = EU_show_available_303_loc_key
	}
	text = { trigger = { check_variable = { global.current_active_vote_disp = 304 } }
		localization_key = EU_show_available_304_loc_key
	}
	text = { trigger = { check_variable = { global.current_active_vote_disp = 305 } }
		localization_key = EU_show_available_305_loc_key
	}
	text = { trigger = { check_variable = { global.current_active_vote_disp = 306 } }
		localization_key = EU_show_available_306_loc_key
	}
	text = { trigger = { check_variable = { global.current_active_vote_disp = 307 } }
		localization_key = EU_show_available_307_loc_key
	}
	text = { trigger = { check_variable = { global.current_active_vote_disp = 308 } }
		localization_key = EU_show_available_308_loc_key
	}
	text = { trigger = { check_variable = { global.current_active_vote_disp = 401 } }
		localization_key = EU_show_available_401_loc_key
	}
	text = { trigger = { check_variable = { global.current_active_vote_disp = 402 } }
		localization_key = EU_show_available_402_loc_key
	}
	text = { trigger = { check_variable = { global.current_active_vote_disp = 403 } }
		localization_key = EU_show_available_403_loc_key
	}
	text = { trigger = { check_variable = { global.current_active_vote_disp = 404 } }
		localization_key = EU_show_available_404_loc_key
	}
	text = { trigger = { check_variable = { global.current_active_vote_disp = 405 } }
		localization_key = EU_show_available_405_loc_key
	}
	text = { trigger = { check_variable = { global.current_active_vote_disp = 406 } }
		localization_key = EU_show_available_406_loc_key
	}
	text = { trigger = { check_variable = { global.current_active_vote_disp = 407 } }
		localization_key = EU_show_available_407_loc_key
	}
	text = { trigger = { check_variable = { global.current_active_vote_disp = 408 } }
		localization_key = EU_show_available_408_loc_key
	}
	text = { trigger = { check_variable = { global.current_active_vote_disp = 601 } }
		localization_key = EU_show_available_601_loc_key
	}
	text = { trigger = { check_variable = { global.current_active_vote_disp = 602 } }
		localization_key = EU_show_available_602_loc_key
	}
	text = { trigger = { check_variable = { global.current_active_vote_disp = 603 } }
		localization_key = EU_show_available_603_loc_key
	}
	text = { trigger = { check_variable = { global.current_active_vote_disp = 605 } }
		localization_key = EU_show_available_605_loc_key
	}
	text = { trigger = { check_variable = { global.current_active_vote_disp = 606 } }
		localization_key = EU_show_available_606_loc_key
	}
	text = { trigger = { check_variable = { global.current_active_vote_disp = 607 } }
		localization_key = EU_show_available_607_loc_key
	}
	text = { trigger = { check_variable = { global.current_active_vote_disp = 608 } }
		localization_key = EU_show_available_608_loc_key
	}
	text = { trigger = { check_variable = { global.current_active_vote_disp = 609 } }
		localization_key = EU_show_available_609_loc_key
	}
	text = { trigger = { check_variable = { global.current_active_vote_disp = 610 } }
		localization_key = EU_show_available_610_loc_key
	}
	text = { trigger = { check_variable = { global.current_active_vote_disp = 611 } }
		localization_key = EU_show_available_611_loc_key
	}
	text = { trigger = { check_variable = { global.current_active_vote_disp = 112 } }
		localization_key = EU_show_available_112_loc_key
	}
	text = { trigger = { check_variable = { global.current_active_vote_disp = 110 } }
		localization_key = EU_show_available_110_loc_key
	}
	text = { trigger = { check_variable = { global.current_active_vote_disp = 111 } }
		localization_key = EU_show_available_111_loc_key
	}
	text = { trigger = { check_variable = { global.current_active_vote_disp = 999 } }
		localization_key = EU_show_available_999_loc_key
	}
	text = { trigger = { check_variable = { global.current_active_vote_disp = 998 } }
		localization_key = EU_show_available_998_loc_key
	}
	text = {
		localization_key = EU_show_available_0_loc_key
	}
}

defined_text = {
	name = current_active_vote_desc
	#Use the variable to set the loc key for each law

	text = { trigger = { check_variable = { v = 002 } }
		localization_key = EU_show_available_desc_002_loc_key
	}
	text = { trigger = { check_variable = { v = 101 } }
		localization_key = EU_show_available_desc_101_loc_key
	}
	text = { trigger = { check_variable = { v = 102 } }
		localization_key = EU_show_available_desc_102_loc_key
	}
	text = { trigger = { check_variable = { v = 103 } }
		localization_key = EU_show_available_desc_103_loc_key
	}
	text = { trigger = { check_variable = { v = 104 } }
		localization_key = EU_show_available_desc_104_loc_key
	}
	text = { trigger = { check_variable = { v = 105 } }
		localization_key = EU_show_available_desc_105_loc_key
	}
	text = { trigger = { check_variable = { v = 201 } }
		localization_key = EU_show_available_desc_201_loc_key
	}
	text = { trigger = { check_variable = { v = 202 } }
		localization_key = EU_show_available_desc_202_loc_key
	}
	text = { trigger = { check_variable = { v = 203 } }
		localization_key = EU_show_available_desc_203_loc_key
	}
	text = { trigger = { check_variable = { v = 204 } }
		localization_key = EU_show_available_desc_204_loc_key
	}
	text = { trigger = { check_variable = { v = 205 } }
		localization_key = EU_show_available_desc_205_loc_key
	}
	text = { trigger = { check_variable = { v = 206 } }
		localization_key = EU_show_available_desc_206_loc_key
	}
	text = { trigger = { check_variable = { v = 207 } }
		localization_key = EU_show_available_desc_207_loc_key
	}
	text = { trigger = { check_variable = { v = 208 } }
		localization_key = EU_show_available_desc_208_loc_key
	}
	text = { trigger = { check_variable = { v = 301 } }
		localization_key = EU_show_available_desc_301_loc_key
	}
	text = { trigger = { check_variable = { v = 302 } }
		localization_key = EU_show_available_desc_302_loc_key
	}
	text = { trigger = { check_variable = { v = 303 } }
		localization_key = EU_show_available_desc_303_loc_key
	}
	text = { trigger = { check_variable = { v = 304 } }
		localization_key = EU_show_available_desc_304_loc_key
	}
	text = { trigger = { check_variable = { v = 305 } }
		localization_key = EU_show_available_desc_305_loc_key
	}
	text = { trigger = { check_variable = { v = 306 } }
		localization_key = EU_show_available_desc_306_loc_key
	}
	text = { trigger = { check_variable = { v = 307 } }
		localization_key = EU_show_available_desc_307_loc_key
	}
	text = { trigger = { check_variable = { v = 308 } }
		localization_key = EU_show_available_desc_308_loc_key
	}
	text = { trigger = { check_variable = { v = 401 } }
		localization_key = EU_show_available_desc_401_loc_key
	}
	text = { trigger = { check_variable = { v = 402 } }
		localization_key = EU_show_available_desc_402_loc_key
	}
	text = { trigger = { check_variable = { v = 403 } }
		localization_key = EU_show_available_desc_403_loc_key
	}
	text = { trigger = { check_variable = { v = 404 } }
		localization_key = EU_show_available_desc_404_loc_key
	}
	text = { trigger = { check_variable = { v = 405 } }
		localization_key = EU_show_available_desc_405_loc_key
	}
	text = { trigger = { check_variable = { v = 406 } }
		localization_key = EU_show_available_desc_406_loc_key
	}
	text = { trigger = { check_variable = { v = 407 } }
		localization_key = EU_show_available_desc_407_loc_key
	}
	text = { trigger = { check_variable = { v = 408 } }
		localization_key = EU_show_available_desc_408_loc_key
	}
	text = { trigger = { check_variable = { v = 601 } }
		localization_key = EU_show_available_desc_601_loc_key
	}
	text = { trigger = { check_variable = { v = 602 } }
		localization_key = EU_show_available_desc_602_loc_key
	}
	text = { trigger = { check_variable = { v = 603 } }
		localization_key = EU_show_available_desc_603_loc_key
	}
	text = { trigger = { check_variable = { v = 605 } }
		localization_key = EU_show_available_desc_605_loc_key
	}
	text = { trigger = { check_variable = { v = 606 } }
		localization_key = EU_show_available_desc_606_loc_key
	}
	text = { trigger = { check_variable = { v = 607 } }
		localization_key = EU_show_available_desc_607_loc_key
	}
	text = { trigger = { check_variable = { v = 608 } }
		localization_key = EU_show_available_desc_608_loc_key
	}
	text = { trigger = { check_variable = { v = 609 } }
		localization_key = EU_show_available_desc_609_loc_key
	}
	text = { trigger = { check_variable = { v = 610 } }
		localization_key = EU_show_available_desc_610_loc_key
	}
	text = { trigger = { check_variable = { v = 611 } }
		localization_key = EU_show_available_desc_611_loc_key
	}
	text = { trigger = { check_variable = { v = 112 } }
		localization_key = EU_show_available_desc_112_loc_key
	}
	text = { trigger = { check_variable = { v = 113 } }
		localization_key = EU_show_available_desc_113_loc_key
	}
	text = { trigger = { check_variable = { v = 110 } }
		localization_key = EU_show_available_desc_110_loc_key
	}
	text = { trigger = { check_variable = { v = 111 } }
		localization_key = EU_show_available_desc_111_loc_key
	}
	text = { trigger = { check_variable = { v = 999 } }
		localization_key = EU_show_available_desc_999_loc_key
	}
	text = { trigger = { check_variable = { v = 998 } }
		localization_key = EU_show_available_desc_998_loc_key
	}
	text = {
		localization_key = EU_show_available_0_loc_key
	}
}

defined_text = {
	name = current_active_vote_desc_disp
	#Use the variable to set the loc key for each law

	text = { trigger = { check_variable = { global.current_active_vote_disp = 002 } }
		localization_key = EU_show_available_desc_002_loc_key
	}
	text = { trigger = { check_variable = { global.current_active_vote_disp = 101 } }
		localization_key = EU_show_available_desc_101_loc_key
	}
	text = { trigger = { check_variable = { global.current_active_vote_disp = 102 } }
		localization_key = EU_show_available_desc_102_loc_key
	}
	text = { trigger = { check_variable = { global.current_active_vote_disp = 103 } }
		localization_key = EU_show_available_desc_103_loc_key
	}
	text = { trigger = { check_variable = { global.current_active_vote_disp = 104 } }
		localization_key = EU_show_available_desc_104_loc_key
	}
	text = { trigger = { check_variable = { global.current_active_vote_disp = 105 } }
		localization_key = EU_show_available_desc_105_loc_key
	}
	text = { trigger = { check_variable = { global.current_active_vote_disp = 201 } }
		localization_key = EU_show_available_desc_201_loc_key
	}
	text = { trigger = { check_variable = { global.current_active_vote_disp = 202 } }
		localization_key = EU_show_available_desc_202_loc_key
	}
	text = { trigger = { check_variable = { global.current_active_vote_disp = 203 } }
		localization_key = EU_show_available_desc_203_loc_key
	}
	text = { trigger = { check_variable = { global.current_active_vote_disp = 204 } }
		localization_key = EU_show_available_desc_204_loc_key
	}
	text = { trigger = { check_variable = { global.current_active_vote_disp = 205 } }
		localization_key = EU_show_available_desc_205_loc_key
	}
	text = { trigger = { check_variable = { global.current_active_vote_disp = 206 } }
		localization_key = EU_show_available_desc_206_loc_key
	}
	text = { trigger = { check_variable = { global.current_active_vote_disp = 207 } }
		localization_key = EU_show_available_desc_207_loc_key
	}
	text = { trigger = { check_variable = { global.current_active_vote_disp = 208 } }
		localization_key = EU_show_available_desc_208_loc_key
	}
	text = { trigger = { check_variable = { global.current_active_vote_disp = 301 } }
		localization_key = EU_show_available_desc_301_loc_key
	}
	text = { trigger = { check_variable = { global.current_active_vote_disp = 302 } }
		localization_key = EU_show_available_desc_302_loc_key
	}
	text = { trigger = { check_variable = { global.current_active_vote_disp = 303 } }
		localization_key = EU_show_available_desc_303_loc_key
	}
	text = { trigger = { check_variable = { global.current_active_vote_disp = 304 } }
		localization_key = EU_show_available_desc_304_loc_key
	}
	text = { trigger = { check_variable = { global.current_active_vote_disp = 305 } }
		localization_key = EU_show_available_desc_305_loc_key
	}
	text = { trigger = { check_variable = { global.current_active_vote_disp = 306 } }
		localization_key = EU_show_available_desc_306_loc_key
	}
	text = { trigger = { check_variable = { global.current_active_vote_disp = 307 } }
		localization_key = EU_show_available_desc_307_loc_key
	}
	text = { trigger = { check_variable = { global.current_active_vote_disp = 308 } }
		localization_key = EU_show_available_desc_308_loc_key
	}
	text = { trigger = { check_variable = { global.current_active_vote_disp = 401 } }
		localization_key = EU_show_available_desc_401_loc_key
	}
	text = { trigger = { check_variable = { global.current_active_vote_disp = 402 } }
		localization_key = EU_show_available_desc_402_loc_key
	}
	text = { trigger = { check_variable = { global.current_active_vote_disp = 403 } }
		localization_key = EU_show_available_desc_403_loc_key
	}
	text = { trigger = { check_variable = { global.current_active_vote_disp = 404 } }
		localization_key = EU_show_available_desc_404_loc_key
	}
	text = { trigger = { check_variable = { global.current_active_vote_disp = 405 } }
		localization_key = EU_show_available_desc_405_loc_key
	}
	text = { trigger = { check_variable = { global.current_active_vote_disp = 406 } }
		localization_key = EU_show_available_desc_406_loc_key
	}
	text = { trigger = { check_variable = { global.current_active_vote_disp = 407 } }
		localization_key = EU_show_available_desc_407_loc_key
	}
	text = { trigger = { check_variable = { global.current_active_vote_disp = 408 } }
		localization_key = EU_show_available_desc_408_loc_key
	}
	text = { trigger = { check_variable = { global.current_active_vote_disp = 601 } }
		localization_key = EU_show_available_desc_601_loc_key
	}
	text = { trigger = { check_variable = { global.current_active_vote_disp = 602 } }
		localization_key = EU_show_available_desc_602_loc_key
	}
	text = { trigger = { check_variable = { global.current_active_vote_disp = 603 } }
		localization_key = EU_show_available_desc_603_loc_key
	}
	text = { trigger = { check_variable = { global.current_active_vote_disp = 605 } }
		localization_key = EU_show_available_desc_605_loc_key
	}
	text = { trigger = { check_variable = { global.current_active_vote_disp = 606 } }
		localization_key = EU_show_available_desc_606_loc_key
	}
	text = { trigger = { check_variable = { global.current_active_vote_disp = 607 } }
		localization_key = EU_show_available_desc_607_loc_key
	}
	text = { trigger = { check_variable = { global.current_active_vote_disp = 608 } }
		localization_key = EU_show_available_desc_608_loc_key
	}
	text = { trigger = { check_variable = { global.current_active_vote_disp = 609 } }
		localization_key = EU_show_available_desc_609_loc_key
	}
	text = { trigger = { check_variable = { global.current_active_vote_disp = 610 } }
		localization_key = EU_show_available_desc_610_loc_key
	}
	text = { trigger = { check_variable = { global.current_active_vote_disp = 611 } }
		localization_key = EU_show_available_desc_611_loc_key
	}
	text = { trigger = { check_variable = { global.current_active_vote_disp = 112 } }
		localization_key = EU_show_available_desc_112_loc_key
	}
	text = { trigger = { check_variable = { global.current_active_vote_disp = 113 } }
		localization_key = EU_show_available_desc_113_loc_key
	}
	text = { trigger = { check_variable = { global.current_active_vote_disp = 110 } }
		localization_key = EU_show_available_desc_110_loc_key
	}
	text = { trigger = { check_variable = { global.current_active_vote_disp = 111 } }
		localization_key = EU_show_available_desc_111_loc_key
	}
	text = { trigger = { check_variable = { global.current_active_vote_disp = 999 } }
		localization_key = EU_show_available_desc_999_loc_key
	}
	text = { trigger = { check_variable = { global.current_active_vote_disp = 998 } }
		localization_key = EU_show_available_desc_998_loc_key
	}
	text = {
		localization_key = EU_show_available_desc_0_loc_key
	}
}
