defined_text = {
	name = Impire_BLR_loc
	text = {
		trigger = {
			NOT = { SOV = { owns_state = 703 } }
		}
		localization_key = Impire_BLR_loc_no_tt
	}
	text = {
		trigger = {
			SOV = { owns_state = 703 }
		}
		localization_key = Impire_BLR_loc_yes_tt
	}
}
defined_text = {
	name = Impire_UKR_loc
	text = {
		trigger = {
			NOT = { SOV = { owns_state = 698 } }
		}
		localization_key = Impire_UKR_loc_no_tt
	}
	text = {
		trigger = {
			SOV = { owns_state = 698 }
		}
		localization_key = Impire_UKR_loc_yes_tt
	}
}
defined_text = {
	name = Impire_GEO_loc
	text = {
		trigger = {
			NOT = { SOV = { owns_state = 707 } }
		}
		localization_key = Impire_GEO_loc_no_tt
	}
	text = {
		trigger = {
			SOV = { owns_state = 707 }
		}
		localization_key = Impire_GEO_loc_yes_tt
	}
}
defined_text = {
	name = Impire_ARM_loc
	text = {
		trigger = {
			NOT = { SOV = { owns_state = 709 } }
		}
		localization_key = Impire_ARM_loc_no_tt
	}
	text = {
		trigger = {
			SOV = { owns_state = 709 }
		}
		localization_key = Impire_ARM_loc_yes_tt
	}
}
defined_text = {
	name = Impire_AZE_loc
	text = {
		trigger = {
			NOT = { SOV = { owns_state = 713 } }
		}
		localization_key = Impire_AZE_loc_no_tt
	}
	text = {
		trigger = {
			SOV = { owns_state = 713 }
		}
		localization_key = Impire_AZE_loc_yes_tt
	}
}
defined_text = {
	name = Impire_KAZ_loc
	text = {
		trigger = {
			NOT = { SOV = { owns_state = 716 } }
		}
		localization_key = Impire_KAZ_loc_no_tt
	}
	text = {
		trigger = {
			SOV = { owns_state = 716 }
		}
		localization_key = Impire_KAZ_loc_yes_tt
	}
}
######Warsaw Pact Loc#####
defined_text = {
	name = Warsaw_POL_loc
	text = {
		trigger = {
			NOT = { 
				POL = {
				has_autonomy_state = autonomy_warsaw
				exists = yes
				} 
			}
		}
		localization_key = Warsaw_POL_no_tt
	}
	text = {
		trigger = {
			POL = {
				has_autonomy_state = autonomy_warsaw
				exists = yes
			}
		}
		localization_key = Warsaw_POL_yes_tt
	}
}
defined_text = {
	name = Warsaw_HUN_loc
	text = {
		trigger = {
			NOT = { 
				HUN = {
				has_autonomy_state = autonomy_warsaw
				exists = yes
				} 
			}
		}
		localization_key = Warsaw_HUN_no_tt
	}
	text = {
		trigger = {
			HUN = {
				has_autonomy_state = autonomy_warsaw
				exists = yes
			}
		}
		localization_key = Warsaw_HUN_yes_tt
	}
}
defined_text = {
	name = Warsaw_BUL_loc
	text = {
		trigger = {
			NOT = { 
				BUL = {
				has_autonomy_state = autonomy_warsaw
				exists = yes
				} 
			}
		}
		localization_key = Warsaw_BUL_no_tt
	}
	text = {
		trigger = {
			BUL = {
				has_autonomy_state = autonomy_warsaw
				exists = yes
			}
		}
		localization_key = Warsaw_BUL_yes_tt
	}
}
defined_text = {
	name = Warsaw_ROM_loc
	text = {
		trigger = {
			NOT = { 
				ROM = {
				has_autonomy_state = autonomy_warsaw
				exists = yes
				} 
			}
		}
		localization_key = Warsaw_ROM_no_tt
	}
	text = {
		trigger = {
			ROM = {
				has_autonomy_state = autonomy_warsaw
				exists = yes
			}
		}
		localization_key = Warsaw_ROM_yes_tt
	}
}
defined_text = {
	name = Warsaw_CZE_loc
	text = {
		trigger = {
			NOT = { 
				CZE = {
				has_autonomy_state = autonomy_warsaw
				exists = yes
				} 
			}
		}
		localization_key = Warsaw_CZE_no_tt
	}
	text = {
		trigger = {
			CZE = {
				has_autonomy_state = autonomy_warsaw
				exists = yes
			}
		}
		localization_key = Warsaw_CZE_yes_tt
	}
}
defined_text = {
	name = SOV_FSS_FSC

	text = { 
		trigger = {
			NOT = { has_completed_focus = SOV_eliminate_FSS }
		}
		localization_key = SOV_FSS_intelligence
	}
	text = {
		trigger = {
			has_completed_focus = SOV_eliminate_FSS
		}
		localization_key = SOV_FCS_intelligence
	}
}
