
state = {
	id = 1084
	name = "STATE_1084"

	history = {
		owner = USA
		victory_points = {
			14053 5
		}
		buildings = {
			infrastructure = 2
			internet_station = 2
			offices = 1
		}
		add_core_of = USA
		add_core_of = NEN
		2017.1.1 = {
			add_manpower = 1
			buildings = {
				internet_station = 1
			}
		}

	}

	provinces = {
		14052 14053 14054
	}
	manpower = 1048319
	buildings_max_level_factor = 1.000
	state_category = state_02
}
