state = {
	id = 371
	name = "STATE_371"

	history = {
		owner = MAU
		victory_points = {
			8035 1 
		}
		buildings = {
			infrastructure = 0
			internet_station = 0

		}
		add_core_of = MAU
		2017.1.1 = {
			buildings = {
				internet_station = 0
			}
			add_manpower = 73178

		}

	}

	provinces = {
		8035 10779 10814 10838 
	}
	manpower = 112318
	buildings_max_level_factor = 1.000
	state_category = state_00
}
