state = {
	id = 378
	name = "STATE_378"

	history = {
		owner = MOR
		victory_points = {
			7203 5
		}
		victory_points = {
			5046 1
		}
		buildings = {
			infrastructure = 1
			internet_station = 1
			7203 = {
				naval_base = 4

			}

		}
		add_core_of = MOR
		2017.1.1 = {
			add_manpower = 688222
			buildings = {
				internet_station = 2
			}
		}
	}

	provinces = {
		4022 5046 7203 12857 13230 13231
	}
	manpower = 2638337
	buildings_max_level_factor = 1.000
	state_category = state_04
}
