state = {
	id = 407
	name = "STATE_407"

	history = {
		owner = PER
		victory_points = {
			1896 10
		}
		victory_points = {
			4553 5
		}
		victory_points = {
			10454 5
		}
		victory_points = {
			12793 1
		}
		buildings = {
			infrastructure = 2
			internet_station = 1
			industrial_complex = 1
			arms_factory = 1
			offices = 2
			air_base = 2
			anti_air_building = 3

		}
		add_core_of = PER
		add_core_of = AZE
		2017.1.1 = {
			add_manpower = 368458

		}

	}

	provinces = {
		1896 2071 4553 4755 4825 4901 10454 10523 12793 12861 13120 14731 14732 14733 14734
	}
	manpower = 6942090
	buildings_max_level_factor = 1.000
	state_category = state_05
}
