state = {
	id = 683
	name = "STATE_683"
	manpower = 40702
	state_category = state_01

	resources = {
		oil = 12
	}

	history = {
		owner = SOV
		victory_points = {
			105 3
		}
		victory_points = {
			198 1
		}
		buildings = {
			infrastructure = 0
			internet_station = 0
			105 = {
				naval_base = 2
			}
		}
		add_core_of = SOV
		add_core_of = NEE
	}

	provinces = {
		105 198 3147 6192 9205 10207 11119 12530 14115 14116
	}
}