# Author(s): Hiddengearz, Doolittle
# Redesigned 10OCT23 following plane designer implementation. Redesigned by Doolittle
technologies = {
	#Tactical Strikes Doctrine
	jsead = {
		on_research_complete = { log = "[GetDateText]: [Root.GetName]: add tech jsead" }
		xor = { strategic_industry_targets defense_of_the_homeland }
		#xor = { force_rotation air_superiority }

		# EFFECT ########
		tech_air_damage_factor = -0.10
		category_Strike_fighter = {
			air_bombing = 0.05
		}
		category_MR_fighter = {
			air_bombing = 0.05
		}
		###########
		xp_research_type = air
		xp_unlock_cost = 100
		xp_research_bonus = 1.00

		doctrine = yes
		research_cost = 1.5

		path = {
			research_cost_coeff = 1
			leads_to_tech = jamming_package_escorts
		}

		path = {
			research_cost_coeff = 1
			leads_to_tech = barcap_flights
		}

		path = {
			research_cost_coeff = 1
			leads_to_tech = c4istar
		}

		categories = {
			CAT_air_doctrine
			CAT_battlefield_support_tree
			CAT_battlefield_support
		}

		folder = {
			name = air_doctrine_folder
			position = { x = 0 y = 0 }
		}

		ai_will_do = {
			factor = 1
			modifier = {
				factor = 0
				OR = {
					#original_tag = SOV
					#original_tag = CHI
					original_tag = PER
					#original_tag = RAJ
					original_tag = PAK
					original_tag = UKR
				}
			}
			modifier = {
				factor = 10
				OR = {
					#BAI fix. What? Foul play!
					original_tag = SOV
					original_tag = CHI
					original_tag = RAJ
				}
			}
		}

		ai_research_weights = {
			CAT_air_doctrine = -1.0
			CAT_air_eqp = -1.0
		}
	}
	jamming_package_escorts = {
		on_research_complete = { log = "[GetDateText]: [Root.GetName]: add tech jamming_package_escorts" }

		xp_research_type = air
		xp_unlock_cost = 100
		xp_research_bonus = 1.00

		doctrine = yes
		research_cost = 1.5

		air_cas_efficiency = 0.05

		category_AS_fighter = {
			air_agility = 0.02
		}

		path = {
			research_cost_coeff = 1
			leads_to_tech = forward_air_controllers
		}

		categories = {
			CAT_air_doctrine
			CAT_battlefield_support_tree
			CAT_battlefield_support
		}

		folder = {
			name = air_doctrine_folder
			position = { x = -2 y = 2 }
		}

		ai_research_weights = {
			CAT_air_doctrine = -1.0
			CAT_air_eqp = -1.0
		}
	}
	barcap_flights = {
		on_research_complete = { log = "[GetDateText]: [Root.GetName]: add tech barcap_flights" }

		xp_research_type = air
		xp_unlock_cost = 100
		xp_research_bonus = 1.00

		air_superiority_efficiency = 0.05

		doctrine = yes
		research_cost = 1.5

		categories = {
			CAT_air_doctrine
			CAT_battlefield_support_tree
			CAT_battlefield_support
		}

		path = {
			research_cost_coeff = 1
			leads_to_tech = forward_air_controllers
		}

		path = {
			research_cost_coeff = 1
			leads_to_tech = aerial_gunship_support
		}

		folder = {
			name = air_doctrine_folder
			position = { x = 0 y = 2 }
		}

		ai_research_weights = {
			CAT_air_doctrine = -1.0
			CAT_air_eqp = -1.0
		}
	}
	c4istar = {
		on_research_complete = { log = "[GetDateText]: [Root.GetName]: add tech c4istar" }

		xp_research_type = air
		xp_unlock_cost = 100
		xp_research_bonus = 1.00

		doctrine = yes
		research_cost = 1.5

		air_superiority_efficiency = 0.10
		air_superiority_detect_factor = 0.10
		army_bonus_air_superiority_factor = 0.025

		category_AS_fighter = {
			air_attack = 0.02
		}

		categories = {
			CAT_air_doctrine
			CAT_battlefield_support_tree
			CAT_battlefield_support
		}

		path = {
			research_cost_coeff = 1
			leads_to_tech = aerial_gunship_support
		}

		folder = {
			name = air_doctrine_folder
			position = { x = 2 y = 2 }
		}

		ai_research_weights = {
			CAT_air_doctrine = -1.0
			CAT_air_eqp = -1.0
		}
	}
	forward_air_controllers = {
		on_research_complete = { log = "[GetDateText]: [Root.GetName]: add tech forward_air_controllers" }

		xp_research_type = air
		xp_unlock_cost = 100
		xp_research_bonus = 1.00

		doctrine = yes
		research_cost = 1.5

		ground_attack_factor = 0.05
		air_cas_efficiency = 0.10

		path = {
			research_cost_coeff = 1
			leads_to_tech = t21st_century_modernization
		}

		categories = {
			CAT_air_doctrine
			CAT_battlefield_support_tree
			CAT_battlefield_support
		}

		folder = {
			name = air_doctrine_folder
			position = { x = -1 y = 4 }
		}

		ai_research_weights = {
			CAT_air_doctrine = -1.0
			CAT_air_eqp = -1.0
		}
	}
	aerial_gunship_support = {
		on_research_complete = { log = "[GetDateText]: [Root.GetName]: add tech aerial_gunship_support" }

		xp_research_type = air
		xp_unlock_cost = 100
		xp_research_bonus = 1.00

		doctrine = yes
		research_cost = 1.5

		category_gunship = {
			air_ground_attack = 0.15
		}

		categories = {
			CAT_air_doctrine
			CAT_battlefield_support_tree
			CAT_battlefield_support
		}

		path = {
			research_cost_coeff = 1
			leads_to_tech = t21st_century_modernization
		}

		folder = {
			name = air_doctrine_folder
			position = { x = 1 y = 4 }
		}

		ai_research_weights = {
			CAT_air_doctrine = -1.0
			CAT_air_eqp = -1.0
		}
	}
	t21st_century_modernization = {
		on_research_complete = { log = "[GetDateText]: [Root.GetName]: add tech t21st_century_modernization" }

		xp_research_type = air
		xp_unlock_cost = 100
		xp_research_bonus = 1.00

		doctrine = yes
		research_cost = 1.5

		air_agility_factor = 0.10

		categories = {
			CAT_air_doctrine
			CAT_battlefield_support_tree
			CAT_battlefield_support
		}

		path = {
			research_cost_coeff = 1
			leads_to_tech = dispersed_aircraft_design
		}

		path = {
			research_cost_coeff = 1
			leads_to_tech = concentrated_aircraft_design
		}

		folder = {
			name = air_doctrine_folder
			position = { x = 0 y = 6 }
		}

		ai_research_weights = {
			CAT_air_doctrine = -1.0
			CAT_air_eqp = -1.0
		}
	}
	concentrated_aircraft_design = {
		on_research_complete = {
			log = "[GetDateText]: [Root.GetName]: add tech concentrated_aircraft_design"
			add_ideas = concentrated_aircraft_design_hidden_spirit
		}

		xp_research_type = air
		xp_unlock_cost = 100
		xp_research_bonus = 1.00

		xor = { dispersed_aircraft_design }

		doctrine = yes
		research_cost = 1.5

		path = {
			research_cost_coeff = 1
			leads_to_tech = expanded_combat_tactics
		}

		path = {
			research_cost_coeff = 1
			leads_to_tech = weapons_school
		}

		categories = {
			CAT_air_doctrine
			CAT_battlefield_support_tree
			CAT_battlefield_support
		}

		folder = {
			name = air_doctrine_folder
			position = { x = -2 y = 8 }
		}

		ai_research_weights = {
			CAT_air_doctrine = -1.0
			CAT_air_eqp = -1.0
		}
	}
	weapons_school = {
		on_research_complete = { log = "[GetDateText]: [Root.GetName]: add tech weapons_school" }

		xp_research_type = air
		xp_unlock_cost = 100
		xp_research_bonus = 1.00

		doctrine = yes
		research_cost = 1.5

		category_MR_fighter = {
			air_ground_attack = 0.05
			air_bombing = 0.05
		}

		categories = {
			CAT_air_doctrine
			CAT_battlefield_support_tree
			CAT_battlefield_support
		}

		path = {
			research_cost_coeff = 1
			leads_to_tech = top_gun_and_red_flag
		}

		folder = {
			name = air_doctrine_folder
			position = { x = -1 y = 10 }
		}

		ai_research_weights = {
			CAT_air_doctrine = -1.0
			CAT_air_eqp = -1.0
		}
	}
	expanded_combat_tactics = {
		on_research_complete = { log = "[GetDateText]: [Root.GetName]: add tech expanded_combat_tactics" }

		xp_research_type = air
		xp_unlock_cost = 100
		xp_research_bonus = 1.00

		category_MR_fighter = {
			air_attack = 0.025
			air_defence = 0.05
		}

		doctrine = yes
		research_cost = 1.5

		categories = {
			CAT_air_doctrine
			CAT_battlefield_support_tree
			CAT_battlefield_support
		}

		path = {
			research_cost_coeff = 1
			leads_to_tech = multi_mission_capabilities
		}

		folder = {
			name = air_doctrine_folder
			position = { x = -3 y = 10 }
		}

		ai_research_weights = {
			CAT_air_doctrine = -1.0
			CAT_air_eqp = -1.0
		}
	}
	top_gun_and_red_flag = {
		on_research_complete = { log = "[GetDateText]: [Root.GetName]: add tech top_gun_and_red_flag" }

		xp_research_type = air
		xp_unlock_cost = 100
		xp_research_bonus = 1.00

		doctrine = yes
		research_cost = 1.5

		category_MR_fighter = {
			air_agility = 0.05
			air_attack = 0.05
			air_defence = 0.05
		}

		categories = {
			CAT_air_doctrine
			CAT_battlefield_support_tree
			CAT_battlefield_support
		}

		path = {
			research_cost_coeff = 1
			leads_to_tech = data_linked_close_air_support
		}

		path = {
			research_cost_coeff = 1
			leads_to_tech = dynamic_strike_packages
		}

		folder = {
			name = air_doctrine_folder
			position = { x = -1 y = 12 }
		}

		ai_research_weights = {
			CAT_air_doctrine = -1.0
			CAT_air_eqp = -1.0
		}
	}
	multi_mission_capabilities = {
		on_research_complete = { log = "[GetDateText]: [Root.GetName]: add tech multi_mission_capabilities" }

		xp_research_type = air
		xp_unlock_cost = 100
		xp_research_bonus = 1.00

		doctrine = yes
		research_cost = 1.5

		air_mission_efficiency = 0.25
		air_escort_efficiency = 0.25
		air_bombing_targetting = 0.25

		categories = {
			CAT_air_doctrine
			CAT_battlefield_support_tree
			CAT_battlefield_support
		}

		path = {
			research_cost_coeff = 1
			leads_to_tech = dynamic_strike_packages
		}

		folder = {
			name = air_doctrine_folder
			position = { x = -3 y = 12 }
		}

		ai_research_weights = {
			CAT_air_doctrine = -1.0
			CAT_air_eqp = -1.0
		}
	}
	dispersed_aircraft_design = {
		on_research_complete = {
			log = "[GetDateText]: [Root.GetName]: add tech dispersed_aircraft_design"
			add_ideas = dispersed_aircraft_design_hidden_spirit
		}

		xp_research_type = air
		xp_unlock_cost = 100
		xp_research_bonus = 1.00

		xor = { concentrated_aircraft_design }

		doctrine = yes
		research_cost = 1.5

		categories = {
			CAT_air_doctrine
			CAT_battlefield_support_tree
			CAT_battlefield_support
		}

		path = {
			research_cost_coeff = 1
			leads_to_tech = dedicated_escort_fighters
		}

		path = {
			research_cost_coeff = 1
			leads_to_tech = standoff_strike_munitions
		}

		folder = {
			name = air_doctrine_folder
			position = { x = 2 y = 8 }
		}

		ai_research_weights = {
			CAT_air_doctrine = -1.0
			CAT_air_eqp = -1.0
		}
	}
	dedicated_escort_fighters = {
		on_research_complete = { log = "[GetDateText]: [Root.GetName]: add tech dedicated_escort_fighters" }

		xp_research_type = air
		xp_unlock_cost = 100
		xp_research_bonus = 1.00

		doctrine = yes
		research_cost = 1.5

		air_escort_efficiency = 0.3

		category_AS_fighter = {
			air_attack = 0.07
			air_agility = 0.07
		}

		categories = {
			CAT_air_doctrine
			CAT_battlefield_support_tree
			CAT_battlefield_support
		}

		path = {
			research_cost_coeff = 1
			leads_to_tech = extended_killbox_coordination
		}

		folder = {
			name = air_doctrine_folder
			position = { x = 1 y = 10 }
		}

		ai_research_weights = {
			CAT_air_doctrine = -1.0
			CAT_air_eqp = -1.0
		}
	}
	standoff_strike_munitions = {
		on_research_complete = { log = "[GetDateText]: [Root.GetName]: add tech standoff_strike_munitions" }

		xp_research_type = air
		xp_unlock_cost = 100
		xp_research_bonus = 1.00

		doctrine = yes
		research_cost = 1.5

		air_bombing_targetting = 0.05
		tech_air_damage_factor = -0.05

		path = {
			research_cost_coeff = 1
			leads_to_tech = improved_gunship_ordinance
		}

		categories = {
			CAT_air_doctrine
			CAT_battlefield_support_tree
			CAT_battlefield_support
		}

		folder = {
			name = air_doctrine_folder
			position = { x = 3 y = 10 }
		}

		ai_research_weights = {
			CAT_air_doctrine = -1.0
			CAT_air_eqp = -1.0
		}
	}
	extended_killbox_coordination = {
		on_research_complete = { log = "[GetDateText]: [Root.GetName]: add tech extended_killbox_coordination" }

		xp_research_type = air
		xp_unlock_cost = 100
		xp_research_bonus = 1.00

		doctrine = yes
		research_cost = 1.5

		air_cas_efficiency = 0.05

		category_CAS = {
			air_ground_attack = 0.15
			air_defence = 0.05
		}

		categories = {
			CAT_air_doctrine
			CAT_battlefield_support_tree
			CAT_battlefield_support
		}

		path = {
			research_cost_coeff = 1
			leads_to_tech = data_linked_close_air_support
		}

		path = {
			research_cost_coeff = 1
			leads_to_tech = dedicated_escorts_dedicated_strikers
		}

		folder = {
			name = air_doctrine_folder
			position = { x = 1 y = 12 }
		}

		ai_research_weights = {
			CAT_air_doctrine = -1.0
			CAT_air_eqp = -1.0
		}
	}
	improved_gunship_ordinance = {
		on_research_complete = { log = "[GetDateText]: [Root.GetName]: add tech improved_gunship_ordinance" }

		xp_research_type = air
		xp_unlock_cost = 100
		xp_research_bonus = 1.00

		doctrine = yes
		research_cost = 1.5

		category_gunship = {
			air_ground_attack = 0.15
		}

		categories = {
			CAT_air_doctrine
			CAT_battlefield_support_tree
			CAT_battlefield_support
		}

		path = {
			research_cost_coeff = 1
			leads_to_tech = dedicated_escorts_dedicated_strikers
		}

		folder = {
			name = air_doctrine_folder
			position = { x = 3 y = 12 }
		}

		ai_research_weights = {
			CAT_air_doctrine = -1.0
			CAT_air_eqp = -1.0
		}
	}
	dynamic_strike_packages = {
		on_research_complete = { log = "[GetDateText]: [Root.GetName]: add tech dynamic_strike_packages" }

		xp_research_type = air
		xp_unlock_cost = 100
		xp_research_bonus = 1.00

		doctrine = yes
		research_cost = 1.5

		air_attack_factor = 0.02
		air_defence_factor = 0.02
		air_agility_factor = 0.02

		categories = {
			CAT_air_doctrine
			CAT_battlefield_support_tree
			CAT_battlefield_support
		}

		path = {
			research_cost_coeff = 1
			leads_to_tech = precision_strike_packages
		}

		folder = {
			name = air_doctrine_folder
			position = { x = -2 y = 14 }
		}

		ai_research_weights = {
			CAT_air_doctrine = -1.0
			CAT_air_eqp = -1.0
		}
	}
	data_linked_close_air_support = {
		on_research_complete = { log = "[GetDateText]: [Root.GetName]: add tech data_linked_close_air_support" }

		xp_research_type = air
		xp_unlock_cost = 100
		xp_research_bonus = 1.00

		doctrine = yes
		research_cost = 1.5

		air_close_air_support_org_damage_factor = 0.02
		air_cas_present_factor = 0.02

		categories = {
			CAT_air_doctrine
			CAT_battlefield_support_tree
			CAT_battlefield_support
		}

		folder = {
			name = air_doctrine_folder
			position = { x = 0 y = 14 }
		}

		ai_research_weights = {
			CAT_air_doctrine = -1.0
			CAT_air_eqp = -1.0
		}
	}
	dedicated_escorts_dedicated_strikers = {
		on_research_complete = { log = "[GetDateText]: [Root.GetName]: add tech dedicated_escorts_dedicated_strikers" }

		xp_research_type = air
		xp_unlock_cost = 100
		xp_research_bonus = 1.00

		doctrine = yes
		research_cost = 1.5

		air_cas_efficiency = 0.15
		air_escort_efficiency = 0.15

		categories = {
			CAT_air_doctrine
			CAT_battlefield_support_tree
			CAT_battlefield_support
		}

		path = {
			research_cost_coeff = 1
			leads_to_tech = precision_strike_packages
		}

		folder = {
			name = air_doctrine_folder
			position = { x = 2 y = 14 }
		}

		ai_research_weights = {
			CAT_air_doctrine = -1.0
			CAT_air_eqp = -1.0
		}
	}
	precision_strike_packages = {
		on_research_complete = { log = "[GetDateText]: [Root.GetName]: add tech precision_strike_packages" }

		xp_research_type = air
		xp_unlock_cost = 100
		xp_research_bonus = 1.00

		category_CAS = {
			air_ground_attack = 0.10
			air_bombing = 0.10
		}

		category_MR_fighter = {
			air_ground_attack = 0.10
			air_bombing = 0.10
		}

		category_strat_bomber = {
			air_ground_attack = 0.10
			air_bombing = 0.10
		}

		doctrine = yes
		research_cost = 1.5

		categories = {
			CAT_air_doctrine
			CAT_battlefield_support_tree
			CAT_battlefield_support
		}

		folder = {
			name = air_doctrine_folder
			position = { x = 0 y = 16 }
		}

		ai_research_weights = {
			CAT_air_doctrine = -1.0
			CAT_air_eqp = -1.0
		}
	}
	#Strategic Asset
	strategic_industry_targets = {
		on_research_complete = { log = "[GetDateText]: [Root.GetName]: add tech strategic_industry_targets" }
		xor = { jsead defense_of_the_homeland }
		# EFFECT ########
		air_strategic_bomber_bombing_factor = 0.05
		category_strat_bomber = {
			air_bombing = 0.05
		}
		###########

		path = {
			research_cost_coeff = 1
			leads_to_tech = bomber_upgrade_series
		}

		path = {
			research_cost_coeff = 1
			leads_to_tech = offensive_counter_air
		}

		doctrine = yes
		research_cost = 2
		xp_research_type = air
		xp_unlock_cost = 100
		xp_research_bonus = 1.00

		categories = {
			CAT_air_doctrine
			CAT_operational_integrity_tree
			CAT_operational_integrity
		}

		folder = {
			name = air_doctrine_folder
			position = { x = 0 y = 0 }
		}

		ai_will_do = {
			factor = 1
			modifier = {
				factor = 0
				has_idea = NATO_member
			}
		}

		ai_research_weights = {
			CAT_air_doctrine = -1.0
			CAT_fighter = -2.0
		}
	}
	offensive_counter_air = {
		on_research_complete = { log = "[GetDateText]: [Root.GetName]: add tech offensive_counter_air" }

		# EFFECT ########
		category_AS_fighter = {
			air_attack = 0.075
			air_agility = 0.025
		}

		category_MR_fighter = {
			air_attack = 0.075
			air_agility = 0.025
		}

		category_fighter = {
			air_attack = 0.075
			air_agility = 0.025
		}
		###########

		path = {
			research_cost_coeff = 1
			leads_to_tech = total_air_superiority
		}

		path = {
			research_cost_coeff = 1
			leads_to_tech = dead_missions
		}

		doctrine = yes
		research_cost = 2
		xp_research_type = air
		xp_unlock_cost = 100
		xp_research_bonus = 1.00

		categories = {
			CAT_air_doctrine
			CAT_operational_integrity_tree
			CAT_operational_integrity
		}

		folder = {
			name = air_doctrine_folder
			position = { x = -2 y = 2 }
		}

		ai_research_weights = {
			CAT_air_doctrine = -1.0
			CAT_fighter = -2.0
		}
	}
	total_air_superiority = {
		on_research_complete = { log = "[GetDateText]: [Root.GetName]: add tech total_air_superiority" }

		# EFFECT ########
		air_superiority_efficiency = 0.15
		air_superiority_detect_factor = 0.15
		###########

		path = {
			research_cost_coeff = 1
			leads_to_tech = escorted_bomber_flights
		}

		doctrine = yes
		research_cost = 2
		xp_research_type = air
		xp_unlock_cost = 100
		xp_research_bonus = 1.00

		categories = {
			CAT_air_doctrine
			CAT_operational_integrity_tree
			CAT_operational_integrity
		}

		folder = {
			name = air_doctrine_folder
			position = { x = -3 y = 4 }
		}

		ai_will_do = {
			factor = 1
			modifier = {
				factor = 0
				has_idea = NATO_member
			}
		}

		ai_research_weights = {
			CAT_air_doctrine = -1.0
			CAT_fighter = -2.0
		}
	}
	dead_missions = {
		on_research_complete = { log = "[GetDateText]: [Root.GetName]: add tech dead_missions" }

		# EFFECT ########
		category_MR_fighter = {
			air_bombing = 0.05
			air_defence = 0.05
		}
		category_Strike_fighter = {
			air_bombing = 0.05
			air_defence = 0.05
		}
		tech_air_damage_factor = -0.10
		###########

		path = {
			research_cost_coeff = 1
			leads_to_tech = escorted_bomber_flights
		}

		doctrine = yes
		research_cost = 2
		xp_research_type = air
		xp_unlock_cost = 100
		xp_research_bonus = 1.00

		categories = {
			CAT_air_doctrine
			CAT_operational_integrity_tree
			CAT_operational_integrity
		}

		folder = {
			name = air_doctrine_folder
			position = { x = -1 y = 4 }
		}

		ai_will_do = {
			factor = 1
			modifier = {
				factor = 0
				has_idea = NATO_member
			}
		}

		ai_research_weights = {
			CAT_air_doctrine = -1.0
			CAT_fighter = -2.0
		}
	}
	escorted_bomber_flights = {
		on_research_complete = { log = "[GetDateText]: [Root.GetName]: add tech escorted_bomber_flights" }

		# EFFECT ########
		air_escort_efficiency = 0.25
		category_AS_fighter = {
			air_superiority = 0.04
			air_agility = 0.04
		}
		category_MR_fighter = {
			air_superiority = 0.04
			air_agility = 0.04
		}
		category_fighter = {
			air_superiority = 0.04
			air_agility = 0.04
		}
		###########

		path = {
			research_cost_coeff = 1
			leads_to_tech = fighter_sweeps
		}

		path = {
			research_cost_coeff = 1
			leads_to_tech = strike_fighter_dominance
		}

		doctrine = yes
		research_cost = 2
		xp_research_type = air
		xp_unlock_cost = 100
		xp_research_bonus = 1.00

		categories = {
			CAT_air_doctrine
			CAT_operational_integrity_tree
			CAT_operational_integrity
		}

		folder = {
			name = air_doctrine_folder
			position = { x = -2 y = 6 }
		}

		ai_will_do = {
			factor = 1
			modifier = {
				factor = 0
				has_idea = NATO_member
			}
		}

		ai_research_weights = {
			CAT_air_doctrine = -1.0
			CAT_fighter = -2.0
		}
	}
	fighter_sweeps = {
		on_research_complete = { log = "[GetDateText]: [Root.GetName]: add tech fighter_sweeps" }
		xor = { strike_fighter_dominance }
		# EFFECT ########
		category_AS_fighter = {
			air_attack = 0.10
			air_agility = 0.05
		}
		category_fighter = {
			air_attack = 0.10
			air_agility = 0.05
		}
		###########

		doctrine = yes
		research_cost = 2
		xp_research_type = air
		xp_unlock_cost = 100
		xp_research_bonus = 1.00

		path = {
			research_cost_coeff = 1
			leads_to_tech = high_altitude_fighter_escorts
		}

		categories = {
			CAT_air_doctrine
			CAT_operational_integrity_tree
			CAT_operational_integrity
		}

		folder = {
			name = air_doctrine_folder
			position = { x = -3 y = 8 }
		}

		ai_will_do = {
			factor = 1
			modifier = {
				factor = 0
				has_idea = NATO_member
			}
		}

		ai_research_weights = {
			CAT_air_doctrine = -1.0
			CAT_fighter = -2.0
		}
	}
	high_altitude_fighter_escorts = {
		on_research_complete = { log = "[GetDateText]: [Root.GetName]: add tech high_altitude_fighter_escorts" }

		# EFFECT ########
		air_escort_efficiency = 0.15
		air_superiority_efficiency = 0.10
		###########

		doctrine = yes
		research_cost = 2
		xp_research_type = air
		xp_unlock_cost = 100
		xp_research_bonus = 1.00

		categories = {
			CAT_air_doctrine
			CAT_operational_integrity_tree
			CAT_operational_integrity
		}

		path = {
			research_cost_coeff = 1
			leads_to_tech = high_efficiency_fighter_flights
		}

		folder = {
			name = air_doctrine_folder
			position = { x = -3 y = 10 }
		}

		ai_will_do = {
			factor = 1
			modifier = {
				factor = 0
				has_idea = NATO_member
			}
		}

		ai_research_weights = {
			CAT_air_doctrine = -1.0
			CAT_fighter = -2.0
		}
	}
	strike_fighter_dominance = {
		on_research_complete = { log = "[GetDateText]: [Root.GetName]: add tech strike_fighter_dominance" }
		xor = { fighter_sweeps }
		# EFFECT ########
		category_MR_fighter = {
			air_bombing = 0.05
			air_ground_attack = 0.15
		}
		category_Strike_fighter = {
			air_bombing = 0.05
			air_ground_attack = 0.15
		}

		###########

		doctrine = yes
		research_cost = 2
		xp_research_type = air
		xp_unlock_cost = 100
		xp_research_bonus = 1.00

		path = {
			research_cost_coeff = 1
			leads_to_tech = close_strike_operations
		}

		categories = {
			CAT_air_doctrine
			CAT_operational_integrity_tree
			CAT_operational_integrity
		}

		folder = {
			name = air_doctrine_folder
			position = { x = -1 y = 8 }
		}

		ai_will_do = {
			factor = 1
			modifier = {
				factor = 0
				has_idea = NATO_member
			}
		}

		ai_research_weights = {
			CAT_air_doctrine = -1.0
			CAT_fighter = -2.0
		}
	}
	close_strike_operations = {
		on_research_complete = { log = "[GetDateText]: [Root.GetName]: add tech close_strike_operations" }

		# EFFECT ########
		air_cas_efficiency = 0.05
		air_close_air_support_org_damage_factor = 0.05
		###########

		doctrine = yes
		research_cost = 2
		xp_research_type = air
		xp_unlock_cost = 100
		xp_research_bonus = 1.00

		path = {
			research_cost_coeff = 1
			leads_to_tech = high_efficiency_fighter_flights
		}

		categories = {
			CAT_air_doctrine
			CAT_operational_integrity_tree
			CAT_operational_integrity
		}

		folder = {
			name = air_doctrine_folder
			position = { x = -1 y = 10 }
		}

		ai_will_do = {
			factor = 1
			modifier = {
				factor = 0
				has_idea = NATO_member
			}
		}

		ai_research_weights = {
			CAT_air_doctrine = -1.0
			CAT_fighter = -2.0
		}
	}
	high_efficiency_fighter_flights = {
		on_research_complete = { log = "[GetDateText]: [Root.GetName]: add tech high_efficiency_fighter_flights" }

		# EFFECT ########
		air_intercept_efficiency = 0.15
		air_escort_efficiency = 0.15
		###########

		doctrine = yes
		research_cost = 2
		xp_research_type = air
		xp_unlock_cost = 100
		xp_research_bonus = 1.00

		categories = {
			CAT_air_doctrine
			CAT_operational_integrity_tree
			CAT_operational_integrity
		}

		folder = {
			name = air_doctrine_folder
			position = { x = -2 y = 12 }
		}

		ai_will_do = {
			factor = 1
			modifier = {
				factor = 0
				has_idea = NATO_member
			}
		}

		ai_research_weights = {
			CAT_air_doctrine = -1.0
			CAT_fighter = -2.0
		}
	}
	bomber_upgrade_series = {
		on_research_complete = { log = "[GetDateText]: [Root.GetName]: add tech bomber_upgrade_series" }

		# EFFECT ########
		category_strat_bomber = {
			air_bombing = 0.10
			air_defence = 0.05
			air_agility = 0.10
		}
		###########

		path = {
			research_cost_coeff = 1
			leads_to_tech = massed_alcm_strikes
		}

		path = {
			research_cost_coeff = 1
			leads_to_tech = extended_maritime_patrols
		}

		doctrine = yes
		research_cost = 2
		xp_research_type = air
		xp_unlock_cost = 100
		xp_research_bonus = 1.00

		categories = {
			CAT_air_doctrine
			CAT_operational_integrity_tree
			CAT_operational_integrity
		}

		folder = {
			name = air_doctrine_folder
			position = { x = 2 y = 2 }
		}

		ai_will_do = {
			factor = 1
			modifier = {
				factor = 0
				has_idea = NATO_member
			}
		}

		ai_research_weights = {
			CAT_air_doctrine = -1.0
			CAT_fighter = -2.0
		}
	}
	extended_maritime_patrols = {
		on_research_complete = { log = "[GetDateText]: [Root.GetName]: add tech extended_maritime_patrols" }

		# EFFECT ########
		air_range_factor = 0.05
		air_nav_efficiency = 0.10
		###########

		doctrine = yes
		research_cost = 2
		xp_research_type = air
		xp_unlock_cost = 100
		xp_research_bonus = 1.00

		path = {
			research_cost_coeff = 1
			leads_to_tech = alls_quiet_above
		}

		categories = {
			CAT_air_doctrine
			CAT_operational_integrity_tree
			CAT_operational_integrity
		}

		folder = {
			name = air_doctrine_folder
			position = { x = 3 y = 4 }
		}

		ai_will_do = {
			factor = 1
			modifier = {
				factor = 0
				has_idea = NATO_member
			}
		}

		ai_research_weights = {
			CAT_air_doctrine = -1.0
			CAT_fighter = -2.0
		}
	}
	massed_alcm_strikes = {
		on_research_complete = { log = "[GetDateText]: [Root.GetName]: add tech massed_alcm_strikes" }

		# EFFECT ########
		air_strategic_bomber_bombing_factor = 0.10
		category_strat_bomber = {
			air_bombing = 0.05
		}
		category_MR_fighter = {
			air_bombing = 0.025
		}
		category_Strike_fighter = {
			air_bombing = 0.025
		}
		###########

		doctrine = yes
		research_cost = 2
		xp_research_type = air
		xp_unlock_cost = 100
		xp_research_bonus = 1.00

		path = {
			research_cost_coeff = 1
			leads_to_tech = alls_quiet_above
		}

		categories = {
			CAT_air_doctrine
			CAT_operational_integrity_tree
			CAT_operational_integrity
		}

		folder = {
			name = air_doctrine_folder
			position = { x = 1 y = 4 }
		}

		ai_will_do = {
			factor = 1
			modifier = {
				factor = 0
				has_idea = NATO_member
			}
		}

		ai_research_weights = {
			CAT_air_doctrine = -1.0
			CAT_fighter = -2.0
		}
	}
	alls_quiet_above = {
		on_research_complete = { log = "[GetDateText]: [Root.GetName]: add tech alls_quiet_above" }

		# EFFECT ########
		strategic_bomb_visibility = -0.25
		###########

		doctrine = yes
		research_cost = 2
		xp_research_type = air
		xp_unlock_cost = 100
		xp_research_bonus = 1.00

		path = {
			research_cost_coeff = 1
			leads_to_tech = carpet_bombing
		}

		path = {
			research_cost_coeff = 1
			leads_to_tech = deny_the_seas
		}

		categories = {
			CAT_air_doctrine
			CAT_operational_integrity_tree
			CAT_operational_integrity
		}

		folder = {
			name = air_doctrine_folder
			position = { x = 2 y = 6 }
		}

		ai_will_do = {
			factor = 1
			modifier = {
				factor = 0
				has_idea = NATO_member
			}
		}

		ai_research_weights = {
			CAT_air_doctrine = -1.0
			CAT_fighter = -2.0
		}
	}
	carpet_bombing = {
		on_research_complete = { log = "[GetDateText]: [Root.GetName]: add tech carpet_bombing" }
		xor = { deny_the_seas }
		# EFFECT ########
		air_bombing_targetting = 0.10
		port_strike = 0.05
		###########

		doctrine = yes
		research_cost = 2
		xp_research_type = air
		xp_unlock_cost = 100
		xp_research_bonus = 1.00

		path = {
			research_cost_coeff = 1
			leads_to_tech = firebombing
		}

		categories = {
			CAT_air_doctrine
			CAT_operational_integrity_tree
			CAT_operational_integrity
		}

		folder = {
			name = air_doctrine_folder
			position = { x = 1 y = 8 }
		}

		ai_will_do = {
			factor = 1
			modifier = {
				factor = 0
				has_idea = NATO_member
			}
		}

		ai_research_weights = {
			CAT_air_doctrine = -1.0
			CAT_fighter = -2.0
		}
	}
	firebombing = {
		on_research_complete = { log = "[GetDateText]: [Root.GetName]: add tech firebombing" }

		# EFFECT ########
		category_strat_bomber = {
			air_bombing = 0.05
		}
		###########

		path = {
			research_cost_coeff = 1
			leads_to_tech = hammer_round_the_clock
		}

		doctrine = yes
		research_cost = 2
		xp_research_type = air
		xp_unlock_cost = 100
		xp_research_bonus = 1.00

		categories = {
			CAT_air_doctrine
			CAT_operational_integrity_tree
			CAT_operational_integrity
		}

		folder = {
			name = air_doctrine_folder
			position = { x = 1 y = 10 }
		}

		ai_will_do = {
			factor = 1
			modifier = {
				factor = 0
				has_idea = NATO_member
			}
		}

		ai_research_weights = {
			CAT_air_doctrine = -1.0
			CAT_fighter = -2.0
		}
	}
	deny_the_seas = {
		on_research_complete = { log = "[GetDateText]: [Root.GetName]: add tech deny_the_seas" }
		xor = { carpet_bombing }
		# EFFECT ########
		port_strike = 0.15
		naval_strike_targetting_factor = 0.15
		naval_strike_attack_factor = 0.10
		###########

		path = {
			research_cost_coeff = 1
			leads_to_tech = anti_shipping_operations
		}

		doctrine = yes
		research_cost = 2
		xp_research_type = air
		xp_unlock_cost = 100
		xp_research_bonus = 1.00

		categories = {
			CAT_air_doctrine
			CAT_operational_integrity_tree
			CAT_operational_integrity
		}

		folder = {
			name = air_doctrine_folder
			position = { x = 3 y = 8 }
		}

		ai_will_do = {
			factor = 1
			modifier = {
				factor = 0
				has_idea = NATO_member
			}
		}

		ai_research_weights = {
			CAT_air_doctrine = -1.0
			CAT_fighter = -2.0
		}
	}
	anti_shipping_operations = {
		on_research_complete = { log = "[GetDateText]: [Root.GetName]: add tech anti_shipping_operations" }
		# EFFECT ########
		air_nav_efficiency = 0.30
		###########

		path = {
			research_cost_coeff = 1
			leads_to_tech = hammer_round_the_clock
		}

		doctrine = yes
		research_cost = 2
		xp_research_type = air
		xp_unlock_cost = 100
		xp_research_bonus = 1.00

		categories = {
			CAT_air_doctrine
			CAT_operational_integrity_tree
			CAT_operational_integrity
		}

		folder = {
			name = air_doctrine_folder
			position = { x = 3 y = 10 }
		}

		ai_will_do = {
			factor = 1
			modifier = {
				factor = 0
				has_idea = NATO_member
			}
		}

		ai_research_weights = {
			CAT_air_doctrine = -1.0
			CAT_fighter = -2.0
		}
	}
	hammer_round_the_clock = {
		on_research_complete = { log = "[GetDateText]: [Root.GetName]: add tech hammer_round_the_clock" }

		# EFFECT ########
		air_strategic_bomber_bombing_factor = 0.25
		air_strategic_bomber_night_penalty = -0.50
		###########

		doctrine = yes
		research_cost = 2
		xp_research_type = air
		xp_unlock_cost = 100
		xp_research_bonus = 1.00

		categories = {
			CAT_air_doctrine
			CAT_operational_integrity_tree
			CAT_operational_integrity
		}

		folder = {
			name = air_doctrine_folder
			position = { x = 2 y = 12 }
		}

		ai_will_do = {
			factor = 1
			modifier = {
				factor = 0
				has_idea = NATO_member
			}
		}

		ai_research_weights = {
			CAT_air_doctrine = -1.0
			CAT_fighter = -2.0
		}
	}
	#Based Air Force
	defense_of_the_homeland = {
		on_research_complete = { log = "[GetDateText]: [Root.GetName]: add tech defense_of_the_homeland" }
		xor = { jsead strategic_industry_targets }

		# EFFECT ########
		air_home_defence_factor = 0.10
		air_superiority_efficiency = 0.05
		###########

		path = {
			research_cost_coeff = 1
			leads_to_tech = reduced_supply_demands
		}

		xp_research_type = air
		xp_unlock_cost = 100
		xp_research_bonus = 1.00

		doctrine = yes
		research_cost = 1.5

		categories = {
			CAT_air_doctrine
			CAT_battlefield_support_tree
			CAT_battlefield_support
		}

		folder = {
			name = air_doctrine_folder
			position = { x = 0 y = 0 }
		}

		ai_research_weights = {
			CAT_air_doctrine = -1.0
			CAT_air_eqp = -1.0
		}
	}
	reduced_supply_demands = {
		on_research_complete = { log = "[GetDateText]: [Root.GetName]: add tech reduced_supply_demands" }
		# EFFECT ########
		air_manpower_requirement_factor = -0.25
		air_fuel_consumption_factor = -0.25

		###########
		xp_research_type = air
		xp_unlock_cost = 100
		xp_research_bonus = 1.00

		doctrine = yes
		research_cost = 1.5

		path = {
			research_cost_coeff = 1
			leads_to_tech = simplified_aircraft_designs
		}
		path = {
			research_cost_coeff = 1
			leads_to_tech = fighter_top_cover
		}
		path = {
			research_cost_coeff = 1
			leads_to_tech = dedicated_air_force_manufacturing
		}
		path = {
			research_cost_coeff = 1
			leads_to_tech = integrated_air_defense_network
		}
		path = {
			research_cost_coeff = 1
			leads_to_tech = dedicated_industry_sam_coverage
		}

		categories = {
			CAT_air_doctrine
			CAT_battlefield_support_tree
			CAT_battlefield_support
		}

		folder = {
			name = air_doctrine_folder
			position = { x = 0 y = 2 }
		}

		ai_research_weights = {
			CAT_air_doctrine = -1.0
			CAT_air_eqp = -1.0
		}
	}
	dedicated_air_force_manufacturing = {
		on_research_complete = {
			log = "[GetDateText]: [Root.GetName]: add tech dedicated_air_force_manufacturing"
			add_ideas = dedicated_air_force_manufacturing_hidden_spirit
		}
		# EFFECT ########

		###########
		xp_research_type = air
		xp_unlock_cost = 100
		xp_research_bonus = 1.00

		doctrine = yes
		research_cost = 1.5

		categories = {
			CAT_air_doctrine
			CAT_battlefield_support_tree
			CAT_battlefield_support
		}

		folder = {
			name = air_doctrine_folder
			position = { x = 0 y = 6 }
		}

		ai_research_weights = {
			CAT_air_doctrine = -1.0
			CAT_air_eqp = -1.0
		}
	}
	fighter_top_cover = {
		on_research_complete = { log = "[GetDateText]: [Root.GetName]: add tech fighter_top_cover" }
		# EFFECT ########
		enemy_army_bonus_air_superiority_factor = -0.15
		category_fighter = {
			air_superiority = 0.25
			air_attack = 0.10
		}
		###########
		xp_research_type = air
		xp_unlock_cost = 100
		xp_research_bonus = 1.00

		doctrine = yes
		research_cost = 1.5

		path = {
			research_cost_coeff = 1
			leads_to_tech = heroes_of_the_nation
		}

		categories = {
			CAT_air_doctrine
			CAT_battlefield_support_tree
			CAT_battlefield_support
		}

		folder = {
			name = air_doctrine_folder
			position = { x = -1 y = 4 }
		}

		ai_research_weights = {
			CAT_air_doctrine = -1.0
			CAT_air_eqp = -1.0
		}
	}
	simplified_aircraft_designs = {
		on_research_complete = { log = "[GetDateText]: [Root.GetName]: add tech simplified_aircraft_designs" }
		# EFFECT ########
		air_training_xp_gain_factor = 0.25
		air_untrained_pilots_penalty_factor = -0.25
		air_wing_xp_loss_when_killed_factor = -0.25
		experience_gain_air_factor = 0.25
		###########
		xp_research_type = air
		xp_unlock_cost = 100
		xp_research_bonus = 1.00

		doctrine = yes
		research_cost = 1.5

		path = {
			research_cost_coeff = 1
			leads_to_tech = heroes_of_the_nation
		}

		categories = {
			CAT_air_doctrine
			CAT_battlefield_support_tree
			CAT_battlefield_support
		}

		folder = {
			name = air_doctrine_folder
			position = { x = -3 y = 4 }
		}

		ai_research_weights = {
			CAT_air_doctrine = -1.0
			CAT_air_eqp = -1.0
		}
	}
	heroes_of_the_nation = {
		on_research_complete = { log = "[GetDateText]: [Root.GetName]: add tech heroes_of_the_nation" }
		# EFFECT ########
		ace_effectiveness_factor = 0.15
		air_ace_generation_chance_factor = 0.25
		air_ace_bonuses_factor = 0.25
		###########
		xp_research_type = air
		xp_unlock_cost = 100
		xp_research_bonus = 1.00

		path = {
			research_cost_coeff = 1
			leads_to_tech = high_efficiency_scrambles
		}

		doctrine = yes
		research_cost = 1.5

		categories = {
			CAT_air_doctrine
			CAT_battlefield_support_tree
			CAT_battlefield_support
		}

		folder = {
			name = air_doctrine_folder
			position = { x = -2 y = 6 }
		}

		ai_research_weights = {
			CAT_air_doctrine = -1.0
			CAT_air_eqp = -1.0
		}
	}
	dedicated_industry_sam_coverage = {
		on_research_complete = { log = "[GetDateText]: [Root.GetName]: add tech dedicated_industry_sam_coverage" }
		# EFFECT ########
		industry_air_damage_factor = -0.15
		static_anti_air_hit_chance_factor = 0.15
		###########
		xp_research_type = air
		xp_unlock_cost = 100
		xp_research_bonus = 1.00

		path = {
			research_cost_coeff = 1
			leads_to_tech = every_road_a_runway
		}

		doctrine = yes
		research_cost = 1.5

		categories = {
			CAT_air_doctrine
			CAT_battlefield_support_tree
			CAT_battlefield_support
		}

		folder = {
			name = air_doctrine_folder
			position = { x = 1 y = 4 }
		}

		ai_research_weights = {
			CAT_air_doctrine = -1.0
			CAT_air_eqp = -1.0
		}
	}
	integrated_air_defense_network = {
		on_research_complete = { log = "[GetDateText]: [Root.GetName]: add tech integrated_air_defense_network" }
		# EFFECT ########
		static_anti_air_damage_factor = 0.10
		static_anti_air_hit_chance_factor = 0.10
		industry_air_damage_factor = -0.15
		###########
		xp_research_type = air
		xp_unlock_cost = 100
		xp_research_bonus = 1.00

		path = {
			research_cost_coeff = 1
			leads_to_tech = every_road_a_runway
		}

		doctrine = yes
		research_cost = 1.5

		categories = {
			CAT_air_doctrine
			CAT_battlefield_support_tree
			CAT_battlefield_support
		}

		folder = {
			name = air_doctrine_folder
			position = { x = 3 y = 4 }
		}

		ai_research_weights = {
			CAT_air_doctrine = -1.0
			CAT_air_eqp = -1.0
		}
	}
	every_road_a_runway = {
		on_research_complete = { log = "[GetDateText]: [Root.GetName]: add tech every_road_a_runway" }
		# EFFECT ########
		production_cost_air_base_factor = -0.25
		production_speed_air_base_factor = 0.25
		repair_speed_air_base_factor = 0.50
		###########
		xp_research_type = air
		xp_unlock_cost = 100
		xp_research_bonus = 1.00

		doctrine = yes
		research_cost = 1.5

		path = {
			research_cost_coeff = 1
			leads_to_tech = high_efficiency_scrambles
		}

		categories = {
			CAT_air_doctrine
			CAT_battlefield_support_tree
			CAT_battlefield_support
		}

		folder = {
			name = air_doctrine_folder
			position = { x = 2 y = 6 }
		}

		ai_research_weights = {
			CAT_air_doctrine = -1.0
			CAT_air_eqp = -1.0
		}
	}
	high_efficiency_scrambles = {
		on_research_complete = { log = "[GetDateText]: [Root.GetName]: add tech high_efficiency_scrambles" }
		# EFFECT ########
		air_intercept_efficiency = 0.25
		air_interception_detect_factor = 0.25
		###########
		xp_research_type = air
		xp_unlock_cost = 100
		xp_research_bonus = 1.00

		doctrine = yes
		research_cost = 1.5

		path = {
			research_cost_coeff = 1
			leads_to_tech = close_our_skies
		}

		path = {
			research_cost_coeff = 1
			leads_to_tech = hit_and_run_strikes
		}

		categories = {
			CAT_air_doctrine
			CAT_battlefield_support_tree
			CAT_battlefield_support
		}

		folder = {
			name = air_doctrine_folder
			position = { x = 0 y = 8 }
		}

		ai_research_weights = {
			CAT_air_doctrine = -1.0
			CAT_air_eqp = -1.0
		}
	}
	close_our_skies = {
		on_research_complete = { log = "[GetDateText]: [Root.GetName]: add tech close_our_skies" }
		# EFFECT ########
		xor = { hit_and_run_strikes }
		air_superiority_efficiency = 0.15
		air_home_defence_factor = 0.20
		###########
		xp_research_type = air
		xp_unlock_cost = 100
		xp_research_bonus = 1.00

		doctrine = yes
		research_cost = 1.5

		path = {
			research_cost_coeff = 1
			leads_to_tech = gci_management
		}

		path = {
			research_cost_coeff = 1
			leads_to_tech = high_speed_interceptor_designs
		}

		categories = {
			CAT_air_doctrine
			CAT_battlefield_support_tree
			CAT_battlefield_support
		}

		folder = {
			name = air_doctrine_folder
			position = { x = -2 y = 10 }
		}

		ai_research_weights = {
			CAT_air_doctrine = -1.0
			CAT_air_eqp = -1.0
		}
	}
	high_speed_interceptor_designs = {
		on_research_complete = { log = "[GetDateText]: [Root.GetName]: add tech high_speed_interceptor_designs" }
		# EFFECT ########
		category_fighter = {
			maximum_speed = 0.1
			air_attack = 0.15
			air_agility = 0.05
		}
		###########
		xp_research_type = air
		xp_unlock_cost = 100
		xp_research_bonus = 1.00

		doctrine = yes
		research_cost = 1.5

		path = {
			research_cost_coeff = 1
			leads_to_tech = high_risk_interceptions
		}

		categories = {
			CAT_air_doctrine
			CAT_battlefield_support_tree
			CAT_battlefield_support
		}

		folder = {
			name = air_doctrine_folder
			position = { x = -1 y = 12 }
		}

		ai_research_weights = {
			CAT_air_doctrine = -1.0
			CAT_air_eqp = -1.0
		}
	}
	gci_management = {
		on_research_complete = { log = "[GetDateText]: [Root.GetName]: add tech gci_management" }
		# EFFECT ########
		air_superiority_detect_factor = 0.20
		air_superiority_efficiency = 0.25
		air_escort_efficiency = 0.25
		###########
		xp_research_type = air
		xp_unlock_cost = 100
		xp_research_bonus = 1.00

		path = {
			research_cost_coeff = 1
			leads_to_tech = high_risk_interceptions
		}

		doctrine = yes
		research_cost = 1.5

		categories = {
			CAT_air_doctrine
			CAT_battlefield_support_tree
			CAT_battlefield_support
		}

		folder = {
			name = air_doctrine_folder
			position = { x = -3 y = 12 }
		}

		ai_research_weights = {
			CAT_air_doctrine = -1.0
			CAT_air_eqp = -1.0
		}
	}
	high_risk_interceptions = {
		on_research_complete = { log = "[GetDateText]: [Root.GetName]: add tech high_risk_interceptions" }
		# EFFECT ########
		enemy_army_bonus_air_superiority_factor = -0.15
		air_superiority_efficiency = 0.25
		air_intercept_efficiency = 0.25
		###########
		xp_research_type = air
		xp_unlock_cost = 100
		xp_research_bonus = 1.00

		doctrine = yes
		research_cost = 1.5

		path = {
			research_cost_coeff = 1
			leads_to_tech = all_weather_fighters
		}

		categories = {
			CAT_air_doctrine
			CAT_battlefield_support_tree
			CAT_battlefield_support
		}

		folder = {
			name = air_doctrine_folder
			position = { x = -2 y = 14 }
		}

		ai_research_weights = {
			CAT_air_doctrine = -1.0
			CAT_air_eqp = -1.0
		}
	}
	hit_and_run_strikes = {
		on_research_complete = { log = "[GetDateText]: [Root.GetName]: add tech hit_and_run_strikes" }
		xor = { close_our_skies }
		# EFFECT ########
		category_CAS = {
			maximum_speed = 0.05
			air_ground_attack = 0.05
			air_bombing = 0.05
		}
		category_Strike_fighter = {
			maximum_speed = 0.05
			air_ground_attack = 0.05
			air_bombing = 0.05
		}
		###########
		xp_research_type = air
		xp_unlock_cost = 100
		xp_research_bonus = 1.00

		path = {
			research_cost_coeff = 1
			leads_to_tech = strike_fighter_training
		}

		path = {
			research_cost_coeff = 1
			leads_to_tech = naval_interdiction_missions
		}

		doctrine = yes
		research_cost = 1.5

		categories = {
			CAT_air_doctrine
			CAT_battlefield_support_tree
			CAT_battlefield_support
		}

		folder = {
			name = air_doctrine_folder
			position = { x = 2 y = 10 }
		}

		ai_research_weights = {
			CAT_air_doctrine = -1.0
			CAT_air_eqp = -1.0
		}
	}
	naval_interdiction_missions = {
		on_research_complete = { log = "[GetDateText]: [Root.GetName]: add tech naval_interdiction_missions" }
		# EFFECT ########
		air_nav_efficiency = 0.15
		naval_strike_targetting_factor = 0.15
		naval_strike_agility_factor = 0.15
		naval_strike_attack_factor = 0.15
		###########
		xp_research_type = air
		xp_unlock_cost = 100
		xp_research_bonus = 1.00

		doctrine = yes
		research_cost = 1.5

		path = {
			research_cost_coeff = 1
			leads_to_tech = close_support_strikes
		}

		categories = {
			CAT_air_doctrine
			CAT_battlefield_support_tree
			CAT_battlefield_support
		}

		folder = {
			name = air_doctrine_folder
			position = { x = 1 y = 12 }
		}

		ai_research_weights = {
			CAT_air_doctrine = -1.0
			CAT_air_eqp = -1.0
		}
	}
	strike_fighter_training = {
		on_research_complete = { log = "[GetDateText]: [Root.GetName]: add tech strike_fighter_training" }
		# EFFECT ########
		air_range_factor = 0.10
		air_mission_efficiency = 0.10
		air_bombing_targetting = 0.10
		###########
		xp_research_type = air
		xp_unlock_cost = 100
		xp_research_bonus = 1.00

		doctrine = yes
		research_cost = 1.5

		path = {
			research_cost_coeff = 1
			leads_to_tech = close_support_strikes
		}

		categories = {
			CAT_air_doctrine
			CAT_battlefield_support_tree
			CAT_battlefield_support
		}

		folder = {
			name = air_doctrine_folder
			position = { x = 3 y = 12 }
		}

		ai_research_weights = {
			CAT_air_doctrine = -1.0
			CAT_air_eqp = -1.0
		}
	}
	close_support_strikes = {
		on_research_complete = { log = "[GetDateText]: [Root.GetName]: add tech close_support_strikes" }
		# EFFECT ########
		air_close_air_support_org_damage_factor = 0.05
		air_cas_efficiency = 0.05
		air_cas_present_factor = 0.05
		###########
		xp_research_type = air
		xp_unlock_cost = 100
		xp_research_bonus = 1.00

		path = {
			research_cost_coeff = 1
			leads_to_tech = all_weather_fighters
		}

		doctrine = yes
		research_cost = 1.5

		categories = {
			CAT_air_doctrine
			CAT_battlefield_support_tree
			CAT_battlefield_support
		}

		folder = {
			name = air_doctrine_folder
			position = { x = 2 y = 14 }
		}

		ai_research_weights = {
			CAT_air_doctrine = -1.0
			CAT_air_eqp = -1.0
		}
	}
	all_weather_fighters = {
		on_research_complete = { log = "[GetDateText]: [Root.GetName]: add tech all_weather_fighters" }
		# EFFECT ########
		air_weather_penalty = -0.50
		air_night_penalty = -0.50
		air_strategic_bomber_night_penalty = -0.50
		###########
		xp_research_type = air
		xp_unlock_cost = 100
		xp_research_bonus = 1.00

		doctrine = yes
		research_cost = 1.5

		categories = {
			CAT_air_doctrine
			CAT_battlefield_support_tree
			CAT_battlefield_support
		}

		folder = {
			name = air_doctrine_folder
			position = { x = 0 y = 16 }
		}

		ai_research_weights = {
			CAT_air_doctrine = -1.0
			CAT_air_eqp = -1.0
		}
	}
}
