﻿add_namespace = recognition

### [FROM.GetName] is Undermining Our Territorial Integrity!
news_event = {
	id = recognition.1

	title = recognition.1.t
	desc = recognition.1.d
	picture = GFX_news_crime_fighting

	is_triggered_only = yes

	option = {
		name = recognition.1.a #We will not be divided.
		FROM = {
			set_country_flag = Recognized_[stname]
		}
		if = {
			limit = { FROM = { has_idea = non_power } }
			add_political_power = -5
		}
		if = {
			limit = { FROM = { has_idea = minor_power } }
			add_political_power = -10
		}
		else_if = {
			limit = { FROM = { has_idea = regional_power } }
			add_political_power = -15
		}
		else_if = {
			limit = { FROM = { has_idea = large_power } }
			add_political_power = -25
		}
		else_if = {
			limit = { FROM = { has_idea = great_power } }
			add_political_power = -50
		}
		else_if = {
			limit = { FROM = { has_idea = superpower } }
			add_political_power = -100
		}
		log = "[GetDateText]: [This.GetName]: recognition.1.a executed"
	}
}

### [FROM.GetName] Supports Our Independence!
news_event = {
	id = recognition.2
	title = recognition.2.t
	desc = recognition.2.d
	picture = GFX_trade_agreement

	is_triggered_only = yes

	option = {
		name = recognition.2.a #We grow closer to full statehood!
		if = {
			limit = { FROM = { has_idea = non_power } }
			add_political_power = 5
		}
		if = {
			limit = { FROM = { has_idea = minor_power } }
			add_political_power = 10
		}
		else_if = {
			limit = { FROM = { has_idea = regional_power } }
			add_political_power = 15
		}
		else_if = {
			limit = { FROM = { has_idea = large_power } }
			add_political_power = 25
		}
		else_if = {
			limit = { FROM = { has_idea = great_power } }
			add_political_power = 50
		}
		else_if = {
			limit = { FROM = { has_idea = superpower } }
			add_political_power = 100
		}
		log = "[GetDateText]: [This.GetName]: recognition.2.a executed"
	}
}

### [FROM.GetName] No Longer Recognizes Our Independence!
news_event = {
	id = recognition.3

	title = recognition.3.t
	desc = recognition.3.d
	picture = GFX_news_crime_fighting

	is_triggered_only = yes

	option = {
		name = recognition.3.a #The fight for freedom continues.
		if = {
			limit = { FROM = { has_idea = non_power } }
			add_political_power = -5
		}
		if = {
			limit = { FROM = { has_idea = minor_power } }
			add_political_power = -10
		}
		else_if = {
			limit = { FROM = { has_idea = regional_power } }
			add_political_power = -15
		}
		else_if = {
			limit = { FROM = { has_idea = large_power } }
			add_political_power = -25
		}
		else_if = {
			limit = { FROM = { has_idea = great_power } }
			add_political_power = -50
		}
		else_if = {
			limit = { FROM = { has_idea = superpower } }
			add_political_power = -100
		}
		log = "[GetDateText]: [This.GetName]: recognition.3.a executed"
	}
}

### [FROM.GetName] Respects Our Territorial Integrity!
news_event = {
	id = recognition.4

	title = recognition.4.t
	desc = recognition.4.d
	picture = GFX_trade_agreement

	is_triggered_only = yes

	option = {
		name = recognition.4.a #Our nation will be whole again!
		if = {
			limit = { FROM = { has_idea = non_power } }
			add_political_power = 5
		}
		if = {
			limit = { FROM = { has_idea = minor_power } }
			add_political_power = 10
		}
		else_if = {
			limit = { FROM = { has_idea = regional_power } }
			add_political_power = 15
		}
		else_if = {
			limit = { FROM = { has_idea = large_power } }
			add_political_power = 25
		}
		else_if = {
			limit = { FROM = { has_idea = great_power } }
			add_political_power = 50
		}
		else_if = {
			limit = { FROM = { has_idea = superpower } }
			add_political_power = 100
		}
		log = "[GetDateText]: [This.GetName]: recognition.4.a executed"
	}
}

### [FROM.GetName] Recognizes the Legitimacy of Our Government!
news_event = {
	id = recognition.5

	title = recognition.5.t
	desc = recognition.5.d
	picture = GFX_trade_agreement

	is_triggered_only = yes

	option = {
		name = recognition.5.a #Our enemies grow weaker!
		if = {
			limit = { FROM = { has_idea = non_power } }
			add_political_power = 5
		}
		if = {
			limit = { FROM = { has_idea = minor_power } }
			add_political_power = 10
		}
		else_if = {
			limit = { FROM = { has_idea = regional_power } }
			add_political_power = 15
		}
		else_if = {
			limit = { FROM = { has_idea = large_power } }
			add_political_power = 25
		}
		else_if = {
			limit = { FROM = { has_idea = great_power } }
			add_political_power = 50
		}
		else_if = {
			limit = { FROM = { has_idea = superpower } }
			add_political_power = 100
		}
		log = "[GetDateText]: [This.GetName]: recognition.5.a executed"
	}
}

### [FROM.GetName] No Longer Recognizes Our Government!
news_event = {
	id = recognition.6

	title = recognition.6.t
	desc = recognition.6.d
	picture = GFX_news_crime_fighting

	is_triggered_only = yes

	option = {
		name = recognition.6.a #The struggle continues...
		if = {
			limit = { FROM = { has_idea = non_power } }
			add_political_power = -5
		}
		if = {
			limit = { FROM = { has_idea = minor_power } }
			add_political_power = -10
		}
		else_if = {
			limit = { FROM = { has_idea = regional_power } }
			add_political_power = -15
		}
		else_if = {
			limit = { FROM = { has_idea = large_power } }
			add_political_power = -25
		}
		else_if = {
			limit = { FROM = { has_idea = great_power } }
			add_political_power = -50
		}
		else_if = {
			limit = { FROM = { has_idea = superpower } }
			add_political_power = -100
		}
		log = "[GetDateText]: [This.GetName]: recognition.6.a executed"
	}
}

### [FROM.GetName] Joins the United Nations!
news_event = {
	id = recognition.7

	title = recognition.7.t
	desc = recognition.7.d
	picture = GFX_trade_agreement

	is_triggered_only = yes

	option = {
		name = recognition.7.a #The [FROM.GetAdjective] people join the international community.
		log = "[GetDateText]: [This.GetName]: recognition.7.a executed"
	}
}

### [FROM.GetName] is Pressuring Us to Recognize [pressured_to_recognize]
country_event = {
	id = recognition.8

	title = recognition.8.t
	desc = recognition.8.d
	picture = GFX_politics_talks

	is_triggered_only = yes

	option = {
		name = recognition.8.a #This state deserves recognition!
		log = "[GetDateText]: [This.GetName]: recognition.8.a executed"
		random_country = {
			limit = { has_country_flag = pressured_to_recognize_@ROOT }
			clr_country_flag = pressured_to_recognize_@ROOT
			add_opinion_modifier = {
				target = ROOT
				modifier = recognises_us
			}
			news_event = { id = recognition.2 }
			add_to_variable = {
				var = THIS.Granted_Recognition
				value = 1
			}
			ROOT = {
				set_country_flag = Recognised_@PREV
			}
		}
		ai_chance = {
			factor = 1
			modifier = {
				add = 1
				OR = {
					AND = {
						check_variable = { influence_array^0 = FROM }
						check_variable = { influence_array_val^0 > 4.999 }
					}
					AND = {
						check_variable = { influence_array^1 = FROM }
						check_variable = { influence_array_val^1 > 4.999 }
					}
					AND = {
						check_variable = { influence_array^2 = FROM }
						check_variable = { influence_array_val^2 > 4.999 }
					}
					AND = {
						check_variable = { influence_array^3 = FROM }
						check_variable = { influence_array_val^3 > 4.999 }
					}
					AND = {
						check_variable = { influence_array^4 = FROM }
						check_variable = { influence_array_val^4 > 4.999 }
					}
					AND = {
						check_variable = { influence_array^5 = FROM }
						check_variable = { influence_array_val^5 > 4.999 }
					}
					AND = {
						check_variable = { influence_array^6 = FROM }
						check_variable = { influence_array_val^6 > 4.999 }
					}
				}
			}
			modifier = {
				add = 1
				OR = {
					AND = {
						check_variable = { influence_array^0 = FROM }
						check_variable = { influence_array_val^0 > 9.999 }
					}
					AND = {
						check_variable = { influence_array^1 = FROM }
						check_variable = { influence_array_val^1 > 9.999 }
					}
					AND = {
						check_variable = { influence_array^2 = FROM }
						check_variable = { influence_array_val^2 > 9.999 }
					}
					AND = {
						check_variable = { influence_array^3 = FROM }
						check_variable = { influence_array_val^3 > 9.999 }
					}
					AND = {
						check_variable = { influence_array^4 = FROM }
						check_variable = { influence_array_val^4 > 9.999 }
					}
					AND = {
						check_variable = { influence_array^5 = FROM }
						check_variable = { influence_array_val^5 > 9.999 }
					}
					AND = {
						check_variable = { influence_array^6 = FROM }
						check_variable = { influence_array_val^6 > 9.999 }
					}
				}
			}
			modifier = {
				add = 1
				OR = {
					AND = {
						check_variable = { influence_array^0 = FROM }
						check_variable = { influence_array_val^0 > 19.999 }
					}
					AND = {
						check_variable = { influence_array^1 = FROM }
						check_variable = { influence_array_val^1 > 19.999 }
					}
					AND = {
						check_variable = { influence_array^2 = FROM }
						check_variable = { influence_array_val^2 > 19.999 }
					}
					AND = {
						check_variable = { influence_array^3 = FROM }
						check_variable = { influence_array_val^3 > 19.999 }
					}
				}
			}
			modifier = {
				add = 1
				OR = {
					AND = {
						check_variable = { influence_array^0 = FROM }
						check_variable = { influence_array_val^0 > 29.999 }
					}
					AND = {
						check_variable = { influence_array^1 = FROM }
						check_variable = { influence_array_val^1 > 29.999 }
					}
					AND = {
						check_variable = { influence_array^2 = FROM }
						check_variable = { influence_array_val^2 > 29.999 }
					}
				}
			}
			modifier = {
				add = 1
				OR = {
					AND = {
						check_variable = { influence_array^0 = FROM }
						check_variable = { influence_array_val^0 > 39.999 }
					}
					AND = {
						check_variable = { influence_array^1 = FROM }
						check_variable = { influence_array_val^1 > 39.999 }
					}
				}
			}
			modifier = {
				add = 1
				check_variable = { influence_array^0 = FROM }
				check_variable = { influence_array_val^0 > 49.999 }

			}
		}
	}

	option = {
		name = recognition.8.b #We refuse to recognize this breakaway state!
		log = "[GetDateText]: [This.GetName]: recognition.8.b executed"
		hidden_effect = {
			random_country = {
				limit = { has_country_flag = pressured_to_recognize_@ROOT }
				clr_country_flag = pressured_to_recognize_@ROOT
			}
		}
		if = {
			limit = {
				OR = {
					AND = {
						check_variable = { influence_array^0 = FROM }
						check_variable = { influence_array_val^0 > 4.999 }
					}
					AND = {
						check_variable = { influence_array^1 = FROM }
						check_variable = { influence_array_val^1 > 4.999 }
					}
					AND = {
						check_variable = { influence_array^2 = FROM }
						check_variable = { influence_array_val^2 > 4.999 }
					}
					AND = {
						check_variable = { influence_array^3 = FROM }
						check_variable = { influence_array_val^3 > 4.999 }
					}
					AND = {
						check_variable = { influence_array^4 = FROM }
						check_variable = { influence_array_val^4 > 4.999 }
					}
					AND = {
						check_variable = { influence_array^5 = FROM }
						check_variable = { influence_array_val^5 > 4.999 }
					}
					AND = {
						check_variable = { influence_array^6 = FROM }
						check_variable = { influence_array_val^6 > 4.999 }
					}
				}
				OR = {
					AND = {
						check_variable = { influence_array^0 = FROM }
						check_variable = { influence_array_val^0 < 10 }
					}
					AND = {
						check_variable = { influence_array^1 = FROM }
						check_variable = { influence_array_val^1 < 10 }
					}
					AND = {
						check_variable = { influence_array^2 = FROM }
						check_variable = { influence_array_val^2 < 10 }
					}
					AND = {
						check_variable = { influence_array^3 = FROM }
						check_variable = { influence_array_val^3 < 10 }
					}
					AND = {
						check_variable = { influence_array^4 = FROM }
						check_variable = { influence_array_val^4 < 10 }
					}
					AND = {
						check_variable = { influence_array^5 = FROM }
						check_variable = { influence_array_val^5 < 10 }
					}
					AND = {
						check_variable = { influence_array^6 = FROM }
						check_variable = { influence_array_val^6 < 10 }
					}
				}
			}
			add_political_power = -10
		}
		else_if = {
			limit = {
				OR = {
					AND = {
						check_variable = { influence_array^0 = FROM }
						check_variable = { influence_array_val^0 > 9.999 }
					}
					AND = {
						check_variable = { influence_array^1 = FROM }
						check_variable = { influence_array_val^1 > 9.999 }
					}
					AND = {
						check_variable = { influence_array^2 = FROM }
						check_variable = { influence_array_val^2 > 9.999 }
					}
					AND = {
						check_variable = { influence_array^3 = FROM }
						check_variable = { influence_array_val^3 > 9.999 }
					}
					AND = {
						check_variable = { influence_array^4 = FROM }
						check_variable = { influence_array_val^4 > 9.999 }
					}
					AND = {
						check_variable = { influence_array^5 = FROM }
						check_variable = { influence_array_val^5 > 9.999 }
					}
					AND = {
						check_variable = { influence_array^6 = FROM }
						check_variable = { influence_array_val^6 > 9.999 }
					}
				}
				OR = {
					AND = {
						check_variable = { influence_array^0 = FROM }
						check_variable = { influence_array_val^0 < 20 }
					}
					AND = {
						check_variable = { influence_array^1 = FROM }
						check_variable = { influence_array_val^1 < 20 }
					}
					AND = {
						check_variable = { influence_array^2 = FROM }
						check_variable = { influence_array_val^2 < 20 }
					}
					AND = {
						check_variable = { influence_array^3 = FROM }
						check_variable = { influence_array_val^3 < 20 }
					}
				}
			}
			add_political_power = -25
		}
		else_if = {
			limit = {
				OR = {
					AND = {
						check_variable = { influence_array^0 = FROM }
						check_variable = { influence_array_val^0 > 19.999 }
					}
					AND = {
						check_variable = { influence_array^1 = FROM }
						check_variable = { influence_array_val^1 > 19.999 }
					}
					AND = {
						check_variable = { influence_array^2 = FROM }
						check_variable = { influence_array_val^2 > 19.999 }
					}
					AND = {
						check_variable = { influence_array^3 = FROM }
						check_variable = { influence_array_val^3 > 19.999 }
					}
				}
				OR = {
					AND = {
						check_variable = { influence_array^0 = FROM }
						check_variable = { influence_array_val^0 < 30 }
					}
					AND = {
						check_variable = { influence_array^1 = FROM }
						check_variable = { influence_array_val^1 < 30 }
					}
					AND = {
						check_variable = { influence_array^2 = FROM }
						check_variable = { influence_array_val^2 < 30 }
					}
				}
			}
			add_political_power = -50
		}
		else_if = {
			limit = {
				OR = {
					AND = {
						check_variable = { influence_array^0 = FROM }
						check_variable = { influence_array_val^0 > 29.999 }
					}
					AND = {
						check_variable = { influence_array^1 = FROM }
						check_variable = { influence_array_val^1 > 29.999 }
					}
					AND = {
						check_variable = { influence_array^2 = FROM }
						check_variable = { influence_array_val^2 > 29.999 }
					}
				}
				OR = {
					AND = {
						check_variable = { influence_array^0 = FROM }
						check_variable = { influence_array_val^0 < 40 }
					}
					AND = {
						check_variable = { influence_array^1 = FROM }
						check_variable = { influence_array_val^1 < 40 }
					}
					AND = {
						check_variable = { influence_array^2 = FROM }
						check_variable = { influence_array_val^2 < 40 }
					}
					AND = {
						check_variable = { influence_array^3 = FROM }
						check_variable = { influence_array_val^3 < 40 }
					}
					AND = {
						check_variable = { influence_array^4 = FROM }
						check_variable = { influence_array_val^4 < 40 }
					}
					AND = {
						check_variable = { influence_array^5 = FROM }
						check_variable = { influence_array_val^5 < 40 }
					}
					AND = {
						check_variable = { influence_array^6 = FROM }
						check_variable = { influence_array_val^6 < 40 }
					}
				}
			}
			add_political_power = -75
		}
		else_if = {
			limit = {
				OR = {
					AND = {
						check_variable = { influence_array^0 = FROM }
						check_variable = { influence_array_val^0 > 39.999 }
					}
					AND = {
						check_variable = { influence_array^1 = FROM }
						check_variable = { influence_array_val^1 > 39.999 }
					}
				}
				check_variable = { influence_array^1 = FROM }
				check_variable = { influence_array_val^1 < 50 }
			}
			add_political_power = -100
		}
		else_if = {
			limit = {
				check_variable = { influence_array^0 = FROM }
				check_variable = { influence_array_val^0 > 49.999 }
			}
			add_political_power = -150
		}
		ai_chance = {
			factor = 1
			modifier = {
				add = 1
				any_country = {
					has_country_flag = pressured_to_recognize_@ROOT
					check_variable = { THIS.Granted_Recognition < 5 }
				}
			}
			modifier = {
				add = 5
				any_country = {
					has_country_flag = pressured_to_recognize_@ROOT
					check_variable = { THIS.Granted_Recognition < 70 }
				}
			}
			modifier = {
				add = 10
				OR = {
					tag = CHI
					tag = SPR
					FROM = { is_same_government = no }
					ic_ratio = {
						tag = FROM
						ratio > 1
					}
					strength_ratio = {
						tag = FROM
						ratio > 1
					}
					AND = {
						any_country = {
							has_country_flag = pressured_to_recognize_@ROOT
							OR = {
								has_country_flag = original_owner_@THIS
								has_country_flag = supports_original_owner_@THIS
							}
						}
					}
					AND = {
						any_country = {
							has_country_flag = pressured_to_recognize_@ROOT
							USA = {
								NOT = { has_country_flag = Recognised_@PREV }
							}
						}
						check_variable = { influence_array^0 = USA }
					}
					AND = {
						any_country = {
							has_country_flag = pressured_to_recognize_@ROOT
							CHI = {
								NOT = { has_country_flag = Recognised_@PREV }
							}
						}
						check_variable = { influence_array^0 = CHI }
					}
					AND = {
						any_country = {
							has_country_flag = pressured_to_recognize_@ROOT
							SOV = {
								NOT = { has_country_flag = Recognised_@PREV }
							}
						}
						check_variable = { influence_array^0 = SOV }
					}
					AND = {
						any_country = {
							has_country_flag = pressured_to_recognize_@ROOT
							RAJ = {
								NOT = { has_country_flag = Recognised_@PREV }
							}
						}
						check_variable = { influence_array^0 = RAJ }
					}
					AND = {
						any_country = {
							has_country_flag = pressured_to_recognize_@ROOT
							SAU = {
								NOT = { has_country_flag = Recognised_@PREV }
							}
						}
						check_variable = { influence_array^0 = SAU }
					}
					AND = {
						any_country = {
							has_country_flag = pressured_to_recognize_@ROOT
							SAF = {
								NOT = { has_country_flag = Recognised_@PREV }
							}
						}
						check_variable = { influence_array^0 = SAF }
					}
					AND = {
						any_country = {
							has_country_flag = pressured_to_recognize_@ROOT
							PER = {
								NOT = { has_country_flag = Recognised_@PREV }
							}
						}
						check_variable = { influence_array^0 = PER }
					}
					AND = {
						any_country = {
							has_country_flag = pressured_to_recognize_@ROOT
							BRA = {
								NOT = { has_country_flag = Recognised_@PREV }
							}
						}
						check_variable = { influence_array^0 = BRA }
					}
				}
			}
		}
	}
}