﻿division_template = {
	name = "Infantry Brigade"
	regiments = {
		Mot_Inf_Bat = { x = 0 y = 0 }
		Mot_Inf_Bat = { x = 0 y = 1 }
		Mot_Inf_Bat = { x = 0 y = 2 }
		Arty_Bat = { x = 1 y = 0 }
		Mot_Inf_Bat = { x = 1 y = 1 }
		L_Inf_Bat = { x = 1 y = 2 }
	}
}
division_template = {
	name = "Armoured Regiment"

	regiments = {
		armor_Bat = { x = 0 y = 0 }
		armor_Bat = { x = 0 y = 1 }
		Mot_Inf_Bat = { x = 1 y = 0 }
		Mot_Inf_Bat = { x = 1 y = 1 }
		Mot_Inf_Bat = { x = 1 y = 2 }
		L_Inf_Bat = { x = 2 y = 0 }
	}
}
division_template = {
	name = "Infantry Reserve Brigade"

	regiments = {
		L_Inf_Bat = { x = 0 y = 0 }
		L_Inf_Bat = { x = 0 y = 1 }
	}

	support = {
		Arty_Battery = { x = 0 y = 0 }
	}

	priority = 0
}
division_template = {
	name = "Commando Regiment"
	regiments = {
		Special_Forces = { x = 0 y = 0 }
	}

	priority = 2
}

units = {
	division = {
		name = "Special Operations Command"
		location = 12406 #Sydney
		division_template = "Commando Regiment"
		start_experience_factor = 0.75
		start_equipment_factor = 0.01
	}
	division = {
		name = "1st Armoured Regiment"
		location = 7669	#Darwin
		division_template = "Armoured Regiment"
		start_experience_factor = 0.75
		start_equipment_factor = 0.01
	}
	division = {
		name = "1st Brigade"
		location = 7669	#Darwin
		division_template = "Infantry Brigade"
		start_experience_factor = 0.75
		start_equipment_factor = 0.01
	}
	division = {
		name = "3rd Brigade"
		location = 7566 #Townsville
		division_template = "Infantry Brigade"
		start_experience_factor = 0.75
		start_equipment_factor = 0.01
	}
	division = {
		name = "7th Brigade"
		location = 4520
		division_template = "Infantry Brigade"
		start_experience_factor = 0.75
		start_equipment_factor = 0.01
	}
	division = {
		name = "4th Reserve Brigade"
		location = 7798	#Melbourne
		division_template = "Infantry Reserve Brigade"
		start_experience_factor = 0.75
		start_equipment_factor = 0.01
	}
	division = {
		name = "5th Reserve Brigade"
		location = 12406 #Sydney
		division_template = "Infantry Reserve Brigade"
		start_experience_factor = 0.75
		start_equipment_factor = 0.01
	}
	division = {
		name = "8th Reserve Brigade"
		location = 12406 #Sydney
		division_template = "Infantry Reserve Brigade"
		start_experience_factor = 0.75
		start_equipment_factor = 0.01
	}
	division = {
		name = "9th Reserve Brigade"
		location = 12910 #Keswick (Adelaide)
		division_template = "Infantry Reserve Brigade"
		start_experience_factor = 0.75
		start_equipment_factor = 0.01
	}
	division = {
		name = "11th Reserve Brigade"
		location = 7566 #Townsville
		division_template = "Infantry Reserve Brigade"
		start_experience_factor = 0.75
		start_equipment_factor = 0.01
	}
	division = {
		name = "13th Reserve Brigade"
		location = 1652	#Perth
		division_template = "Infantry Reserve Brigade"
		start_experience_factor = 0.75
		start_equipment_factor = 0.01
	}
	division = {
		name = "Combat Training Centre"
		location = 10378 #Tully
		division_template = "Infantry Reserve Brigade"
		start_experience_factor = 0.75
		start_equipment_factor = 0.01
	}
}

instant_effect = {
	add_equipment_to_stockpile = {
		type = infantry_weapons2 		#Austeyr
		amount = 9000
		producer = AST
	}
	add_equipment_to_stockpile = {
		type = Anti_Air_1 #Robotsystem 70
		amount = 270
		producer = SWE
	}
	add_equipment_to_stockpile = {
		type = Anti_tank_0 #Carl Gustaf
		amount = 450
		producer = SWE
	}
	add_equipment_to_stockpile = {
		type = Heavy_Anti_tank_2 #FGM-148 Javelin
		amount = 100
		producer = USA
	}
	add_equipment_to_stockpile = {
		type = util_vehicle_3 #Bushmaster
		amount = 900
		producer = USA
	}
	add_equipment_to_stockpile = {
		type = command_control_equipment3
		amount = 900
		producer = USA
	}
	add_equipment_to_stockpile = {
		type = mbt_hull_0
		variant_name = "Leopard 1A3"
		producer = GER
		amount = 71
	}
	add_equipment_to_stockpile = {
		type = ifv_hull_1
		variant_name = "ASLAV"
		amount = 111
	}
	add_equipment_to_stockpile = {
		type = apc_hull_1
		variant_name = "M113"
		amount = 463
		producer = USA
	}
	add_equipment_to_stockpile = {
		type = artillery_0 #M102
		amount = 246
		producer = USA
	}
	add_equipment_to_stockpile = {
		type = artillery_1 #L118 Light Gun
		amount = 104
		producer = GER
	}
	add_equipment_to_stockpile = {
		type = artillery_0 #M198 howitzer
		amount = 35
		producer = USA
	}
	add_equipment_to_stockpile = {
		type = spaa_hull_0
		amount = 19
		producer = ENG
		variant_name = "Rapier"
	}
	add_equipment_to_stockpile = {
		type = transport_helicopter2 #Sikorsky UH-60 Black Hawk
		amount = 35
		producer = USA
	}
	add_equipment_to_stockpile = {
		type = transport_helicopter1 #Bell 206
		amount = 40
		producer = USA
		#version_name = "Bell 206"
	}
	add_equipment_to_stockpile = {
		type = attack_helicopter_hull_0
		amount = 1
		producer = USA
		variant_name = "OH-58D Kiowa Warrior"
	}
	add_equipment_to_stockpile = {
		type = transport_helicopter1 #Bell UH-1 Iroquois
		amount = 25
		producer = USA
	}
	add_equipment_to_stockpile = {
		type = transport_helicopter1 #AS350B Ecureuil
		amount = 17
		producer = FRA
		#version_name = "AS350B Ecureuil"
	}
	add_equipment_to_stockpile = {
		type = transport_helicopter1 #Boeing CH-47 Chinook
		amount = 6
		producer = USA
		#version_name = "Boeing CH-47 Chinook"
	}
}