﻿division_template = {
	name = "Armoured Brigade"

	regiments = {
		Mech_Inf_Bat = { x = 0 y = 0 }
		Mech_Inf_Bat = { x = 0 y = 1 }
		Mech_Inf_Bat = { x = 0 y = 2 }

	}
	support = {
		armor_Recce_Comp = { x = 0 y = 0 }
		armor_Comp = { x = 0 y = 1 }
		SP_Arty_Battery = { x = 0 y = 2 }
		SP_AA_Battery = { x = 0 y = 3 }
	}
}
division_template = {
	name = "Infantry Brigade"

	regiments = {
		L_Inf_Bat = { x = 0 y = 0 }
		L_Inf_Bat = { x = 0 y = 1 }
		L_Inf_Bat = { x = 0 y = 2 }
		Arty_Bat = { x = 0 y = 3 }
	}
}

units = {
	division = {
		name = "1st Brigade"
		location = 10968
		division_template = "Infantry Brigade"
		start_experience_factor = 0.1
		start_equipment_factor = 0.01
	}
	division = {
		name = "2nd Brigade"
		location = 3674
		division_template = "Infantry Brigade"
		start_experience_factor = 0.1
		start_equipment_factor = 0.01
	}
	division = {
		name = "3rd Brigade"
		location = 5117
		division_template = "Infantry Brigade"
		start_experience_factor = 0.1
		start_equipment_factor = 0.01
	}
	division = {
		name = "4th Brigade"
		location = 12896
		division_template = "Infantry Brigade"
		start_experience_factor = 0.1
		start_equipment_factor = 0.01
	}
	division = {
		name = "5th Brigade"
		location = 3517
		division_template = "Infantry Brigade"
		start_experience_factor = 0.1
		start_equipment_factor = 0.01
	}
	division = {
		name = "6th Brigade"
		location = 3597
		division_template = "Infantry Brigade"
		start_experience_factor = 0.1
		start_equipment_factor = 0.01
	}
	division = {
		name = "7th Brigade"
		location = 2024
		division_template = "Infantry Brigade"
		start_experience_factor = 0.1
		start_equipment_factor = 0.01
	}
	division = {
		name = "8th Brigade"
		location = 3364
		division_template = "Infantry Brigade"
		start_experience_factor = 0.1
		start_equipment_factor = 0.01
	}
	division = {
		name = "9th Brigade"
		location = 4515
		division_template = "Infantry Brigade"
		start_experience_factor = 0.1
		start_equipment_factor = 0.01
	}
	division = {
		name = "10th Brigade"
		location = 6392
		division_template = "Infantry Brigade"
		start_experience_factor = 0.1
		start_equipment_factor = 0.01
	}
	division = {
		name = "11th Brigade"
		location = 6386
		division_template = "Infantry Brigade"
		start_experience_factor = 0.1
		start_equipment_factor = 0.01
	}
	division = {
		name = "12th Brigade"
		location = 1950
		division_template = "Infantry Brigade"
		start_experience_factor = 0.1
		start_equipment_factor = 0.01
	}
	division = {
		name = "13th Brigade"
		location = 1181
		division_template = "Infantry Brigade"
		start_experience_factor = 0.1
		start_equipment_factor = 0.01
	}
	division = {
		name = "14th Brigade"
		location = 4941
		division_template = "Infantry Brigade"
		start_experience_factor = 0.1
		start_equipment_factor = 0.01
	}
	division = {
		name = "15th Brigade"
		location = 12847
		division_template = "Infantry Brigade"
		start_experience_factor = 0.1
		start_equipment_factor = 0.01
	}
	division = {
		name = "16th Brigade"
		location = 1731
		division_template = "Infantry Brigade"
		start_experience_factor = 0.1
		start_equipment_factor = 0.01
	}
	division = {
		name = "17th Brigade"
		location = 3364
		division_template = "Infantry Brigade"
		start_experience_factor = 0.1
		start_equipment_factor = 0.01
	}
	division = {
		name = "Armoured Brigade"
		location = 12925
		division_template = "Armoured Brigade"
		start_experience_factor = 0.1
		start_equipment_factor = 0.01
	}
}

instant_effect = {
	add_equipment_to_stockpile = {
		type = infantry_weapons1
		amount = 10100
		producer = SOV
	}
	add_equipment_to_stockpile = {
		type = command_control_equipment1
		amount = 1100
		producer = USA
	}
	add_equipment_to_stockpile = {
		type = Anti_tank_1
		amount = 630
		producer = USA
	}
	add_equipment_to_stockpile = {
		type = Heavy_Anti_tank_1
		amount = 20
		producer = USA
	}
	add_equipment_to_stockpile = {
		type = Anti_Air_1
		amount = 500
		producer = USA
	}

	add_equipment_to_stockpile = {
		type = mbt_hull_0
		variant_name = "Type-59-I"
		amount = 67
		producer = CHI
	}
	add_equipment_to_stockpile = {
		type = mbt_hull_0
		variant_name = "T-55"
		amount = 32
		producer = SOV
	}
	add_equipment_to_stockpile = {
		type = mbt_hull_1
		variant_name = "T-72A"
		amount = 32
		producer = SOV
	}
	add_equipment_to_stockpile = {
		type = Rec_tank_0 #PT-76
		amount = 10
		producer = SOV
	}
	add_equipment_to_stockpile = {
		type = Rec_tank_0 #Type 62
		amount = 30
		producer = CHI
		#version_name = "Type 62"
	}
	add_equipment_to_stockpile = {
		type = Rec_tank_0 #Panhard AML
		amount = 15
		producer = FRA
		#version_name = "Panhard AML"
	}
	add_equipment_to_stockpile = {
		type = Rec_tank_0 #Panhard AML
		amount = 14
		producer = FRA
		#version_name = "Panhard AML"
	}
	add_equipment_to_stockpile = {
		type = Rec_tank_0 #EE-9 Cascavel
		amount = 19
		producer = BRA
	}
	add_equipment_to_stockpile = {
		type = Rec_tank_1 #RAM-V-2
		amount = 2
		producer = ISR
	}
	add_equipment_to_stockpile = {
		type = IFV_1 #BMP-1
		amount = 20
		producer = SOV
	}
	add_equipment_to_stockpile = {
		type = APC_1 #BTR-50
		amount = 3
		producer = SOV
		#version_name = "BTR-50"
	}
	add_equipment_to_stockpile = {
		type = APC_2 #MT-LB
		amount = 6
		producer = SOV
	}
	add_equipment_to_stockpile = {
		type = APC_1 #BTR-60
		amount = 45
		producer = SOV
	}
	add_equipment_to_stockpile = {
		type = APC_1 #M3 Panhard
		amount = 58
		producer = FRA
	}
	add_equipment_to_stockpile = {
		type = APC_3 #Fahd AFV
		amount = 7
		producer = EGY
	}
	add_equipment_to_stockpile = {
		type = SP_arty_0 #2S1 Gvozdika
		amount = 6
		producer = SOV
		#version_name = "2S1 Gvozdika"
	}
	add_equipment_to_stockpile = {
		type = SP_arty_0 #2S3 Akatsiya
		amount = 6
		producer = SOV
	}
	add_equipment_to_stockpile = {
		type = artillery_0 #D-30
		amount = 77
		producer = SOV
	}
	add_equipment_to_stockpile = {
		type = SP_R_arty_0 #BM-21 Grad
		amount = 36
		producer = SOV
	}
	add_equipment_to_stockpile = {
		type = SP_R_arty_0 #RM-51
		amount = 6
		producer = CZE
	}
	add_equipment_to_stockpile = {
		type = SP_R_arty_0 #Type-81
		amount = 3
		producer = CHI
	}
	add_equipment_to_stockpile = {
		type = SP_Anti_Air_0 #ZSU-23-4 Shilka
		amount = 12
		producer = SOV
		#version_name = "ZSU-23-4 Shilka"
	}
	add_equipment_to_stockpile = {
		type = cas1 #Su-25 Frogfoot-A
		amount = 4
		producer = SOV
	}
	add_equipment_to_stockpile = {
		type = transport_plane1 #C-130
		amount = 1
		producer = USA
	}
	add_equipment_to_stockpile = {
		type = attack_helicopter1 #Mil Mi-24 Hind
		amount = 9
		producer = SOV
	}
	add_equipment_to_stockpile = {
		type = transport_helicopter1 #AS332
		#version_name = "Eurocopter AS332 Super Puma"
		amount = 1
		producer = FRA
	}
	add_equipment_to_stockpile = {
		type = transport_helicopter1 #Mi-8
		amount = 2
		producer = SOV
	}
}