﻿division_template = {
	name = "Mataivalu ni mataivalu digitaki"

	regiments = {
		Special_Forces = { x = 0 y = 0 }
		Special_Forces = { x = 0 y = 1 }
		Special_Forces = { x = 0 y = 2 }
	}



	priority = 2
}

division_template = {
	name = "Mataivalu ni rarama baleta"

	regiments = {
		L_Inf_Bat = { x = 0 y = 0 }
		L_Inf_Bat = { x = 0 y = 1 }
	}

	support = {
	L_Engi_Comp = { x = 0 y = 0 }
	}

	priority = 2
}

units = {

	division = {
		name = "Mataivalu ni mataivalu digitaki"
		location = 7302
		division_template = "Mataivalu ni mataivalu digitaki"
		start_experience_factor = 0.5
		start_equipment_factor = 0.01
	}
	division = {
		name = "Mataivalu ni rarama baleta"
		location = 7302
		division_template = "Mataivalu ni rarama baleta"
		start_experience_factor = 0.3
		start_equipment_factor = 0.01
	}

}

instant_effect = {

	add_equipment_to_stockpile = {
		type = infantry_weapons1
		amount = 2520
		producer = FRA
	}
	add_equipment_to_stockpile = {
		type = Anti_tank_0
		amount = 90
		producer = ENG
	}
	add_equipment_to_stockpile = {
		type = Anti_Air_1
		amount = 99
		producer = USA
	}
	add_equipment_to_stockpile = {
		type = command_control_equipment1
		amount = 230
		producer = USA
	}

}
