﻿division_template = {
	name = "Infantry Brigade"

	regiments = {
		Militia_Bat = { x = 0 y = 0 }
		Militia_Bat = { x = 0 y = 1 }
		Militia_Bat = { x = 0 y = 2 }
	}
}


units = {
	division = {
		name = "1st Brigade"
		location = 1197
		division_template = "Infantry Brigade"
		start_experience_factor = 0.2
		start_equipment_factor = 0.01
	}
	division = {
		name = "2nd Brigade"
		location = 8063
		division_template = "Infantry Brigade"
		start_experience_factor = 0.2
		start_equipment_factor = 0.01
	}
	division = {
		name = "3rd Brigade"
		location = 1082
		division_template = "Infantry Brigade"
		start_experience_factor = 0.2
		start_equipment_factor = 0.01
	}
}

instant_effect = {
	add_equipment_to_stockpile = {
		type = infantry_weapons1		#K-09
		amount = 3800
		producer = KAC
	}
	add_equipment_to_stockpile = {
		type = infantry_weapons		#AKM
		amount = 1500
		producer = SOV
	}
	add_equipment_to_stockpile = {
		type = Anti_tank_0
		amount = 500
		producer = KAC
	}
}