﻿division_template = {
	name = "Stormpanserbataljon"

	division_names_group = NOR_MEC_01

	regiments = {
		Arm_Inf_Bat = { x = 0 y = 0 }
	}
	support = {
		armor_Comp = { x = 0 y = 0 }
		Arm_Recce_Comp = { x = 0 y = 1 }
		SP_Arty_Battery = { x = 0 y = 2 }
		SP_AA_Battery = { x = 0 y = 3 }
		H_Engi_Comp = { x = 0 y = 4 }
	}
}

division_template = {
	name = "Infanteribataljon"

	division_names_group = NOR_INF_01

	regiments = {
		Mech_Inf_Bat = { x = 0 y = 0 }
	}
	support = {
		Mech_Recce_Comp = { x = 0 y = 0 }
		SP_Arty_Battery = { x = 0 y = 1 }
		SP_AA_Battery = { x = 0 y = 2 }
		L_Engi_Comp = { x = 0 y = 3 }
	}
}

division_template = {
	name = "Lett Motorisert Bataljon"

	division_names_group = NOR_INF_02

	regiments = {
		Mot_Inf_Bat = { x = 0 y = 0 }
	}
}

division_template = {
	name = "Spesialkommandogruppe"

	division_names_group = NOR_SPEC_01

	regiments = {
		Special_Forces = { x = 0 y = 0 }
	}
	priority = 2
}

division_template = {
	name = "Lett Infanteribataljon"

	division_names_group = NOR_INF_02

	regiments = {
		L_Inf_Bat = { x = 0 y = 0 }
	}
	support = {
		L_Recce_Comp = { x = 0 y = 0 }
	}
}

division_template = {
	name = "Infanteribrigade" #for the AI and player to build

	division_names_group = NOR_INF_03

	regiments = {
		Mot_Inf_Bat = { x = 0 y = 0 }
		Mech_Inf_Bat = { x = 0 y = 1 }
		Mech_Inf_Bat = { x = 0 y = 2 }
		Arm_Inf_Bat = { x = 1 y = 0 }
		Mech_Inf_Bat = { x = 1 y = 1 }
		SP_Arty_Bat = { x = 1 y = 2 }
	}
	support = {
		SP_AA_Battery = { x = 0 y = 0 }
		armor_Comp = { x = 0 y = 1 }
	}
}

units = {
####### Norwegian Army #######

	division = {
		#name = "2. Bataljon"
		division_name = {
			is_name_ordered = yes
			name_order = 2
		}
		location = 6130 #Skjold
		division_template = "Infanteribataljon"
		start_experience_factor = 0.3
		start_equipment_factor = 0.01
	}
	division = {
		#name = "Panserbataljonen"
		division_name = {
			is_name_ordered = yes
			name_order = 1
		}
		location = 6130 #Setermoen
		division_template = "Stormpanserbataljon"
		start_experience_factor = 0.5
		start_equipment_factor = 0.01
	}
	division = {
		#name = "Telemark Bataljon"
		division_name = {
			is_name_ordered = yes
			name_order = 1
		}
		location = 3136 #Rena
		division_template = "Stormpanserbataljon"
		start_experience_factor = 0.7
		start_equipment_factor = 0.01
	}
	division = {
		#name = "Forsvarets Spesialkommando"
		division_name = {
			is_name_ordered = yes
			name_order = 1
		}
		location = 3136 #Rena
		division_template = "Spesialkommandogruppe"
		start_experience_factor = 0.9
		start_equipment_factor = 0.01
	}

	division = {
		#name = "Garrisonen i Sør-Varanger"
		division_name = {
			is_name_ordered = yes
			name_order = 2
		}
		location = 9116
		division_template = "Lett Infanteribataljon"
		start_experience_factor = 0.4
		start_equipment_factor = 0.01
	}
	division = {
		#name = "H.M. Kongens Garde"
		division_name = {
			is_name_ordered = yes
			name_order = 1
		}
		location = 6115 #Oslo
		division_template = "Lett Motorisert Bataljon"
		start_experience_factor = 0.3
		start_equipment_factor = 0.01
	}

###### Navy ########
}

instant_effect = {
	#### Aircraft ####
	add_equipment_to_stockpile = {
		type = MR_Fighter4 #F-35
		amount = 6
		producer = USA
	}

	add_equipment_to_stockpile = {
		type = MR_Fighter2 #F-16A
		amount = 57
		producer = USA
	}
	add_equipment_to_stockpile = {
		type = L_Strike_fighter1 #Saab MFI-15 Safari
		amount = 16
		producer = SWE
		#version_name = "Saab MFI-15 Safari"
	}
	add_equipment_to_stockpile = {
		type = naval_plane2 #P-3C Orion
		amount = 6
		producer = USA
	}
	add_equipment_to_stockpile = {
		type = transport_helicopter4 #NHIndustries NH-90
		amount = 3
		producer = FRA
	}
	add_equipment_to_stockpile = {
		type = transport_helicopter1 #Sea King HU5
		amount = 3
		producer = USA
		#version_name = "Sea King HU5"
	}
	add_equipment_to_stockpile = {
		type = transport_plane3 #C-130J Super Hercules
		amount = 4
		producer = USA
	}

	### Vehicles ###
	add_equipment_to_stockpile = {
		type = MBT_4 #Leopard 2A4
		amount = 52
		producer = GER
	}

	add_equipment_to_stockpile = {
		type = IFV_5 #CV-90 Upg vers
		amount = 41
		producer = SWE
	}

	add_equipment_to_stockpile = {
		type = IFV_4 #CV-90 Mk1
		amount = 104
		producer = SWE
	}

	add_equipment_to_stockpile = {
		type = APC_2 #M113
		amount = 109
		producer = USA
	}

	add_equipment_to_stockpile = {
		type = util_vehicle_2 #Bandvagn 206
		amount = 500
		producer = SWE
	}

	add_equipment_to_stockpile = {
		type = APC_3 #NOR rebuilt M113's
		amount = 24
	}

	add_equipment_to_stockpile = {
		type = APC_3 #XA-180
		amount = 43
		producer = FIN
	}

	add_equipment_to_stockpile = {
		type = APC_4 #XA-200
		amount = 32
		producer = FIN
	}

	add_equipment_to_stockpile = {
		type = util_vehicle_2 #M-B G-Class
		amount = 80
		producer = GER
	}

	add_equipment_to_stockpile = {
		type = util_vehicle_4 #Iveco LMV
		amount = 169
		producer = ITA
	}

	add_equipment_to_stockpile = {
		type = util_vehicle_4 #Dingo
		amount = 20
		producer = GER
	}

	add_equipment_to_stockpile = {
		type = SP_arty_1 #M109A3
		amount = 18
		producer = USA
	}

	add_equipment_to_stockpile = {
		type = SP_R_arty_1 #M270
		amount = 12
		producer = USA
	}

	### Inf Equip
	add_equipment_to_stockpile = {
		type = infantry_weapons4 #2005
		amount = 2900
		producer = GER
	}

	add_equipment_to_stockpile = {
		type = infantry_weapons #1965
		amount = 6000
	}

	add_equipment_to_stockpile = {
		type = Anti_tank_1 #Eryx
		amount = 45
		producer = CAN
	}

	add_equipment_to_stockpile = {
		type = Anti_tank_2 #Javelin
		amount = 60
		producer = USA
	}

	add_equipment_to_stockpile = {
		type = Heavy_Anti_tank_1 #TOW-2
		amount = 50
		producer = USA
	}

	add_equipment_to_stockpile = {
		type = SP_Anti_Air_2 #NASAMS-II
		amount = 24
	}

	add_equipment_to_stockpile = {
		type = Anti_Air_1 #RBS 70
		amount = 40
		producer = SWE
	}

	add_equipment_to_stockpile = {
		type = command_control_equipment4 #C4ISTAR
		amount = 340
	}
}