﻿units = {

	### Naval OOB ###
	fleet = {
		name = "Northern Gulf of Thailand Fleet"
		naval_base = 4433
		task_force = {
			name = "Northern Gulf of Thailand Fleet"
			location = 4433
			ship = {
				name = "Chakri Naruebet"
				definition = helicopter_operator
				start_experience_factor = 0.30
				equipment = { helicopter_operator_hull_1 = { amount = 1 owner = SIA creator = SPR version_name = "Príncipe de Asturias Class" } }
			}
			ship = {
				name = "HTMS Naresuan"
				definition = frigate
				start_experience_factor = 0.30
				equipment = { frigate_hull_2 = { amount = 1 owner = SIA creator = CHI version_name = "Type 053 Class" } }
			}
			ship = {
				name = "HTMS Phutthayotfa Chulalok"
				definition = frigate
				start_experience_factor = 0.30
				equipment = { frigate_hull_1 = { amount = 1 owner = SIA creator = USA version_name = "Knox Class" } }
			}
			ship = {
				name = "HTMS Rattanakosin"
				definition = corvette
				start_experience_factor = 0.30
				equipment = { corvette_hull_3 = { amount = 1 owner = SIA creator = USA version_name = "Ratanakosin Class" } }
			}
		}
	}
	fleet = {
		name = "Southern Gulf of Thailand Fleet"
		naval_base = 7236
		task_force = {
			name = "Southern Gulf of Thailand Fleet"
			location = 7236
			ship = { name = "HTMS Tapi"
				definition = corvette
				start_experience_factor = 0.30
				equipment = { corvette_hull_1 = { amount = 1 owner = SIA version_name = "Tapi Class" } }
			}
			ship = {
				name = "HTMS Khirirat"
				definition = corvette
				start_experience_factor = 0.30
				equipment = { corvette_hull_1 = { amount = 1 owner = SIA version_name = "Tapi Class" } }
			}
			ship = {
				name = "HTMS Kraburi"
				definition = frigate
				start_experience_factor = 0.30
				equipment = { frigate_hull_2 = { amount = 1 owner = SIA creator = CHI version_name = "Type 053 Class" } }
			}
			ship = {
				name = "HTMS Saiburi"
				definition = frigate
				start_experience_factor = 0.30
				equipment = { frigate_hull_2 = { amount = 1 owner = SIA creator = CHI version_name = "Type 053 Class" } }
			}
			ship = {
				name = "HTMS Phutthaloetla Naphalai"
				definition = frigate
				start_experience_factor = 0.30
				equipment = { frigate_hull_1 = { amount = 1 owner = SIA creator = USA version_name = "Knox Class" } }
			}
		}
	}
	fleet = {
		name = "Andaman Sea Fleet"
		naval_base = 12230
		task_force = {
			name = "Andaman Sea Fleet"
			location = 12230
			ship = {
				name = "HTMS Taksin"
				definition = frigate
				start_experience_factor = 0.30
				equipment = { frigate_hull_2 = { amount = 1 owner = SIA creator = CHI version_name = "Type 053 Class" } }
			}
			ship = {
				name = "HTMS Chao Phraya"
				definition = frigate
				start_experience_factor = 0.30
				equipment = { frigate_hull_2 = { amount = 1 owner = SIA creator = CHI version_name = "Type 053 Class" } }
			}
			ship = {
				name = "HTMS Bangpakong"
				definition = frigate
				start_experience_factor = 0.30
				equipment = { frigate_hull_2 = { amount = 1 owner = SIA creator = CHI version_name = "Type 053 Class" } }
			}
			ship = {
				name = "HTMS Sukhothai"
				definition = corvette
				start_experience_factor = 0.30
				equipment = { corvette_hull_3 = { amount = 1 owner = SIA creator = USA version_name = "Ratanakosin Class" } }
			}
		}
	}
}
