﻿division_template = {
	name = "Mekaniserad Bataljon"

	division_names_group = SWE_MEC_01

	regiments = {
		Arm_Inf_Bat = { x = 0 y = 0 }
	}
	support = {
		armor_Comp = { x = 0 y = 0 }
		Arm_Recce_Comp = { x = 0 y = 1 }
		SP_Arty_Battery = { x = 0 y = 2 }
		SP_AA_Battery = { x = 0 y = 3 }
		H_Engi_Comp = { x = 0 y = 4 }
	}
}

division_template = {
	name = "Lätt Mekaniserad Bataljon"

	division_names_group = SWE_MEC_02

	regiments = {
		Mech_Inf_Bat = { x = 0 y = 0 }
	}
	support = {
		Mech_Recce_Comp = { x = 0 y = 0 }
		SP_Arty_Battery = { x = 0 y = 1 }
		SP_AA_Battery = { x = 0 y = 2 }
		H_Engi_Comp = { x = 0 y = 3 }
	}
}

division_template = {
	name = "Motoriserad Bataljon"

	division_names_group = SWE_MOT_01

	regiments = {
		Mot_Inf_Bat = { x = 0 y = 0 }
	}
	support = {
		Mot_Recce_Comp = { x = 0 y = 0 }
	}
}

division_template = {
	name = "Lätt Skyttebataljon"

	division_names_group = SWE_INF_01

	regiments = {
		L_Inf_Bat = { x = 0 y = 0 }
	}
	support = {
		L_Recce_Comp = { x = 0 y = 0 }
	}
}

division_template = {
	name = "Mekaniserad Stridsgrupp"

	division_names_group = SWE_MEC_03

	regiments = {
		Arm_Inf_Bat = { x = 0 y = 0 }
	}
	support = {
		armor_Comp = { x = 0 y = 0 }
	}
}

division_template = {
	name = "Amfibebataljon"

	division_names_group = SWE_MAR_01

	regiments = {
		L_Marine_Bat = { x = 0 y = 0 }
	}
	support = {
		L_Recce_Comp = { x = 0 y = 0 }
	}
}

division_template = {
	name = "Luftburna Husarregementet"

	division_names_group = SWE_AIR_01

	regiments = {
		Special_Forces = { x = 0 y = 0 }
		Special_Forces = { x = 0 y = 1 }
	}
	priority = 2
}


division_template = {
	name = "Jägarbataljon"

	division_names_group = SWE_SPEC_01

	regiments = {
		Special_Forces = { x = 0 y = 0 }
	}
	priority = 2
}

division_template = {
	name = "Specialförband"

	#division_names_group = SWE_AIR_01

	regiments = {
		Special_Forces = { x = 0 y = 0 }
	}
	priority = 2
}

units = {

####### Swedish Army #######

	division = {
		#name = "10:e Livbataljonen"
		division_name = {
			is_name_ordered = yes
			name_order = 10
		}
		location = 6050
		division_template = "Lätt Skyttebataljon"
		start_experience_factor = 0.5
		start_equipment_factor = 0.01
	}
	division = {
		#name = "12:e Motoriserade Bataljonen"
		division_name = {
			is_name_ordered = yes
			name_order = 12
		}
		location = 6050
		division_template = "Motoriserad Bataljon"
		start_experience_factor = 0.5
		start_equipment_factor = 0.01
	}

	division = {
		name = "191:a Mekaniserade Bataljonen"
		# division_name = {
		# 	is_name_ordered = yes
		# 	name_order = 1
		# }
		location = 6165
		division_template = "Mekaniserad Bataljon"
		start_experience_factor = 0.6
		start_equipment_factor = 0.01
	}
	division = {
		name = "192:a Mekaniserade Bataljonen"
		# division_name = {
		# 	is_name_ordered = yes
		# 	name_order = 1
		# }
		location = 6165
		division_template = "Mekaniserad Bataljon"
		start_experience_factor = 0.6
		start_equipment_factor = 0.01
	}

	division = {
		#name = "71:a Lätta Mekaniserade Bataljonen"
		division_name = {
			is_name_ordered = yes
			name_order = 71
		}
		location = 9300
		division_template = "Lätt Mekaniserad Bataljon"
		start_experience_factor = 0.6
		start_equipment_factor = 0.01
	}
	division = {
		#name = "72:a Mekaniserade Bataljonen"
		division_name = {
			is_name_ordered = yes
			name_order = 72
		}
		location = 9300
		division_template = "Mekaniserad Bataljon"
		start_experience_factor = 0.6
		start_equipment_factor = 0.01
	}

	division = {
		#name = "41:a Mekaniserade Bataljonen"
		division_name = {
			is_name_ordered = yes
			name_order = 41
		}
		location = 3375
		division_template = "Mekaniserad Bataljon"
		start_experience_factor = 0.6
		start_equipment_factor = 0.01
	}
	division = {
		#name = "42:a Mekaniserade Bataljonen"
		division_name = {
			is_name_ordered = yes
			name_order = 42
		}
		location = 3375
		division_template = "Mekaniserad Bataljon"
		start_experience_factor = 0.6
		start_equipment_factor = 0.01
	}

	division = {
		#name = "Stridsgrupp Gotland"
		division_name = {
			is_name_ordered = yes
			name_order = 1
		}
		location = 6258
		division_template = "Mekaniserad Stridsgrupp"
		start_experience_factor = 0.6
		start_equipment_factor = 0.01
	}

	division = {
		name = "Amfibieregementet (Amf 1)"
		division_name = {
			is_name_ordered = yes
			name_order = 2
		}
		location = 161
		division_template = "Amfibebataljon"
		start_experience_factor = 0.6
		start_equipment_factor = 0.01
	}

	division = {
		name = "Livregementets Husarer (K 3)"
		division_name = {
			is_name_ordered = yes
			name_order = 1
		}
		location = 3063
		division_template = "Luftburna Husarregementet"
		start_experience_factor = 0.8
		start_equipment_factor = 0.01
	}

	division = {
		#name = "193:a Jägarbataljon"
		division_name = {
			is_name_ordered = yes
			name_order = 193
		}
		location = 6165
		division_template = "Jägarbataljon"
		start_experience_factor = 0.8
		start_equipment_factor = 0.01
	}

	division = {
		name = "Särskilda Operationsgruppen (SOG)"
		# division_name = {
		# 	is_name_ordered = yes
		# 	name_order = 1
		# }
		location = 3063 #Karlsborg
		division_template = "Specialförband"
		start_experience_factor = 0.9
		start_equipment_factor = 0.01
	}


	###### Navy ########
}

instant_effect = {
	### Aircraft

	add_equipment_to_stockpile = {
		type = MR_Fighter3 #JAS-39
		amount = 97
	}
	add_equipment_to_stockpile = {
		type = transport_plane3 #C-130J Super Hercules
		amount = 5
		producer = USA
	}
	add_equipment_to_stockpile = {
		type = transport_helicopter2 #Sikorsky UH-60 Black Hawk
		amount = 15
		producer = USA
	}
	add_equipment_to_stockpile = {
		type = transport_helicopter1 #AW109
		amount = 20
		producer = ITA
		#version_name = "AW109"
	}
	add_equipment_to_stockpile = {
		type = transport_helicopter4 #NH-90
		amount = 14
		producer = FRA
	}

	### Inf Equip
	add_equipment_to_stockpile = {
		type = infantry_weapons2 #1985
		amount = 4000
	}

	add_equipment_to_stockpile = {
		type = infantry_weapons4 #2005
		amount = 240
	}


	add_equipment_to_stockpile = {
		type = Anti_tank_1 #BILL
		amount = 140
	}

	add_equipment_to_stockpile = {
		type = Anti_tank_2 #MBT LAW
		amount = 90
	}

	add_equipment_to_stockpile = {
		type = Heavy_Anti_tank_0 #TOW
		amount = 80
		producer = USA
	}

	add_equipment_to_stockpile = {
		type = Anti_Air_1 #RBS 70
		amount = 150
	}

	add_equipment_to_stockpile = {
		type = SP_Anti_Air_1 #RBS 90
		amount = 50
	}

	add_equipment_to_stockpile = {
		type = SP_Anti_Air_2 #RBS-23
		amount = 40
	}

	add_equipment_to_stockpile = {
		type = command_control_equipment4 #C4ISTAR
		amount = 540
	}

	### Vehicles

	add_equipment_to_stockpile = {
		type = mbt_hull_1
		variant_name = "Leopard 2A4"
		amount = 9
		producer = GER
	}
	add_equipment_to_stockpile = {
		type = mbt_hull_1
		variant_name = "Leopard 2A5"
		amount = 120
		producer = GER
	}

	add_equipment_to_stockpile = {
		type = util_vehicle_4 #RG32
		amount = 360
		producer = SAF
	}

	add_equipment_to_stockpile = {
		type = IFV_4 #cv-90
		amount = 264
	}

	add_equipment_to_stockpile = {
		type = IFV_5 #cv-90 mk2
		amount = 120
	}

	add_equipment_to_stockpile = {
		type = IFV_1 #pbv-302
		amount = 281
	}

	add_equipment_to_stockpile = {
		type = APC_4 #bv-s10
		amount = 150
	}

	add_equipment_to_stockpile = {
		type = APC_3 #XA-180
		amount = 34
		producer = FIN
	}

	add_equipment_to_stockpile = {
		type = APC_4 #XA-202
		amount = 168
		producer = FIN
	}

	add_equipment_to_stockpile = {
		type = APC_5 #Patria AMV
		amount = 113
		producer = FIN
	}

	### Artillery

	add_equipment_to_stockpile = {
		type = SP_arty_2 #archer
		amount = 48
	}
}