﻿division_template = {
	name = "Mekanize Piyade Tümeni"

	regiments = {
		armor_Bat = { x = 0 y = 0 }
		armor_Bat = { x = 0 y = 1 }
		Arm_Inf_Bat = { x = 1 y = 0 }
		Mech_Inf_Bat = { x = 1 y = 1 }
		SP_Arty_Bat = { x = 2 y = 0 }
		SP_Arty_Bat = { x = 2 y = 1 }
	}
	support = {
		H_Engi_Comp = { x = 0 y = 0 }
		Mot_Recce_Comp = { x = 0 y = 1 }
	}
}
division_template = {
	name = "Zırhlı Tugay"

	regiments = {
		armor_Bat = { x = 0 y = 0 }
		armor_Bat = { x = 0 y = 1 }
		Mech_Inf_Bat = { x = 1 y = 0 }
		Mech_Inf_Bat = { x = 1 y = 1 }
		SP_Arty_Bat = { x = 2 y = 0 }
	}
	support = {
		H_Engi_Comp = { x = 0 y = 0 }
		Mot_Recce_Comp = { x = 0 y = 1 }
	}
}
division_template = {
	name = "Piyade Tümeni"

	regiments = {
		Mot_Inf_Bat = { x = 0 y = 0 }
		Mot_Inf_Bat = { x = 0 y = 1 }
		Mot_Inf_Bat = { x = 1 y = 0 }
		Mot_Inf_Bat = { x = 1 y = 1 }
		Arty_Bat = { x = 2 y = 0 }
	}
	support = {
		L_Engi_Comp = { x = 0 y = 0 }
		Mot_Recce_Comp = { x = 0 y = 1 }
	}
}
division_template = {
	name = "Komando Tugayı"

	regiments = {
		Special_Forces = { x = 0 y = 0 }
		Special_Forces = { x = 0 y = 1 }
		Special_Forces = { x = 1 y = 0 }
		Special_Forces = { x = 1 y = 1 }
	}
	priority = 2
}
division_template = {
	name = "Amfibi Deniz Piyade Tugayı"

	regiments = {
		Mech_Marine_Bat = { x = 0 y = 0 }
		Mech_Marine_Bat = { x = 0 y = 1 }
		Mech_Marine_Bat = { x = 1 y = 0 }
		Arty_Bat = { x = 2 y = 0 }
	}
}

units = {
	##15 Armoured Brigades
	division = {
		name = "95. Zırhlı Tugay"
		location = 3893
		division_template = "Zırhlı Tugay"
		start_experience_factor = 0.6
		start_equipment_factor = 0.01
	}
	division = {
		name = "52. Zırhlı Tugay"
		location = 9833
		division_template = "Zırhlı Tugay"
		start_experience_factor = 0.6
		start_equipment_factor = 0.01
	}
	division = {
		name = "1. Zırhlı Tugay"
		location = 3893
		division_template = "Zırhlı Tugay"
		start_experience_factor = 0.6
		start_equipment_factor = 0.01
	}
	division = {
		name = "5. Zırhlı Tugay"
		location = 9893
		division_template = "Zırhlı Tugay"
		start_experience_factor = 0.6
		start_equipment_factor = 0.01
	}
	division = {
		name = "172. Zırhlı Tugay"
		location = 7530
		division_template = "Zırhlı Tugay"
		start_experience_factor = 0.6
		start_equipment_factor = 0.01
	}
	division = {
		name = "4. Zırhlı Tugay"
		location = 11853
		division_template = "Zırhlı Tugay"
		start_experience_factor = 0.6
		start_equipment_factor = 0.01
	}
	division = {
		name = "14. Zırhlı Tugay"
		location = 7193
		division_template = "Zırhlı Tugay"
		start_experience_factor = 0.6
		start_equipment_factor = 0.01
	}
	division = {
		name = "48. Zırhlı Tugay"
		location = 9932
		division_template = "Zırhlı Tugay"
		start_experience_factor = 0.6
		start_equipment_factor = 0.01
	}
	division = {
		name = "28. Zırhlı Tugay"
		location = 7193
		division_template = "Zırhlı Tugay"
		start_experience_factor = 0.6
		start_equipment_factor = 0.01
	}
	division = {
		name = "39. Zırhlı Tugay"
		location = 7193
		division_template = "Zırhlı Tugay"
		start_experience_factor = 0.6
		start_equipment_factor = 0.01
	}
	division = {
		name = "19. Zırhlı Tugay"
		location = 9799
		division_template = "Zırhlı Tugay"
		start_experience_factor = 0.6
		start_equipment_factor = 0.01
	}
	division = {
		name = "11. Zırhlı Tugay"
		location = 10041
		division_template = "Zırhlı Tugay"
		start_experience_factor = 0.6
		start_equipment_factor = 0.01
	}
	division = {
		name = "2. Zırhlı Tugay"
		location = 10122
		division_template = "Zırhlı Tugay"
		start_experience_factor = 0.6
		start_equipment_factor = 0.01
	}
	division = {
		name = "102. Zırhlı Tugay"
		location = 3893	#Keşan
		division_template = "Zırhlı Tugay"
		start_experience_factor = 0.6
		start_equipment_factor = 0.01
	}
	division = {
		name = "105. Zırhlı Tugay"
		location = 3893
		division_template = "Zırhlı Tugay"
		start_experience_factor = 0.6
		start_equipment_factor = 0.01
	}

	##17 Mechanised Brigades
	division = {
		name = "4. Mekanize Piyade Tugayı"
		location = 849
		division_template = "Mekanize Piyade Tümeni"
		start_experience_factor = 0.6
		start_equipment_factor = 0.01
	}
	division = {
		name = "8. Mekanize Piyade Tugayı"
		location = 6895
		division_template = "Mekanize Piyade Tümeni"
		start_experience_factor = 0.6
		start_equipment_factor = 0.01
	}
	division = {
		name = "18. Mekanize Piyade Tugayı"
		location = 6864
		division_template = "Mekanize Piyade Tümeni"
		start_experience_factor = 0.6
		start_equipment_factor = 0.01
	}
	division = {
		name = "54. Mekanize Piyade Tugayı"
		location = 11842
		division_template = "Mekanize Piyade Tümeni"
		start_experience_factor = 0.6
		start_equipment_factor = 0.01
	}
	division = {
		name = "55. Mekanize Piyade Tugayı"
		location = 11842
		division_template = "Mekanize Piyade Tümeni"
		start_experience_factor = 0.6
		start_equipment_factor = 0.01
	}
	division = {
		name = "65. Mekanize Piyade Tugayı"
		location = 3893
		division_template = "Mekanize Piyade Tümeni"
		start_experience_factor = 0.6
		start_equipment_factor = 0.01
	}
	division = {
		name = "28. Mekanize Piyade Tugayı"
		location = 804
		division_template = "Mekanize Piyade Tümeni"
		start_experience_factor = 0.6
		start_equipment_factor = 0.01
	}
	division = {
		name = "39. Mekanize Piyade Tugayı"
		location = 12029
		division_template = "Mekanize Piyade Tümeni"
		start_experience_factor = 0.6
		start_equipment_factor = 0.01
	}
	division = {
		name = "16. Mekanize Tugay"
		location = 4512
		division_template = "Mekanize Piyade Tümeni"
		start_experience_factor = 0.6
		start_equipment_factor = 0.01
	}
	division = {
		name = "20. Mekanize Tugay"
		location = 9823
		division_template = "Mekanize Piyade Tümeni"
		start_experience_factor = 0.6
		start_equipment_factor = 0.01
	}
	division = {
		name = "70. Mekanize Piyade Tugayı"
		location = 12416
		division_template = "Mekanize Piyade Tümeni"
		start_experience_factor = 0.6
		start_equipment_factor = 0.01
	}
	division = {
		name = "1. Mekanize Piyade Tugayı"
		location = 4583
		division_template = "Mekanize Piyade Tümeni"
		start_experience_factor = 0.6
		start_equipment_factor = 0.01
	}
	division = {
		name = "12. Mekanize Piyade Tugayı"
		location = 7470
		division_template = "Mekanize Piyade Tümeni"
		start_experience_factor = 0.6
		start_equipment_factor = 0.01
	}
	division = {
		name = "14. Mekanize Piyade Tugayı"
		location = 10472
		division_template = "Mekanize Piyade Tümeni"
		start_experience_factor = 0.6
		start_equipment_factor = 0.01
	}
	division = {
		name = "25. Mekanize Piyade Tugayı"
		location = 10403
		division_template = "Mekanize Piyade Tümeni"
		start_experience_factor = 0.6
		start_equipment_factor = 0.01
	}
	division = {
		name = "58. Mekanize Piyade Tugayı"
		location = 804
		division_template = "Mekanize Piyade Tümeni"
		start_experience_factor = 0.6
		start_equipment_factor = 0.01
	}
	division = {
		name = "106. Mekanize Piyade Tugayı"
		location = 9893
		division_template = "Mekanize Piyade Tümeni"
		start_experience_factor = 0.6
		start_equipment_factor = 0.01
	}

	##12 Infantry Brigades
	division = {
		name = "23. Piyade Tugayı"
		location = 9833
		division_template = "Piyade Tümeni"
		start_experience_factor = 0.6
		start_equipment_factor = 0.01
	}
	division = {
		name = "15. Piyade Tugayı"
		location = 11842
		division_template = "Piyade Tümeni"
		start_experience_factor = 0.6
		start_equipment_factor = 0.01
	}
	division = {
		name = "3. Piyade Tugayı"
		location = 864
		division_template = "Piyade Tümeni"
		start_experience_factor = 0.6
		start_equipment_factor = 0.01
	}
	division = {
		name = "34. Piyade Tugayı"
		location = 1463
		division_template = "Piyade Tümeni"
		start_experience_factor = 0.6
		start_equipment_factor = 0.01
	}
	division = {
		name = "2. Piyade Tugayı"
		location = 11739
		division_template = "Piyade Tümeni"
		start_experience_factor = 0.6
		start_equipment_factor = 0.01
	}
	division = {
		name = "6. Piyade Tugayı"
		location = 9799
		division_template = "Piyade Tümeni"
		start_experience_factor = 0.6
		start_equipment_factor = 0.01
	}
	division = {
		name = "10. Piyade Tugayı"
		location = 11880
		division_template = "Piyade Tümeni"
		start_experience_factor = 0.6
		start_equipment_factor = 0.01
	}
	division = {
		name = "34. Piyade Tugayı"
		location = 984
		division_template = "Piyade Tümeni"
		start_experience_factor = 0.6
		start_equipment_factor = 0.01
	}
	division = {
		name = "49. Piyade Tugayı"
		location = 10399
		division_template = "Piyade Tümeni"
		start_experience_factor = 0.6
		start_equipment_factor = 0.01
	}
	division = {
		name = "51. Piyade Tugayı"
		location = 11797
		division_template = "Piyade Tümeni"
		start_experience_factor = 0.6
		start_equipment_factor = 0.01
	}
	division = {
		name = "17. Piyade Tugayı"
		location = 9954
		division_template = "Piyade Tümeni"
		start_experience_factor = 0.6
		start_equipment_factor = 0.01
	}
	division = {
		name = "9. Piyade Tugayı"
		location = 6991
		division_template = "Piyade Tümeni"
		start_experience_factor = 0.6
		start_equipment_factor = 0.01
	}

	##4 Commando Brigades
	division = {
		name = "Kayseri Dağ Komando Tugayı"
		location = 6977
		division_template = "Komando Tugayı"
		start_experience_factor = 0.9
		start_equipment_factor = 0.01
	}
	division = {
		name = "2. Komando Tugayı"
		location = 3905
		division_template = "Komando Tugayı"
		start_experience_factor = 0.9
		start_equipment_factor = 0.01
	}
	division = {
		name = "3. Komando Tugayı"
		location = 871
		division_template = "Komando Tugayı"
		start_experience_factor = 0.9
		start_equipment_factor = 0.01
	}
	division = {
		name = "4. Komando Tugayı"
		location = 11797
		division_template = "Komando Tugayı"
		start_experience_factor = 0.9
		start_equipment_factor = 0.01
	}

	#Amphibious Marine Brigade
	division = {
		name = "Amfibi Deniz Piyade Tugayı"
		location = 4112
		division_template = "Amfibi Deniz Piyade Tugayı"
		start_experience_factor = 0.7
		start_equipment_factor = 0.01
	}
}

instant_effect = {
	add_equipment_to_stockpile = {
		type = infantry_weapons
		amount = 39000 #HK33 - majority
		producer = TUR
	}
	add_equipment_to_stockpile = {
		type = command_control_equipment2
		amount = 5500
		producer = TUR
	}
	add_equipment_to_stockpile = {
		type = Anti_tank_0 #M72 LAW
		amount = 1700
		producer = FRA
	}
	add_equipment_to_stockpile = {
		type = Heavy_Anti_tank_1 #TOW
		amount = 740
		producer = USA
	}
	add_equipment_to_stockpile = {
		type = Anti_Air_1
		amount = 1700
		producer = USA
	}
	add_equipment_to_stockpile = {
		type = util_vehicle_0	 #
		amount = 4000
		producer = TUR
	}

	add_equipment_to_stockpile = {
		type = MBT_1	 #M48
		#version_name = "M48A5"
		amount = 2876
		producer = USA
	}
	add_equipment_to_stockpile = {
		type = MBT_1	 #60
		#version_name = "M60A3"
		amount = 932
		producer = USA
	}
	add_equipment_to_stockpile = {
		type = MBT_2	 #Leopard 1A1
		#version_name = "Leopard 1A1"
		amount = 397
		producer = GER
	}
	add_equipment_to_stockpile = {
		type = util_vehicle_2	 #Akrep
		amount = 200
		producer = TUR
	}
	add_equipment_to_stockpile = {
		type = util_vehicle_3	 #Cobra
		amount = 200
		producer = TUR
	}
	add_equipment_to_stockpile = {
		type = IFV_2		 #AIFV
		amount = 650
		producer = USA
	}
	add_equipment_to_stockpile = {
		type = APC_2		 #AAPC
		amount = 830
		producer = TUR
	}
	add_equipment_to_stockpile = {
		type = APC_2		 #M113
		amount = 2813
		producer = USA
	}
	add_equipment_to_stockpile = {
		type = artillery_0		 #M114
		#version_name = "M114"
		amount = 517
		producer = USA
	}
	add_equipment_to_stockpile = {
		type = SP_arty_0		 #M108T
		amount = 26
		producer = TUR
	}
	add_equipment_to_stockpile = {
		type = SP_arty_0		 #M110
		#version_name = "M110"
		amount = 219
		producer = USA
	}
	add_equipment_to_stockpile = {
		type = SP_arty_1		 #M52T
		amount = 365
		producer = TUR
	}

	###################
	### Helicopters ###
	###################

	add_equipment_to_stockpile = {
		type = attack_helicopter1 #AH-1
		amount = 37
		producer = USA
	}
	add_equipment_to_stockpile = {
		type = transport_helicopter1 #UH-1
		amount = 114
		producer = USA
	}
}